AWSTATS DATA FILE 5.5 (build 1.500)
# If you remove this file, all statistics for date 2004-01 will be lost/reset.

# Position (offset in bytes) in this file of beginning of each section
# for direct I/O access. If you made changes somewhere in this file, you
# should also remove completely the MAP section (AWStats will rewrite it
# at next update).
BEGIN_MAP 25
POS_GENERAL 1817                
POS_TIME 2166                
POS_VISITOR 14233               
POS_DAY 32066               
POS_DOMAIN 2740                
POS_LOGIN 2912                
POS_ROBOT 3051                
POS_WORMS 33018               
POS_EMAILSENDER 3763                
POS_EMAILRECEIVER 3911                
POS_SESSION 33082               
POS_SIDER 33305               
POS_FILETYPES 4050                
POS_OS 4206                
POS_BROWSER 4356                
POS_SCREENSIZE 4685                
POS_UNKNOWNREFERER 4763                
POS_UNKNOWNREFERERBROWSER 5268                
POS_ORIGIN 5658                
POS_SEREFERRALS 5813                
POS_PAGEREFS 6263                
POS_SEARCHWORDS 7056                
POS_KEYWORDS 11058               
POS_ERRORS 12930               
POS_SIDER_404 13064               
END_MAP

# LastLine    = Date of last record processed - Last record line number in last log - Last record offset in last log - Last record signature value
# FirstTime   = Date of first visit for history file
# LastTime    = Date of last visit for history file
# LastUpdate  = Date of last update - Nb of parsed records - Nb of old records - Nb of new records - Nb of corrupted - Nb of dropped
# TotalVisits = Number of visits
# TotalUnique = Number of unique visitors
# MonthHostsKnown   = Number of hosts known
# MonthHostsUnKnown = Number of hosts unknown
BEGIN_GENERAL 8
LastLine 20040201001600 81 12082 61239529554
FirstTime 20040101045834
LastTime 20040131214957
LastUpdate 20040201194745 81 72 1 8 0
TotalVisits 377                 
TotalUnique 342                 
MonthHostsKnown 0                   
MonthHostsUnknown 482                 
END_GENERAL

# Hour - Pages - Hits - Bandwidth
BEGIN_TIME 24
0 27 196 1800956
1 13 143 1884592
2 41 531 3999845
3 19 218 2945789
4 24 289 2486785
5 45 740 5825570
6 3 55 635082
7 7 54 628824
8 7 29 291972
9 60 300 3151842
10 58 135 1898501
11 29 49 458074
12 32 232 1889643
13 85 530 6799575
14 111 1164 13642203
15 42 424 5080841
16 77 1056 11097399
17 66 706 8488605
18 37 454 4201997
19 64 718 8376528
20 87 1104 12711666
21 57 745 6806898
22 30 387 4157096
23 37 347 2660879
END_TIME

# Domain - Pages - Hits - Bandwidth
# The 10 first Pages must be first (order not required for others)
BEGIN_DOMAIN 1
ip 1058 10606 111921162
END_DOMAIN

# Login - Pages - Hits - Bandwidth - Last visit
# The 10 first Pages must be first (order not required for others)
BEGIN_LOGIN 0
END_LOGIN

# Robot ID - Hits - Bandwidth - Last visit
# The 10 first Hits must be first (order not required for others)
BEGIN_ROBOT 17
internetseer 260 98540 20040131225100
slurp 148 1985098 20040131203230
wisenutbot 143 1974285 20040122083152
googlebot 81 561548 20040131153643
scooter 60 1677658 20040131203729
openfind 46 774779 20040131092316
linkwalker 46 0 20040102123121
fast-webcrawler 45 0 20040131023655
jeeves 43 615190 20040130132456
crawl 32 559943 20040130125810
ia_archiver 1 21240 20040122071711
bspider 1 21244 20040119142237
ibm 1 21244 20040121101921
exactseek 1 21244 20040112154037
appie 1 21244 20040109081734
gigabot 1 21244 20040118163538
netcraft 1 375 20040109093224
END_ROBOT

# EMail - Hits - Bandwidth - Last visit
# The 20 first Hits must be first (order not required for others)
BEGIN_EMAILSENDER 0
END_EMAILSENDER

# EMail - Hits - Bandwidth - Last visit
# The 20 first hits must be first (order not required for others)
BEGIN_EMAILRECEIVER 0
END_EMAILRECEIVER

# Files type - Hits - Bandwidth - Bandwidth without compression - Bandwidth after compression
BEGIN_FILETYPES 5
dll 3 1093 0 0
gif 6596 20862107 0 0
htm 978 13992769 0 0
jpg 2952 74613881 0 0
pdf 77 2451312 0 0
END_FILETYPES

# OS ID - Hits
BEGIN_OS 9
winme 306
winxp 3621
winnt 690
win95 72
win2000 3553
Unknown 191
macintosh 19
win98 2141
linux 13
END_OS

# Browser ID - Hits
BEGIN_BROWSER 19
netscape7.01 13
msie6.00 1
netscape5.0 75
netscape5 6
netscape4.5 32
konqueror 3
netscape4.7 1
netscape4.8 18
netscape7.0 19
netscape7.1 195
netscape4.78 5
msie5.0 647
netscape4.79 63
msie6.0 7754
msie5.5 1229
safari 1
Unknown 181
msie4.01 2
msie5.01 361
END_BROWSER

# Screen size - Hits
BEGIN_SCREENSIZE 0
END_SCREENSIZE

# Unknown referer OS - Last visit date
BEGIN_UNKNOWNREFERER 11
Net_Probe 20040124114429
CSBlaze/0.30.1_(_http://xrl.us/csblaze) 20040107100213
Mozilla5/0 20040124161514
Seeker.lookseek.com 20040129084442
Mozilla/5.0_(compatible;_Konqueror/3) 20040115230905
Mozilla/5.0 20040129140826
IUSA_Browser 20040130092112
Mozilla/3.01_(compatible;) 20040129142955
Mozilla/3.0_(compatible;_Indy_Library) 20040118195057
- 20040131072054
Mozilla/3.0_(compatible) 20040127180740
END_UNKNOWNREFERER

# Unknown referer Browser - Last visit date
BEGIN_UNKNOWNREFERERBROWSER 8
Seeker.lookseek.com 20040129084442
IUSA_Browser 20040130092112
Mozilla/3.01_(compatible;) 20040129142955
Net_Probe 20040124114429
Mozilla/3.0_(compatible;_Indy_Library) 20040118195057
- 20040131072054
CSBlaze/0.30.1_(_http://xrl.us/csblaze) 20040107100213
Mozilla/3.0_(compatible) 20040127180740
END_UNKNOWNREFERERBROWSER

# Origin - Pages - Hits 
BEGIN_ORIGIN 6
From0 279 816
From1 1 1
From2 298 301
From3 15 27
From4 465 9461
From5 0 0
END_ORIGIN

# Search engine referers ID - Pages - Hits
BEGIN_SEREFERRALS 18
msn. 76 76
google. 123 123
webcrawler. 1 1
(^|.)ask.com 2 2
images.google. 2 5
altavista. 2 2
overture.com 1 1
search.aol.co 2 2
hotbot. 2 2
yahoo. 61 61
alltheweb.com 1 1
infospace.com 1 1
metacrawler. 1 1
netscape. 4 4
(^|.)ask.co.uk 1 1
search..*com 13 13
mamma. 2 2
excite. 3 3
END_SEREFERRALS

# External page referers - Pages - Hits
# The 10 first Pages must be first (order not required for others)
BEGIN_PAGEREFS 11
http://www.referenceusa.com/bd/detail.asp 3 3
http://www.giantexplorer.com/result.php 2 2
http://www.manufacturersmart.com/cgi-shl/searcher.pl 2 2
http://search.em3.net 2 2
http://www.dogpile.com/info.dogpl/search/web/gas%2Bpackages/21/20/4/-/0/0/1/1/1/1/-/-/-/dp3%253A1073591372736%253A0%253A 1 1
http://www.dogpile.com/info.dogpl/search/web/IR%2Bovens 1 1
http://www.ajantunes.com/webapp/commerce/command/ExecMacro/Antunes_Controls/macros/slssearchrslt.d2w/report 1 1
http://www.makeindex.com 1 1
http://www.dogpile.com/info.dogpl/search/web/ul%2B508a 1 1
http://mniguide.com/results.asp 1 1
http://216.239.57.104/search 0 12
END_PAGEREFS

# Search keyphrases - Number of search
# The 10 first number of search must be first (order not required for others)
BEGIN_SEARCHWORDS 149
etter+engineering 27
gas+booster 12
oil+burner+tuning 7
rockwell+gas+regulator 6
eclipse+gas+boosters 5
types+of+burner 5
gas+booster+pump 4
burner+tuning 4
gas+pressure+booster 4
gas+booster+pumps 4
small+nozzle+gas+mixers 1
etter+engineering+co 1
natural+gas+booster+sets 1
gas+furnace+venturi+tube 1
gas+booster+valve 1
process+heating+jobs 1
spenser+gas+booster+pumps 1
eclipse+gas+pressure+booster 1
nfpa+85+history 1
stoichiometric+ratio+of+burner 1
nfpa+bulletin+86 2
203-272-9860 1
heating+parts+burners 1
infra+red+drying 1
pressure+booster 1
schlumberger+regulator 1
csearch 1
venturi+nozzle+natural+gas+burners 1
invensys+and+siemens+and+take+over 1
code+requirements+for+gas+booster+pumps 1
carl+dungs+pressure+switch 1
web+drying 2
etter+gas+pump 1
natural+gas+meter+rockwell 1
combustion+blowers+gas+air+mixers 3
natural+gas+booster 2
siesmic+shut+off+valves 1
heat+controller+flame+sensor 1
oil+burner+starts+with+bang 1
control+panel+shop 1
rockwell+natural+gas+regulators 1
nfpa+86 1
venturi+burner+design 2
fuzzy+burner+control 1
atmospheric+ring+burners 2
gas+burner+operation 1
combustion+air+pressure+switch+manufacturers 1
natural+gas+booster+pumps 2
natural+gas+pressure+regulators 1
ir+ovens 2
air+drying+systems 1
old+burner+type+2 1
etter+engineering+co. 1
drying+systems 1
evaporation+and+web+and+drying 1
spencer+and+pressure+reducing+valves 1
oil+burner+tech 1
dungs+pressure+switches 1
valves+for+gases+from+combustion 1
natural+gas+pressure+booster 2
low+pressure+gas+booster+pump 1
combustion+engineer+pressure+switch 1
booster+pump+gas 1
etter+engineering+cheshire+ct 1
pressure+booster+pump+package 1
oil+burner+excess+air+ratio 1
combustion+oxygen+deficient 1
stoichiometry+excess+air 1
gas+booster+systems 1
equimeter+incorporated 2
spencer+gas+meters 1
eclipse+gas+booster+pump 2
diaphram+gas+meter 1
powder+coat+oven 1
heater+systems 2
combustion+safeguard 1
eclipse+pressure+boosters 1
gas+pressure+charts 1
ul-508a 1
flame+safety 1
mechanical+flame+arrestors+for+burner 1
how+to+make+your+own+gas+burner 1
natural+gas+pressure+regulator 1
venturi+burners 2
1%2f4+gas+cocks 1
natural+gas+pressure+safety+switch 1
ahrexpo 1
gas+pressure+boosters 2
engineering+process+for+a+spark+plug 1
infrared+burners 1
zero+governor 2
combustion+engineering+pressure+switch 1
hermetically+sealed+gas+booster 1
etter+gas+booster 1
industrial+combustion+engineering+heaters 1
rockwell%2fequimeter 2
carl+dungs 1
gas+pressure+pump 1
spenser+gas+boosters 1
ul+approved 1
dog/webresults.htm 3
gas+meter+regulator 1
rockwell+turbine+meter 1
siemens+combustion+controls 1
meters 1
rockwell+gas+regulator+lp 2
pipe+burners 3
natural+gas+start+flame+burners 1
venturi+burner 2
gas+pressure+boost+pump 1
maxon+burner+flame+rod+chart 1
hermetic+gas+booster 3
drilled+pipe+gas+burner 1
gas+boiler+burners 1
boundary+layer+drying 1
combustion+air+blower 2
types+of+natural+gas+burners 1
hermetic+gas+boosters 1
panel+shop 1
gas+pressure+booster+pump 2
gas+boosters 3
burner+ch4 1
gas+to+hydrogen+burner 1
eclipse+natural+gas+booster 1
natural+gas+burner+nozzles 1
eclipse+gas+and+booster 2
etter 2
natural+gas+burners+types 1
mass+board+of+plumbers+and+gas+fitters 1
water+drying+systems 1
dungs+air+pressure+switches 1
gas+booster+station 1
blower+gas+burner 1
karl+dungs+actuator 1
low+pressure+natural+gas+booster+pump 1
types+of+premix+burners 1
eclipse+gas+booster+pumps 1
dungs+distributor 1
ansi+b109.3 2
natural+gas+pressure+regulators+meters 1
tuning+oil+fired+burners 1
oxygen+burner 1
gas+gauge+house+meter 1
burner+types 3
natural+gas+blower+burner 1
industrial+gas+burners+operation 1
eclipse+gas+booster 4
combustion+blower+pressure+switch 1
drying+jalapeno+peppers 1
END_SEARCHWORDS

# Search keywords - Number of search
# The 10 first number of search must be first (order not required for others)
BEGIN_KEYWORDS 176
gas 111
booster 59
burner 40
etter 34
engineering 33
pressure 31
natural 21
burners 17
eclipse 17
pump 15
low 2
sets 1
arrestors 1
boundary 1
controller 1
cheshire 1
karl 1
boiler 1
operation 2
station 1
heat 1
process 2
venturi 8
diaphram 1
203-272-9860 1
layer 1
zero 2
invensys 1
blower 5
coat 1
control 2
boost 1
csearch 1
water 1
types 11
nozzle 2
infrared 1
of 9
bulletin 2
evaporation 1
own 1
2 1
siesmic 1
controls 1
plumbers 1
co. 1
siemens 2
turbine 1
heating 2
rod 1
charts 1
powder 1
dungs 6
switch 6
heaters 1
actuator 1
equimeter 2
maxon 1
ratio 2
drilled 1
switches 2
manufacturers 1
pumps 9
shut 1
spencer 2
premix 1
ch4 1
oil 11
reducing 1
deficient 1
requirements 1
a 1
b109.3 2
from 1
gauge 1
ir 2
valves 3
gases 1
regulators 3
ovens 2
code 1
sealed 1
incorporated 2
parts 1
how 1
oxygen 2
approved 1
chart 1
tech 1
peppers 1
governor 2
package 1
meter 5
engineer 1
nozzles 1
shop 2
sensor 1
board 1
ul-508a 1
plug 1
regulator 11
spenser 2
oven 1
hydrogen 1
tube 1
over 1
ansi 2
schlumberger 1
infra 1
and 8
hermetic 4
safety 2
ahrexpo 1
distributor 1
with 1
jobs 1
bang 1
co 1
your 1
rockwell%2fequimeter 2
systems 6
make 1
history 1
flame 5
ct 1
dog/webresults.htm 3
85 1
1%2f4 1
86 3
tuning 12
for 4
pipe 4
cocks 1
meters 3
fitters 1
old 1
jalapeno 1
heater 2
blowers 3
mass 1
excess 2
furnace 1
boosters 13
mechanical 1
small 1
rockwell 11
stoichiometric 1
lp 2
combustion 14
mixers 4
fired 1
web 3
safeguard 1
to 2
starts 1
spark 1
panel 2
design 2
off 1
drying 9
carl 2
red 1
type 1
air 10
atmospheric 2
industrial 2
ring 2
stoichiometry 1
valve 1
nfpa 4
hermetically 1
start 1
take 1
ul 1
house 1
fuzzy 1
END_KEYWORDS

# Errors - Hits - Bandwidth
BEGIN_ERRORS 4
206 114 3237074
500 6 847
404 158 663953
502 1 355
END_ERRORS

# URL with 404 errors - Hits - Last URL referer
BEGIN_SIDER_404 17
/file:/C:/My+Documents/My+Webs/ETRX/Info+&amp 1 -
/images/JGM/3%20generations.jpg 2 -
/PartsLineCard.htm+-+18k 2 -
/images/Image1.gif 43 http://www.etterengineering.com/DRYING.htm
/images/JGM/Solutions...final%20copy.jpg 1 -
/Console%20front%20view%20on%20line%20w%20drop%20copy.jpg 1 -
/images/Image2.gif 44 http://www.etterengineering.com/DRYING.htm
/images/Image3.gif 46 http://www.etterengineering.com/DRYING.htm
/Info+&amp 2 -
/joke/ 1 http://www.geocities.com/webrecommend/
/WEBSHARE/flexo1.jpg 9 http://www.etterengineering.com/HEATERS.htm
/cgi-bin/Mail.pl 1 http://www.etterengineering.com
/cgi-bin/mail.pl 1 http://www.etterengineering.com
/cgi-bin/FormMail2.pl 1 http://www.etterengineering.com
/cgi-bin/Mail2.pl 1 http://www.etterengineering.com
/cgi-bin/formmail2.pl 1 http://www.etterengineering.com
/Linking%20pic.gif 1 -
END_SIDER_404

# Host - Pages - Hits - Bandwidth - Last visit date - [Start of last visit date] - [Last page of last visit]
# [Start of last visit date] and [Last page of last visit] are saved only if session is not finished
# The 10 first Hits must be first (order not required for others)
BEGIN_VISITOR 482
63.148.99.253 42 42 544063 20040109134428
209.104.34.7 41 41 522709 20040107100213
65.80.251.190 41 41 521811 20040103110554
12.111.68.25 28 186 2406922 20040113143638
67.163.132.111 27 422 2140258 20040122023950
66.207.118.206 25 25 385243 20040130101440
65.31.188.199 19 383 882729 20040101232436
12.3.50.66 14 107 1119374 20040129135909
24.2.185.168 13 114 1618603 20040127191134
208.46.203.53 12 123 1201511 20040126211636
24.151.87.135 9 93 1007624 20040128143533
159.169.223.252 1 15 291755 20040121201123
152.163.253.97 0 1 8425 
205.188.209.71 0 1 15652 
198.81.26.80 0 4 37960 
68.15.61.99 1 19 164699 20040115200147
205.188.209.73 0 1 24882 
198.81.26.81 0 3 6369 
195.92.168.171 1 13 142875 20040115000612
216.146.77.245 1 1 33061 20040116150834
205.188.209.75 0 2 4367 
24.2.226.239 7 94 273761 20040129214025
12.46.119.98 2 2 4924 20040116231701
195.92.168.175 1 13 142875 20040121221052
202.163.196.138 1 13 142875 20040122031023
64.109.138.254 5 57 614823 20040123173424
130.132.58.96 2 32 452946 20040129204345
61.14.193.211 1 15 168284 20040121025155
66.139.122.104 1 15 162518 20040106065739
66.118.187.33 1 1 21240 20040101223123
192.31.106.35 2 24 213863 20040109183949
68.15.248.209 1 15 291755 20040108154738
141.151.189.148 2 51 517814 20040130191135
152.163.253.6 0 1 2631 
65.102.2.243 3 3 37716 20040115230905
66.152.247.50 3 31 579012 20040115140529
216.204.18.227 5 51 699705 20040123200555
68.110.201.75 4 51 409160 20040102203525
193.188.161.252 1 15 291755 20040106215700
192.147.222.2 7 75 766855 20040108204607
205.188.209.80 0 3 5364 
205.188.209.82 0 2 5287 
81.215.87.57 2 31 291755 20040117161420
169.128.237.100 1 13 141350 20040128175723
81.10.17.220 1 9 112032 20040106114353
68.220.204.229 5 52 421830 20040113202147
152.121.200.200 9 103 1055613 20040108151255
195.93.33.8 0 1 786 
195.93.33.9 0 1 11067 
69.160.172.183 1 18 161982 20040104215844
199.105.164.14 1 13 143187 20040108174747
216.130.130.76 4 44 593719 20040106192943
195.93.102.2 0 3 7939 
141.154.113.103 1 1 57613 20040127203251
195.93.102.5 0 4 12449 
24.160.17.245 1 13 142875 20040124044243
152.163.252.226 0 1 2630 
63.238.119.2 1 13 141662 20040126123452
63.167.187.3 0 6 0 
152.163.252.227 2 2 574 20040114020207
63.167.187.4 8 91 1206973 20040130180412
64.12.96.38 0 1 2705 
152.163.252.228 0 1 5247 
64.56.132.32 4 43 322491 20040106210042
67.75.35.54 4 31 407612 20040121170658
63.146.33.194 1 18 229068 20040116203927
195.93.102.8 2 2 39436 20040126191513
67.82.147.86 1 15 291755 20040117034610
192.132.225.130 1 13 141350 20040116160315
4.64.203.13 5 92 440268 20040110223219
66.208.244.79 4 40 649498 20040119175312
65.165.139.133 1 15 291755 20040116131510
64.12.96.8 0 1 2706 
65.102.61.72 3 3 36420 20040115230831
207.237.35.90 5 68 770410 20040126030424
12.65.8.180 1 15 0 20040102154354
203.40.166.219 1 15 291755 20040123040834
217.33.73.30 1 1 24845 20040116142415
65.87.171.158 2 36 229068 20040102202435
64.12.96.41 0 1 20111 
64.12.96.42 0 2 7893 
24.91.110.206 3 43 528002 20040107214357
63.214.66.164 2 16 350278 20040127010738
64.12.96.44 0 1 665 
152.163.252.162 0 1 2656 
64.12.96.45 0 2 5392 
64.12.96.46 0 1 2682 
203.144.143.250 3 13 129173 20040129084413
81.240.12.27 1 13 141480 20040123092959
128.119.54.173 1 18 163662 20040112210710
203.106.133.218 1 13 142875 20040131162839
205.188.209.102 0 2 4356 
198.81.26.102 0 1 1119 
196.28.48.100 1 6 101681 20040116002748
205.188.209.103 0 2 5449 
205.188.209.104 0 1 20207 
198.81.26.104 0 1 8425 
205.188.209.105 0 1 52754 
149.157.1.122 1 13 142842 20040119181836
195.146.155.2 3 48 365142 20040130140934
198.81.26.105 0 1 2694 
67.117.88.137 1 18 229068 20040128010227
68.213.164.7 1 18 229068 20040127151735
198.81.26.107 0 3 35247 
205.188.209.109 0 2 10169 
205.188.208.10 0 1 1907 
205.172.241.11 1 13 142842 20040121160156
67.75.41.252 1 13 142530 20040115031412
211.51.79.14 2 37 389501 20040108071024
80.116.142.79 1 9 81773 20040126093316
68.112.128.20 1 24 333689 20040123064747
64.19.81.94 3 38 434019 20040116203117
12.31.33.163 1 13 142530 20040115193134
66.105.229.12 1 6 68218 20040112054731
216.17.129.250 2 30 291755 20040109204033
206.229.216.5 1 15 134027 20040105213051
210.220.31.52 1 1 58523 20040103030908
64.207.73.212 1 8 129572 20040115173742
203.199.81.149 1 8 71500 20040129170750
216.244.135.163 5 44 392042 20040112210833
207.215.248.142 6 34 635179 20040119031428
69.40.204.243 1 13 142875 20040114200642
160.33.98.119 1 15 291755 20040113134250
216.215.142.194 1 13 141480 20040123200433
66.189.183.53 1 13 142875 20040116185913
203.193.137.66 1 5 85243 20040129093330
65.16.214.82 1 16 263167 20040120213031
195.93.34.7 0 2 5574 
195.93.34.8 0 4 31099 
195.93.34.9 0 5 281554 
159.105.148.97 3 67 750094 20040122140439
82.47.102.245 2 34 305173 20040129163035
209.208.14.181 3 26 228342 20040119120213
207.90.94.121 1 15 269014 20040108004756
63.255.0.21 1 15 291755 20040107221648
64.252.119.156 5 48 489913 20040125133432
65.96.129.191 4 49 522821 20040115140546
68.229.75.235 1 18 161982 20040107162240
65.174.142.4 1 24 333689 20040109200212
67.37.245.158 1 15 291755 20040126183241
68.155.162.97 4 28 249667 20040111021424
195.93.34.10 0 1 18764 
61.11.18.245 7 118 452558 20040112162341
195.93.34.11 0 4 6919 
195.93.34.12 0 1 2657 
66.236.198.131 5 50 548164 20040112194134
200.67.1.201 1 1 32335 20040112184949
64.12.96.105 0 1 8973 
195.93.34.13 0 1 8425 
80.248.103.251 1 13 142530 20040116124308
24.151.69.26 4 82 557749 20040128205443
64.12.97.8 0 1 8425 
208.200.176.2 1 15 291755 20040117012344
64.12.97.11 0 1 2694 
216.239.30.130 2 30 291755 20040127204246
68.110.205.219 1 1 58523 20040130134934
142.108.181.112 1 31 177864 20040129140829
68.63.149.193 10 100 1246745 20040115160608
195.250.98.18 1 15 291755 20040104221700
205.188.208.37 0 1 19536 
205.188.208.38 1 1 16971 20040119173045
67.38.235.115 9 118 1008181 20040107165813
64.12.96.71 0 1 4929 
205.188.208.39 0 1 15999 
38.117.180.243 1 1 49421 20040126201424
64.12.96.74 0 1 2731 
64.12.96.75 0 1 2723 
64.12.96.79 0 1 2731 
203.109.77.43 2 26 141480 20040116185147
216.141.131.226 1 1 16544 20040102150733
161.139.95.61 4 59 509659 20040106025023
200.205.59.146 2 26 388668 20040112162801
216.167.134.13 1 13 141480 20040128212421
64.231.175.204 1 18 229068 20040108144419
205.204.1.17 1 13 142842 20040127211213
68.99.201.99 2 16 324090 20040123033507
209.8.202.195 2 37 485518 20040127053239
205.188.209.134 0 1 1104 
205.188.209.135 0 1 2657 
63.199.37.10 3 35 476687 20040109201325
205.188.209.136 0 1 2656 
205.188.209.137 0 1 3990 
203.199.51.149 0 5 71687 
64.210.196.197 1 14 151206 20040126203802
205.188.209.139 0 1 786 
68.39.180.241 1 18 161978 20040101165820
152.163.253.103 1 1 13957 20040112011543
152.163.252.66 0 1 20111 
65.106.187.82 8 90 832058 20040108153949
205.188.208.40 1 1 14073 20040119172638
64.160.83.37 1 1 21263 20040106045143
209.113.183.222 2 30 554143 20040108143355
152.163.252.69 2 2 586 20040114020207
205.188.208.44 1 1 11115 20040119172820
65.167.88.231 6 50 651337 20040112055959
66.30.1.186 11 260 2371889 20040127052636
24.194.105.236 2 35 306989 20040108164125
208.230.84.178 1 18 161982 20040116201542
64.161.253.66 5 56 612763 20040121185254
64.252.52.176 1 18 161982 20040126132656
209.166.186.179 1 13 142875 20040115165259
130.207.77.87 1 24 333689 20040122142243
68.15.54.85 7 39 32359 20040120155953
210.188.92.174 2 12 150879 20040112044354
64.252.41.113 12 78 940658 20040116140308
12.4.27.248 1 16 166049 20040115214000
209.11.50.117 7 43 661135 20040120204328
207.69.250.154 4 34 391323 20040108140624
205.188.209.144 0 1 8988 
68.99.152.16 2 30 553423 20040121161855
66.98.206.188 1 1 21244 20040104191335
82.88.32.56 2 60 456214 20040128090807
66.210.60.51 1 1 58523 20040121163320
64.252.185.64 2 39 183166 20040127213030
62.38.239.232 1 13 142530 20040123205910
207.191.105.162 3 31 585758 20040106215444
199.125.14.2 2 2 42526 20040130092112
69.31.32.152 2 2 42488 20040108103847
198.232.211.130 1 18 229500 20040126212916
4.2.179.30 5 35 492070 20040119205318
198.54.202.2 1 1 21244 20040123000510
68.43.232.174 1 16 166049 20040120213025
69.95.88.34 1 18 244009 20040116145347
67.41.85.159 1 13 142875 20040130040607
65.29.203.206 1 15 291755 20040120203107
64.12.96.200 0 1 327 
64.12.96.201 0 2 4035 
207.88.181.2 1 16 138875 20040126065758
212.174.217.184 8 92 446752 20040127121945
66.207.120.227 1 1 20256 20040129140826
65.104.221.50 3 48 536565 20040130203058
64.12.96.203 0 2 27159 
64.12.96.204 0 3 14184 
64.12.96.205 0 1 16829 
69.132.43.38 1 13 142875 20040102231217
64.12.96.206 1 3 18153 20040112172021
202.81.177.197 2 24 142875 20040121094135
198.81.26.10 0 5 110840 
198.81.26.11 0 1 8417 
210.23.115.62 0 1 815 
64.12.96.137 0 2 3485 
208.236.112.5 1 1 58547 20040127183852
64.12.96.138 0 1 27176 
198.81.26.12 0 3 30267 
64.169.119.222 7 63 666067 20040109233231
67.127.116.232 1 14 178337 20040102021426
64.12.96.139 0 1 9011 
68.43.31.69 1 13 142875 20040124135845
198.81.26.13 0 3 23099 
198.81.26.14 0 1 2670 
216.237.212.49 1 15 291755 20040130183558
217.43.159.165 1 1 21244 20040111162150
198.81.26.15 0 4 11294 
210.23.115.67 0 3 31192 
210.23.115.68 1 9 111180 20040129085042
198.81.26.17 0 3 8427 
210.23.115.69 1 1 13957 20040129085042
205.188.208.102 0 2 23261 
81.79.147.58 1 25 336443 20040123210551
147.154.235.53 1 31 178608 20040109171115
195.93.32.11 1 2 41996 20040124170928
194.250.6.59 1 1 33061 20040123075807
67.65.202.223 1 13 142875 20040119030255
195.93.32.12 0 1 665 
205.188.208.69 0 2 27586 
64.19.82.89 1 1 32335 20040116170023
65.170.131.135 12 130 2142958 20040129163556
195.93.32.14 0 2 26566 
65.223.180.2 4 41 508675 20040107165141
12.110.116.136 1 13 142842 20040114160834
62.189.206.39 1 15 291755 20040123155557
63.239.79.42 2 24 194405 20040128213026
152.163.253.33 0 1 20207 
151.203.225.201 2 21 218088 20040107200031
65.210.21.10 1 1 24845 20040109192858
68.236.55.194 1 1 32335 20040115193240
152.163.253.35 0 1 52754 
67.40.142.81 1 15 291755 20040130224155
152.163.253.36 0 1 8941 
205.188.209.165 0 2 17323 
205.188.209.11 0 1 1619 
65.151.221.214 1 1 21244 20040124114429
205.188.209.13 0 1 2743 
205.188.209.169 0 1 8946 
205.188.209.14 0 1 2743 
69.0.112.174 1 13 141480 20040130205417
66.47.85.22 4 32 578645 20040113133308
67.155.7.122 1 15 291755 20040123172347
213.42.2.13 3 3 116462 20040127122337
205.188.208.70 0 1 815 
80.176.212.36 2 26 394056 20040115091501
12.32.248.18 8 136 2143201 20040123134254
129.86.240.204 11 149 1599498 20040126145330
57.67.17.3 1 31 178453 20040122095243
205.188.208.72 0 1 2250 
68.184.172.8 1 24 333689 20040108200014
205.188.208.74 0 1 20111 
62.7.226.2 1 17 291755 20040123102540
65.31.189.187 3 76 273761 20040129040101
202.9.151.100 1 13 142875 20040108201520
64.198.61.184 1 15 291755 20040120221523
66.44.119.34 2 2 83368 20040106005016
68.229.73.103 4 96 564275 20040129160856
151.204.41.160 1 1 12473 20040120155858
204.58.248.30 1 15 291755 20040127160247
205.188.209.173 0 2 32589 
200.1.171.131 1 13 142875 20040116192001
198.210.1.1 11 35 334081 20040109101159
205.188.209.176 1 1 21208 20040119172805
68.9.242.165 2 19 179922 20040127034138
65.102.0.16 5 5 83408 20040115230929
202.81.170.131 1 13 142875 20040121174406
134.148.20.1 1 13 142842 20040119025505
66.91.228.172 1 1 24845 20040113204027
169.207.176.94 5 53 662165 20040107170042
64.83.160.22 1 15 292115 20040120031854
65.170.131.226 6 63 768697 20040120204852
64.110.101.117 2 25 483419 20040120190732
24.131.135.81 1 1 32335 20040104224626
65.242.63.144 1 24 333689 20040130232656
158.57.150.226 1 15 291755 20040109150358
209.166.27.63 1 15 291755 20040119201018
213.140.22.68 1 24 333689 20040121163633
68.20.22.102 4 42 213958 20040108001926
64.12.96.230 0 1 20207 
144.223.32.170 1 15 291755 20040122160338
64.12.96.231 0 2 88311 
65.102.61.170 1 1 12932 20040115230808
202.81.171.70 1 13 0 20040121112811
64.12.96.233 0 1 2779 
193.65.252.196 2 30 553423 20040129142954
64.12.96.234 0 1 18764 
64.12.96.235 0 1 35210 
64.12.96.236 0 2 5289 
64.12.96.237 0 1 815 
195.174.141.209 1 15 244438 20040109145128
69.139.170.180 1 16 166049 20040125030353
24.2.156.199 12 74 650716 20040114000428
198.81.26.40 1 4 22348 20040129050015
209.177.62.135 1 1 0 20040129084442
64.12.96.167 0 1 30758 
198.81.26.42 0 2 5473 
12.5.176.70 1 13 142875 20040113221815
198.81.26.43 0 1 32710 
64.252.95.117 4 60 512100 20040120235920
131.188.98.89 1 13 142530 20040113121420
64.12.96.169 2 2 18251 20040130184755
198.81.26.44 0 1 2656 
67.163.162.121 2 27 279600 20040125145823
198.81.26.45 0 2 5585 
198.81.26.46 0 2 27421 
61.95.178.13 0 12 128942 
198.81.26.47 0 1 2743 
65.209.211.81 4 32 670469 20040128150212
198.81.26.48 0 3 52471 
62.190.176.241 1 17 144244 20040122131433
198.81.26.49 0 1 9011 
212.96.71.26 1 13 142875 20040107093907
203.213.95.10 2 24 195326 20040115095002
205.188.208.135 0 1 2743 
205.188.208.139 1 1 12932 20040119173029
66.121.2.182 4 68 997395 20040126225001
66.107.69.171 8 88 944549 20040122191201
64.252.100.175 6 93 732232 20040109143654
216.152.109.162 12 167 1121473 20040120190755
67.100.176.249 3 39 603895 20040127220450
216.152.109.164 5 99 506282 20040120124325
65.238.31.129 4 40 628800 20040123011257
216.152.109.165 2 19 183226 20040121190713
205.188.208.5 4 4 1076 20040107042629
68.121.109.230 1 15 0 20040106003031
12.6.12.163 7 91 566701 20040106220152
64.12.96.170 0 2 6746 
67.64.250.159 3 39 626586 20040129182149
12.23.54.10 5 61 668238 20040109190809
64.12.96.171 1 2 67384 20040112172035
147.72.234.6 1 15 291755 20040128194934
66.76.43.180 2 32 452886 20040130194416
207.213.169.124 1 13 142875 20040119054712
205.188.209.40 0 1 5247 
65.223.217.55 1 13 141350 20040107220110
152.163.253.66 0 1 2656 
209.213.88.234 7 96 781322 20040112194352
205.188.209.42 1 1 21268 20040119172619
152.163.253.69 0 1 815 
68.162.200.130 4 40 636290 20040120155951
205.188.209.44 0 1 1121 
61.56.192.70 1 13 142875 20040115055706
205.132.76.26 1 15 291755 20040123201229
205.188.209.46 0 1 2630 
216.204.97.42 0 2 52049 
218.93.0.207 1 1 21244 20040131072054
205.188.208.140 0 2 6741 
128.158.235.2 1 24 333689 20040116191353
195.229.241.229 1 15 292040 20040110103207
212.126.100.131 1 24 333689 20040116164129
62.197.119.242 4 40 636932 20040120095814
64.252.41.241 1 18 161982 20040130143456
152.163.252.2 0 1 2157 
68.194.15.237 1 13 142530 20040125212532
205.236.189.38 1 1 360 20040125003221
66.83.171.57 1 13 142875 20040127004050
65.207.58.36 3 3 58547 20040122170544
218.145.25.75 8 73 914078 20040129050212
66.155.248.130 1 13 142530 20040126030123
216.204.150.195 1 1 21244 20040109070501
66.134.214.250 1 18 161982 20040109232346
198.81.26.6 1 1 20370 20040129050100
194.238.48.21 6 6 127592 20040124161514
198.81.26.7 0 1 2706 
68.165.230.194 5 5 49690 20040128154721
198.81.26.8 0 1 2694 
66.48.1.195 2 28 222467 20040108165746
216.210.225.207 11 11 139673 20040129121514
198.81.26.9 0 2 18645 
203.69.97.182 1 13 142530 20040119072636
205.188.209.51 0 1 2742 
216.178.94.102 1 14 137689 20040129203110
199.208.157.35 1 18 161982 20040108162403
216.204.113.46 3 50 407169 20040130200948
80.50.107.135 1 1 24845 20040107111956
64.84.106.14 1 18 161982 20040115154603
209.162.244.3 4 44 379237 20040120154200
195.93.32.7 0 1 8887 
200.96.127.52 1 13 143187 20040113023044
194.54.34.31 1 18 161982 20040128123613
208.178.169.243 1 15 184640 20040129183353
207.29.128.130 1 13 143187 20040109142109
68.15.100.216 1 1 24845 20040111211646
66.6.34.88 4 48 547914 20040129043939
195.93.32.9 0 1 4929 
63.150.245.202 1 15 291755 20040113195806
128.200.104.107 1 13 142842 20040119234943
67.84.132.58 1 15 291755 20040101200856
162.40.242.16 1 15 292115 20040128031840
68.154.192.10 6 67 488321 20040118230036
66.156.229.215 4 41 241504 20040115013602
80.177.146.42 1 16 337626 20040105165424
67.126.159.157 1 15 291755 20040128200700
208.38.52.98 1 15 292115 20040112162018
216.114.120.69 4 32 585758 20040107151454
193.126.6.150 5 76 746269 20040123234728
198.81.26.70 1 1 21268 20040129045700
24.128.73.119 1 31 177864 20040122185357
62.135.36.56 1 10 114639 20040112151227
198.81.26.71 1 3 21780 20040129045723
198.81.26.72 0 4 12206 
65.229.148.179 4 51 532750 20040126105201
66.114.205.12 1 22 294267 20040115193414
64.12.96.198 0 1 2723 
68.3.170.33 1 1 21244 20040127180740
198.81.26.73 0 1 2723 
198.81.26.74 0 1 327 
195.93.33.10 0 1 20540 
67.25.123.75 2 36 391046 20040130191655
198.81.26.75 0 1 1648 
12.77.4.20 1 18 229068 20040111145127
198.81.26.76 0 3 13190 
205.188.209.69 0 1 2741 
198.81.26.77 1 4 234413 20040129045824
195.93.33.13 1 3 44249 20040112175814
198.81.26.78 0 2 72937 
213.52.162.226 1 24 333689 20040115164833
198.81.26.79 0 1 2742 
195.93.33.14 0 2 6746 
65.248.232.253 3 45 539080 20040116213231
216.41.69.154 2 32 452946 20040112143153
24.1.199.34 1 15 184280 20040115043608
158.43.18.94 3 33 0 20040106143619
64.12.96.10 0 1 2694 
24.80.68.245 2 25 358534 20040119020955
64.12.96.12 0 2 5276 
212.202.44.117 1 1 21244 20040118195057
64.12.96.13 0 1 2683 
208.248.41.150 1 13 142842 20040112181756
205.188.208.169 0 1 8417 
207.207.243.241 1 13 142530 20040115003402
64.12.96.15 0 1 203254 
12.27.72.2 1 13 141350 20040127182623
212.229.142.109 1 15 170710 20040131214957
209.165.183.130 1 15 291755 20040108231557
68.56.145.6 3 40 398259 20040119145124
END_VISITOR

# Date - Pages - Hits - Bandwidth - Visits
BEGIN_DAY 31
20040101 22 417 1357702 5
20040102 10 130 975984 6
20040103 43 43 601597 3
20040104 4 47 636258 4
20040105 5 71 957367 3
20040106 30 321 2784794 14
20040107 87 554 5899795 16
20040108 58 715 7125479 22
20040109 95 623 5938505 18
20040110 8 109 732888 6
20040111 7 48 524824 4
20040112 47 572 5773509 19
20040113 46 376 4788644 10
20040114 21 162 1501879 7
20040115 50 456 5108162 25
20040116 36 367 4415905 20
20040117 4 61 875265 3
20040118 7 68 509565 2
20040119 36 349 4386488 19
20040120 42 439 5756873 19
20040121 25 305 3763393 14
20040122 47 665 5516914 11
20040123 42 544 7824113 20
20040124 7 48 600194 5
20040125 11 106 1099696 6
20040126 41 504 5861436 15
20040127 60 730 7993107 20
20040128 28 398 4377443 13
20040129 80 868 8371185 28
20040130 56 481 5527369 17
20040131 3 29 334829 3
END_DAY

# Worm ID - Hits - Last visit
# The 10 first Hits must be first (order not required for others)
BEGIN_WORMS 0
END_WORMS

# Session range - Number of visits
BEGIN_SESSION 7
15mn-30mn 10
0s-30s 248
1h+ 4
30s-2mn 55
5mn-15mn 19
2mn-5mn 36
30mn-1h 5
END_SESSION

# URL - Pages - Bandwidth - Entry - Exit
# The 10 first Pages must be first (order not required for others)
BEGIN_SIDER 48
/PartsLineCard.htm 128 1886160 67 71
/home.htm 126 2316453 98 46
/gas+boosters.htm 82 1189728 34 24
/HOME.htm 67 1207704 2 15
/TT+Burner+Types+020.htm 61 766627 52 35
/Etter+Products.htm 55 624524 4 11
/EPB+Brochure+(On+Line+PDF).pdf 52 1752451 27 31
/INFORMATION.htm 39 490648 3 9
/DRYING.htm 35 379443 8 11
/GAS+BOOSTER+OPTIONS.htm 33 487560 5 12
/OVENS.htm 19 238674 3 7
/news.htm 10 169542 2 3
/Web+Coater+PR.htm 6 97026 0 1
/Directions.htm 9 112476 0 4
/JOBS.htm 10 203532 3 5
/TT+Burner+Intro+010.htm 14 173616 5 5
/Product+Request+Form.htm 6 24644 1 1
/History.htm 12 89984 0 2
/Announcing+New+Engineering+Assistant.htm 9 107409 1 0
/Web+Worx.htm 8 127016 1 1
/partslinecard.htm 1 17940 0 0
/search.htm 3 17220 0 0
/E101+Packaged+Booster+Brochure+0100.pdf 25 698861 8 14
/Annoucning+AHR+Expo+Jan+2002.htm 7 86519 1 2
/Booster+Training.htm 5 33583 0 0
/Web+Works+Demo.htm 4 43948 0 1
/Manufacturer+Info+Request+Form.htm 3 13830 0 0
/Etter+catalogue+request+form.htm 3 16002 0 1
/meters.htm 18 96183 3 2
/toc.htm 3 46264 2 0
/Announcing+New+Controls+Engineer.htm 9 112620 2 0
/Invensys+Metro+PR.htm 8 145600 1 0
/34ft+Oven+PR.htm 6 47370 1 1
/regulato.htm 12 68112 0 3
/Panels.htm 30 634785 11 14
/Siemens+PR1.htm 7 103165 0 1
/ETTER+Newsletter+1202+Boosters+Consultants.htm 3 8925 0 1
/Tech+Tips!.htm 18 330936 0 1
/Siemens+PR2.htm 7 84717 1 1
/_derived/nortbots.htm 1 4744 0 0
/Newsletter+0202.htm 3 5259 0 0
/HEATERS.htm 32 344037 4 11
/Annoucning+Metro+Office.htm 8 99832 1 1
/LINKS+OF+INTEREST.htm 13 263131 5 6
/_vti_bin/owssvr.dll 3 1093 0 1
/Info+&+Help.htm 5 96189 0 0
/Invensys+Rotary+PR.htm 8 157648 1 1
/TT+Burner+Tuning+030.htm 32 421444 20 21
END_SIDER
