AWSTATS DATA FILE 5.5 (build 1.500)
# If you remove this file, all statistics for date 2005-09 will be lost/reset.

# Position (offset in bytes) in this file of beginning of each section
# for direct I/O access. If you made changes somewhere in this file, you
# should also remove completely the MAP section (AWStats will rewrite it
# at next update).
BEGIN_MAP 25
POS_GENERAL 1817                
POS_TIME 2171                
POS_VISITOR 13172               
POS_DAY 27528               
POS_DOMAIN 2754                
POS_LOGIN 2925                
POS_ROBOT 3112                
POS_WORMS 28480               
POS_EMAILSENDER 3515                
POS_EMAILRECEIVER 3663                
POS_SESSION 28544               
POS_SIDER 28767               
POS_FILETYPES 3802                
POS_OS 3999                
POS_BROWSER 4145                
POS_SCREENSIZE 4441                
POS_UNKNOWNREFERER 4519                
POS_UNKNOWNREFERERBROWSER 6285                
POS_ORIGIN 7804                
POS_SEREFERRALS 7960                
POS_PAGEREFS 8256                
POS_SEARCHWORDS 9371                
POS_KEYWORDS 11234               
POS_ERRORS 12379               
POS_SIDER_404 12535               
END_MAP

# LastLine    = Date of last record processed - Last record line number in last log - Last record offset in last log - Last record signature value
# FirstTime   = Date of first visit for history file
# LastTime    = Date of last visit for history file
# LastUpdate  = Date of last update - Nb of parsed records - Nb of old records - Nb of new records - Nb of corrupted - Nb of dropped
# TotalVisits = Number of visits
# TotalUnique = Number of unique visitors
# MonthHostsKnown   = Number of hosts known
# MonthHostsUnKnown = Number of hosts unknown
BEGIN_GENERAL 8
LastLine 20051001001345 541 103271 34137319216
FirstTime 20050901044608
LastTime 20050930221400
LastUpdate 20051001041220 541 524 1 16 0
TotalVisits 491                 
TotalUnique 316                 
MonthHostsKnown 0                   
MonthHostsUnknown 361                 
END_GENERAL

# Hour - Pages - Hits - Bandwidth
BEGIN_TIME 24
0 18 108 2330255
1 46 204 3148040
2 61 362 7473189
3 26 154 2786751
4 18 98 1867666
5 20 151 4572785
6 47 210 4966186
7 18 62 800838
8 46 269 5841377
9 102 400 6086366
10 25 154 2332442
11 80 605 8935451
12 59 556 11005702
13 74 585 10735648
14 73 770 14549958
15 101 859 13251443
16 57 505 6961083
17 73 564 9833837
18 67 656 9558610
19 129 810 11710621
20 56 469 8094364
21 39 316 5875990
22 87 255 4088671
23 25 122 2769410
END_TIME

# Domain - Pages - Hits - Bandwidth
# The 10 first Pages must be first (order not required for others)
BEGIN_DOMAIN 1
ip 1347 9244 159576683
END_DOMAIN

# Login - Pages - Hits - Bandwidth - Last visit
# The 10 first Pages must be first (order not required for others)
BEGIN_LOGIN 1
WIN2008\gineeringcom 2 2 162213 20050907121239
END_LOGIN

# Robot ID - Hits - Bandwidth - Last visit
# The 10 first Hits must be first (order not required for others)
BEGIN_ROBOT 8
googlebot 247 4309667 20050930171400
slurp 128 1882358 20050930202927
linkwalker 51 274223 20050921224556
jeeves 24 303980 20050930223540
psbot 20 534400 20050906142035
turnitinbot 9 136350 20050922111524
crawl 3 0 20050918154039
appie 3 25792 20050929055312
END_ROBOT

# EMail - Hits - Bandwidth - Last visit
# The 20 first Hits must be first (order not required for others)
BEGIN_EMAILSENDER 0
END_EMAILSENDER

# EMail - Hits - Bandwidth - Last visit
# The 20 first hits must be first (order not required for others)
BEGIN_EMAILRECEIVER 0
END_EMAILRECEIVER

# Files type - Hits - Bandwidth - Bandwidth without compression - Bandwidth after compression
BEGIN_FILETYPES 7
dll 14 168709 0 0
gif 4902 15221396 0 0
doc 7 3232350 0 0
htm 1274 12621714 0 0
jpg 2995 127054335 0 0
pdf 50 1274123 0 0
html 2 4056 0 0
END_FILETYPES

# OS ID - Hits
BEGIN_OS 9
winme 13
winxp 5758
winnt 78
win2000 2118
Unknown 326
macintosh 35
win98 821
linux 93
sunos 2
END_OS

# Browser ID - Hits
BEGIN_BROWSER 18
netscape5.0 734
msie5.22 17
msie5.23 17
msie3.0 1
netscape4.7 45
konqueror 50
netscape7.0 2
msie5.0 29
msie6.0 7633
opera 27
msie5.5 190
safari 1
netscape8.0.3.3 44
webcollage 4
Unknown 308
netscape 1
libwww 1
msie5.01 140
END_BROWSER

# Screen size - Hits
BEGIN_SCREENSIZE 0
END_SCREENSIZE

# Unknown referer OS - Last visit date
BEGIN_UNKNOWNREFERER 32
aipbot/2-beta_(aipbot_dev;_http://aipbot.com;_aipbot@aipbot.com) 20050918234019
Mozilla/4.0_(compatible;_MS_FrontPage_6.0) 20050907121230
boitho.com-dc/0.82_(_http://www.boitho.com/dcbot.html_) 20050927184309
Mozilla/5.0_(compatible;_BecomeBot/2.3;_MSIE_6.0_compatible;__http://www.become.com/site_owners.html) 20050928232811
Mozilla/4.0_(compatible;) 20050917030936
OmniExplorer_Bot/3.95_(_http://www.omni-explorer.com)_WorldIndexer 20050907040305
sohu-search 20050929035731
boitho.com-dc/0.83_(_http://www.boitho.com/dcbot.html_) 20050926054422
nicebot 20050930134946
IUSA_Browser 20050907153329
HTML2JPG_Blackbox,_http://www.html2jpg.com_ 20050923100900
Scrubby/2.2_(http://www.scrubtheweb.com/) 20050925203326
Mozilla/3.01_(compatible;) 20050915132640
MSFrontPage/4.0 20050929011833
Mozilla 20050929133249
webcollage/1.125 20050912115901
- 20050925215830
webcollage/1.127 20050912115856
MSFrontPage/6.0 20050907121239
Mnogosearch-3.1.21 20050930182307
msnbot/1.0_(_http://search.msn.com/msnbot.htm) 20050924150852
Mediapartners-Google/2.1 20050923023712
Mozilla/2.0_(compatible;_MS_FrontPage_4.0) 20050929011831
Internet_Explorer/6.0 20050902020702
POE-Component-Client-HTTP/0.65_(perl;_N;_POE;_en;_rv:0.650000) 20050912183834
NutchCVS/0.06-dev_(Nutch;_http://www.nutch.org/docs/en/bot.html;_nutch-agent@lists.sourceforge.net) 20050930071612
libwww-perl/5.800 20050915190858
LocalcomBot/1.2_(_http://www.local.com/bot.htm) 20050917194148
Mozilla/3.0_(compatible) 20050929040513
TutorGigBot/1.5_(__http://www.tutorgig.info_) 20050924061134
NG/2.0 20050918211232
aipbot/1.0_(aipbot;_http://www.aipbot.com;_aipbot@aipbot.com) 20050927231736
END_UNKNOWNREFERER

# Unknown referer Browser - Last visit date
BEGIN_UNKNOWNREFERERBROWSER 27
aipbot/2-beta_(aipbot_dev;_http://aipbot.com;_aipbot@aipbot.com) 20050918234019
Mozilla/4.0_(compatible;_MS_FrontPage_6.0) 20050907121230
boitho.com-dc/0.82_(_http://www.boitho.com/dcbot.html_) 20050927184309
Mozilla/4.0_(compatible;) 20050917030936
OmniExplorer_Bot/3.95_(_http://www.omni-explorer.com)_WorldIndexer 20050907040305
sohu-search 20050929035731
boitho.com-dc/0.83_(_http://www.boitho.com/dcbot.html_) 20050926054422
nicebot 20050930134946
Scrubby/2.2_(http://www.scrubtheweb.com/) 20050925203326
IUSA_Browser 20050907153329
HTML2JPG_Blackbox,_http://www.html2jpg.com_ 20050923100900
Mozilla/3.01_(compatible;) 20050915132640
MSFrontPage/4.0 20050929011833
- 20050925215830
MSFrontPage/6.0 20050907121239
Mnogosearch-3.1.21 20050930182307
msnbot/1.0_(_http://search.msn.com/msnbot.htm) 20050924150852
Mediapartners-Google/2.1 20050923023712
Mozilla/2.0_(compatible;_MS_FrontPage_4.0) 20050929011831
Internet_Explorer/6.0 20050902020702
POE-Component-Client-HTTP/0.65_(perl;_N;_POE;_en;_rv:0.650000) 20050912183834
NutchCVS/0.06-dev_(Nutch;_http://www.nutch.org/docs/en/bot.html;_nutch-agent@lists.sourceforge.net) 20050930071612
LocalcomBot/1.2_(_http://www.local.com/bot.htm) 20050917194148
Mozilla/3.0_(compatible) 20050929040513
TutorGigBot/1.5_(__http://www.tutorgig.info_) 20050924061134
NG/2.0 20050918211232
aipbot/1.0_(aipbot;_http://www.aipbot.com;_aipbot@aipbot.com) 20050927231736
END_UNKNOWNREFERERBROWSER

# Origin - Pages - Hits 
BEGIN_ORIGIN 6
From0 566 1094
From1 0 0
From2 180 187
From3 24 42
From4 577 7921
From5 0 0
END_ORIGIN

# Search engine referers ID - Pages - Hits
BEGIN_SEREFERRALS 9
msn. 41 41
google. 83 83
lycos. 2 2
images.google. 10 16
altavista. 4 4
search.aol.co 3 3
yahoo. 27 28
infospace.com 1 1
search..*com 9 9
END_SEREFERRALS

# External page referers - Pages - Hits
# The 10 first Pages must be first (order not required for others)
BEGIN_PAGEREFS 19
http://www.sensus.com/SensusGas/DistributorLocator/detail.asp 5 5
http://www.oertli-induflame.com/en/dyn_output.html 2 2
http://www.process-controls.com/Shinko/distributors.html 2 2
http://www.xiom-corp.com/assocvendors.htm 2 2
http://gps.london.virgin.net/search/sitesearch 1 1
http://www.thomasnet.com/brandprofile.html 1 1
http://www.mniguide.com/results.asp 1 1
http://durag.com/html/salesreps/Connecticut.html 1 1
http://www.pyrometerequipment.com/links.html 1 1
http://yellowpages.superpages.com/listings.jsp 1 1
http://66.102.7.104/search 0 10
http://shinkona.com/distributors.html 1 1
http://www.energyefficiencytips.com/naturalgassensors/ 1 1
http://www.bdrmgcanada.com/Contact%20Information%20-%20Etter%20Engineering.htm 1 1
http://www.shinkona.com/distributors.html 1 1
http://www.line-text.com/suppliers_content.html 1 1
http://www.worldcitylists.com/search.shtml 1 1
http://clusty.com/search 1 1
http://64.233.187.104/search 0 8
END_PAGEREFS

# Search keyphrases - Number of search
# The 10 first number of search must be first (order not required for others)
BEGIN_SEARCHWORDS 75
etter+engineering 29
oertli 16
oertli+burners 13
eclipse+gas+booster 6
oertli+burner 6
www.etterengineering.com 5
gas+booster 4
etterengineering 3
etter+industries 3
gas+boosters 3
rockwell+equimeter+gas+regulators 1
site 1
premix+gas+air+mixer+burners 1
etter+dryer 1
gas+booster+sets 2
rockwell+gas+regulator 1
dungs+controls 1
etter+burners 1
booster+gas 1
gas+plug+3/4 1
ul+combustion+control+panel 1
plc+controlled+heat+blower 1
equimeter+combustion+regulators 1
packaged+gas+burner 1
gas+pressure+boosters 1
burner+oertli 1
203-272-9860 2
ul+508a+control+panel+shop 1
spenser+blowers 1
203%2d272%2d9860 1
slam+shut+valve 1
etter+gas+booster 1
industrial+wooden+flame+burner 1
spenser+turbine 1
etter+construction 1
rockwell+equimeter 1
web+drying 1
natural+gas+booster 1
tip+burner 1
types+of+gas+burner 1
carl+etter 1
abmany 2
gas+pressure+pumps+boosters+-high+-water+-vacuum+-washers 1
drilled+pipe+burners 1
nfpa+85 1
pipe+burners 2
technical+support+tunnel+dryer 1
new+england+heating+parts 1
equimeter+incorporated+invensys 1
natural+gas+booster+pumps 1
invensys+gas+etter+meter 1
ir+ovens 1
natural+gas+mixer 1
etter+engineering+co. 1
equimeter 1
etter 3
gas+pressure+cut-out 1
eclipse+hermetic+boosters 1
honeywell+burner+controls 1
custom+control+panels 2
natural+gas+pressure+booster 2
flexo+drying+systems 1
gas+booster+pumps 2
venturi+burners+premix 1
rick+kuehlewind 1
etter+history 1
equimeter+incorporated 3
packaged+velocity+gas+burners 1
nozzle+tunnel+ink+dryer 1
etter+plumbing 1
tuning+an+oil+burner 1
equimeter+incorporated+home+page 1
gas+pressure+booster+etter 1
total 1
ul+certified+panel+shop+price 1
END_SEARCHWORDS

# Search keywords - Number of search
# The 10 first number of search must be first (order not required for others)
BEGIN_KEYWORDS 103
etter 45
gas 36
oertli 36
engineering 30
booster 21
burners 20
burner 13
equimeter 9
eclipse 7
pressure 6
-high 1
rick 1
site 1
plug 1
spenser 2
regulator 1
sets 2
industries 3
-washers 1
hermetic 1
-water 1
packaged 2
venturi 1
heat 1
203-272-9860 2
plc 1
invensys 2
203%2d272%2d9860 1
blower 1
mixer 2
-vacuum 1
control 4
systems 1
history 1
flame 1
custom 2
certified 1
types 1
nozzle 1
85 1
of 1
tuning 1
etterengineering 3
ink 1
flexo 1
slam 1
pipe 3
price 1
abmany 2
3/4 1
support 1
plumbing 1
controls 2
blowers 1
natural 5
co. 1
turbine 1
heating 1
england 1
boosters 6
kuehlewind 1
www.etterengineering.com 5
dungs 1
tip 1
honeywell 1
rockwell 3
drilled 1
pumps 4
shut 1
combustion 2
premix 2
oil 1
an 1
web 1
page 1
panel 3
drying 2
velocity 1
wooden 1
ir 1
panels 2
construction 1
cut-out 1
carl 1
tunnel 2
regulators 2
air 1
ovens 1
industrial 1
dryer 3
incorporated 5
new 1
parts 1
valve 1
nfpa 1
home 1
total 1
controlled 1
508a 1
meter 1
ul 3
technical 1
shop 2
END_KEYWORDS

# Errors - Hits - Bandwidth
BEGIN_ERRORS 6
206 89 2447536
401 1 4246
500 1 0
404 87 365509
405 6 25268
406 1 4085
END_ERRORS

# URL with 404 errors - Hits - Last URL referer
BEGIN_SIDER_404 7
/Info+&amp 1 -
/images/Image2.gif 26 http://www.etterengineering.com/DRYING.htm
/sandvick%20w%20guys%20on%20line%20w%20drop%20copy.jpg 1 http://www.guida.biz/info/whats/sandvick
/sitemap.rdf 1 -
/images/Image1.gif 27 http://www.etterengineering.com/DRYING.htm
/images/Image3.gif 29 -
/AnnoucningMetroOffice.htm 2 -
END_SIDER_404

# Host - Pages - Hits - Bandwidth - Last visit date - [Start of last visit date] - [Last page of last visit]
# [Start of last visit date] and [Last page of last visit] are saved only if session is not finished
# The 10 first Hits must be first (order not required for others)
BEGIN_VISITOR 361
65.54.188.86 85 85 1939438 20050924150852
63.148.99.237 50 50 432847 20050917092118
68.166.250.26 45 45 12703 20050917221850
216.52.252.195 40 40 325043 20050917194148
72.25.124.187 27 30 1664233 20050930071612
63.145.134.42 23 132 1427807 20050913194707
200.111.27.43 20 99 1882201 20050913172409
68.9.139.56 20 111 1969701 20050929012028
71.97.183.144 19 141 2279890 20050914131802
24.177.134.6 18 18 160964 20050927231736
64.211.107.4 3 17 369896 20050913220739
65.66.155.243 1 12 177817 20050906141433
203.189.231.5 2 14 1000117 20050905051701
69.128.23.186 5 33 601720 20050922025626
69.240.170.80 3 34 818240 20050903210633
67.151.153.114 1 10 110320 20050913183759
195.148.82.17 1 13 656435 20050926103606
24.2.132.220 1 17 414801 20050919135019
64.214.98.3 12 117 981568 20050914160959
68.236.156.52 1 11 183619 20050901181826
213.5.35.150 1 14 778065 20050923185259
68.162.26.223 1 1 33037 20050916010652
62.177.191.95 4 36 867576 20050908141936
68.230.145.229 1 2 37038 20050912115901
213.185.106.7 13 13 138863 20050930111712
66.194.6.70 4 4 36295 20050928112111
66.194.6.71 7 7 87058 20050920064213
61.17.201.22 3 40 573609 20050925083903
66.194.6.72 4 4 70942 20050924032133
66.194.6.73 5 5 57184 20050929142338
69.182.34.24 2 25 569965 20050921151508
66.194.6.74 6 6 77718 20050923061642
69.37.254.96 4 69 891517 20050930145746
66.194.6.75 5 5 68733 20050927030113
66.194.6.76 4 4 36650 20050928112102
66.194.6.77 5 5 68023 20050930044719
202.138.112.252 1 6 97849 20050910051708
86.129.237.93 1 7 209741 20050901100506
66.194.6.78 10 10 137111 20050927183742
66.194.6.79 3 3 38859 20050925172746
62.1.241.63 1 12 343824 20050916121806
69.0.54.113 2 26 572594 20050913012524
140.106.192.1 7 57 758702 20050908205933
65.75.18.11 6 43 795405 20050922175445
65.188.63.86 1 10 105083 20050907193427
165.155.112.1 2 25 505890 20050914153841
131.174.83.251 1 9 288869 20050914155204
66.194.6.80 7 7 98607 20050918204118
66.194.6.81 7 7 87058 20050928220224
82.242.221.121 1 1 24845 20050914205051
200.11.242.33 1 6 97849 20050918173338
66.194.6.83 12 12 133048 20050930143408
66.194.6.84 9 9 116222 20050929200016
69.6.147.227 1 7 86607 20050920005319
213.118.47.120 1 13 656123 20050917204340
67.94.140.66 2 25 701615 20050909195841
63.73.248.82 10 134 831201 20050907115956
205.188.116.130 0 1 2757 
205.188.116.203 0 1 2636 
69.210.53.17 8 94 766710 20050906163718
205.188.116.132 0 4 571114 
70.168.0.162 4 32 851538 20050930140712
205.188.116.133 0 1 2758 
64.12.116.14 0 2 20873 
67.139.84.191 15 77 1308050 20050929024225
205.188.116.134 0 3 36134 
205.188.116.136 1 1 9204 20050908113300
156.73.204.228 1 1 0 20050917030936
205.188.116.137 0 1 2757 
203.146.179.146 3 25 710388 20050929055121
205.188.116.138 0 2 5450 
195.42.226.3 2 36 498530 20050927115951
205.188.116.12 0 1 2768 
212.104.107.13 1 17 414801 20050902103101
205.188.116.14 0 1 2676 
68.194.79.175 3 34 818240 20050922175723
194.78.44.114 1 14 778401 20050912135519
205.188.116.6 0 1 2677 
205.188.116.7 0 1 2753 
86.131.192.130 12 57 932638 20050908222826
205.188.116.9 0 1 2742 
63.239.2.9 1 17 414801 20050927194637
12.0.45.199 3 28 707606 20050926144601
65.146.212.8 2 27 945145 20050923122812
216.183.225.155 1 17 414801 20050908153102
70.106.58.47 1 17 414801 20050930155918
67.183.109.127 1 17 414801 20050911161757
12.134.171.189 4 49 694534 20050926155436
63.77.247.130 0 8 0 
212.175.200.30 1 11 42880 20050923061721
220.134.15.161 2 27 665705 20050920082452
64.12.116.204 0 1 52754 
64.12.116.137 0 2 7948 
64.12.116.138 2 2 20941 20050913174906
207.108.137.199 6 6 73704 20050918193325
66.249.66.80 2 2 10654 20050923023712
210.68.183.112 1 13 656123 20050906055629
200.119.36.167 2 25 483987 20050923004423
60.48.60.90 1 6 97849 20050908034555
84.84.129.9 1 1 20534 20050927091424
207.244.66.91 3 31 698492 20050926125253
66.203.83.110 1 18 418785 20050920170833
208.154.237.152 1 10 105083 20050926180135
129.33.168.125 1 13 244234 20050925154113
69.158.175.248 1 14 246863 20050906133727
194.105.9.87 3 39 732702 20050909035643
65.19.150.214 1 1 12931 20050907040305
62.253.196.125 2 26 433439 20050921133253
159.134.245.171 1 6 97559 20050920234117
210.213.194.250 1 6 97849 20050914043250
200.75.85.155 1 13 244234 20050929212228
12.41.229.20 2 25 569965 20050922113304
70.187.195.73 1 13 404084 20050910175450
60.50.193.167 2 36 498530 20050913093044
213.104.241.131 3 52 573609 20050921210242
213.240.202.36 1 14 778065 20050910065156
203.153.234.115 2 16 372309 20050915232507
210.86.176.16 1 2 74323 20050908013530
203.38.101.7 1 13 244546 20050930094908
81.200.225.99 1 1 58523 20050913134633
65.205.226.98 1 8 200518 20050912221302
64.141.20.155 0 10 170707 
81.82.219.4 3 31 851538 20050909113542
12.41.1.54 11 104 693971 20050913133752
67.67.80.65 1 10 105083 20050930190120
84.44.21.131 2 20 808658 20050923061912
193.60.130.67 1 1 8838 20050915190858
64.30.42.42 13 60 973791 20050908164722
205.188.117.5 0 2 5450 
205.188.117.6 0 2 5461 
216.212.154.140 1 12 220282 20050928190504
193.189.188.36 3 42 522659 20050901073255
67.85.103.87 3 32 667126 20050929161619
205.188.117.9 1 1 10611 20050908113318
65.33.90.13 11 80 1430446 20050919022858
81.156.176.217 1 9 288869 20050921211846
24.2.210.254 6 35 926015 20050916002251
212.167.10.142 3 31 851538 20050928150844
69.247.0.219 4 51 832740 20050929191913
205.159.94.62 2 25 515191 20050923202455
63.194.243.189 1 13 188860 20050903165204
143.81.21.2 3 32 698272 20050926093633
64.40.84.106 1 10 105083 20050930175212
218.18.95.73 1 16 156150 20050908031639
64.210.196.197 1 13 404088 20050914195635
80.65.116.45 2 38 503864 20050929094643
24.187.173.85 1 17 414801 20050929162413
64.239.7.218 1 1 15740 20050912183834
81.197.30.131 2 27 778065 20050923023711
84.9.50.152 1 1 8838 20050930033055
64.69.123.30 4 32 631977 20050926191200
203.144.143.2 6 63 1244797 20050903091856
212.9.67.162 3 22 537207 20050919155800
66.195.3.11 4 50 1023698 20050928140853
69.37.240.154 1 11 262935 20050920155635
87.74.36.100 1 1 7059 20050914135227
68.15.54.85 11 73 181442 20050921151504
67.15.16.28 4 4 82136 20050926181934
209.213.91.186 4 46 673431 20050907125418
64.12.116.66 0 2 1456 
201.245.226.185 4 47 624190 20050920224630
69.179.19.61 1 6 97849 20050913173155
64.12.116.68 0 1 2706 
204.60.67.237 5 25 515270 20050930195007
24.151.89.236 1 17 414801 20050921184230
220.181.26.73 1 1 20534 20050907094209
220.181.26.74 3 3 61602 20050929035731
84.9.50.44 1 1 24845 20050905132320
66.240.102.242 1 6 97849 20050929133812
68.85.34.78 3 38 433439 20050927203032
205.188.116.65 0 2 1572 
205.188.116.66 0 3 42940 
24.85.224.170 5 5 50025 20050928064437
205.188.116.67 0 1 27176 
64.119.128.98 5 50 771823 20050908110715
205.188.116.68 0 2 1630 
205.188.116.69 0 1 2768 
64.12.117.10 0 1 4008 
64.12.117.11 0 1 8425 
199.125.14.2 1 1 20534 20050907153329
68.15.47.15 11 77 0 20050909105017
168.143.113.54 1 1 20553 20050918193256
213.142.135.156 1 12 376592 20050914172645
64.114.199.201 1 1 20534 20050925024743
82.76.85.73 1 13 512801 20050922221501
65.214.36.20 0 1 24865 
64.12.116.74 0 2 285581 
12.43.212.28 2 36 499394 20050912115900
205.188.117.11 0 3 108137 
61.88.9.148 1 15 339974 20050914004540
24.249.28.20 9 133 971028 20050906160406
205.188.117.12 0 2 5450 
205.188.116.197 0 4 15896 
205.188.116.198 0 2 1330 
205.188.116.199 2 4 60849 20050921184953
64.12.117.5 0 1 2725 
202.81.207.70 1 11 214297 20050919120050
84.9.50.50 1 1 10785 20050903011429
211.100.20.4 1 17 415209 20050909014810
208.195.70.39 18 97 2098819 20050916153000
64.12.117.9 0 1 2653 
24.177.185.80 2 13 257345 20050927133157
205.188.116.70 1 5 14137 20050908113250
65.126.245.79 5 45 565317 20050928152724
166.82.80.44 1 17 414801 20050915131018
80.65.115.9 1 9 288869 20050916145019
69.183.45.129 5 56 859696 20050915185118
64.140.165.132 1 1 20530 20050925203326
213.185.113.52 2 30 646620 20050930155057
62.173.99.93 1 17 414801 20050908133911
141.156.185.77 2 16 364819 20050925021617
61.246.240.193 1 6 97849 20050908152034
210.21.74.170 12 83 1466521 20050914065207
204.27.156.146 1 15 339974 20050909191111
82.39.108.21 1 18 417502 20050906080330
81.11.238.64 3 42 780103 20050901205300
203.69.198.51 4 45 553380 20050909114326
82.36.140.151 1 13 656123 20050908055401
129.174.178.93 1 2 43659 20050912115856
64.12.116.198 0 1 2725 
64.12.116.199 0 1 2725 
129.234.4.10 1 9 289085 20050927094906
62.252.224.12 1 17 414797 20050921220058
86.39.41.63 5 118 1062664 20050923191322
64.246.165.130 1 10 99244 20050910055156
66.38.63.98 5 36 412589 20050906212157
70.18.214.79 1 1 24845 20050928155132
12.216.106.121 2 16 189485 20050919172830
69.41.174.31 1 1 9527 20050905201222
129.86.240.204 8 45 856459 20050915144801
217.160.222.211 6 6 73560 20050906232732
64.252.52.89 13 71 1646847 20050915021234
24.181.181.76 1 17 414801 20050929145954
68.236.207.184 3 43 651061 20050913123837
213.160.43.23 3 39 515475 20050926125113
192.249.47.9 5 46 1135013 20050930172521
71.97.186.187 14 80 1733511 20050901135050
165.234.102.95 1 17 414801 20050901210002
212.116.139.141 4 41 1006701 20050921115126
209.123.192.162 5 30 715395 20050914125305
201.245.245.171 3 39 520881 20050917044742
69.114.95.44 12 69 1080157 20050908170119
64.252.167.136 3 26 178261 20050913014419
70.18.105.156 1 13 244234 20050908182636
69.38.135.162 1 1 58523 20050916152537
81.144.182.250 1 13 404088 20050923100900
69.210.32.242 12 238 3781927 20050927141513
69.182.241.111 3 32 698276 20050901141727
207.194.110.104 3 21 253013 20050929210533
209.103.207.126 1 10 146807 20050926230848
209.191.7.66 2 20 542402 20050923174617
65.196.71.100 1 1 20534 20050930182307
63.144.129.90 3 27 525766 20050927205717
62.240.96.176 2 45 702232 20050917194159
200.1.171.138 6 57 1038225 20050913140816
216.163.69.46 2 34 800964 20050922232439
210.193.2.75 3 43 783836 20050929055747
82.127.3.160 2 2 41068 20050925215830
84.9.50.195 1 1 9275 20050913195159
64.124.85.79 12 12 135095 20050928232811
12.23.84.11 6 6 73560 20050913094257
80.57.5.184 3 31 851538 20050918200827
195.216.29.218 4 72 1913273 20050929084353
68.9.123.63 7 60 1592060 20050923235306
198.65.192.18 1 18 418785 20050930154242
87.74.19.211 2 2 25080 20050914090453
70.19.28.15 6 58 1117227 20050922190245
12.2.182.3 5 46 1000775 20050916170259
69.38.133.26 1 12 241605 20050913184650
193.65.112.77 1 9 288869 20050906082829
82.165.252.147 5 5 55585 20050924061134
80.177.180.242 1 9 107708 20050914131517
83.228.29.6 8 65 1287909 20050907113651
70.60.47.162 3 32 715027 20050923211906
61.174.172.177 3 31 421678 20050922020514
192.158.61.140 2 16 398497 20050919162351
141.157.10.112 1 1 58523 20050907141928
68.162.206.223 7 57 1130114 20050914154044
68.194.65.96 15 80 1869630 20050901223410
24.97.61.114 4 47 807995 20050920162643
86.136.136.198 1 10 105083 20050924131405
213.222.11.17 1 1 20534 20050930134854
68.9.141.241 5 67 932638 20050930221400
69.37.95.168 4 65 1081923 20050914121837
140.244.124.159 1 17 414801 20050914132603
213.17.253.121 8 67 1119845 20050926095840
70.98.104.5 1 1 20530 20050916041614
196.218.23.248 1 13 649257 20050901095148
209.112.15.250 3 68 746805 20050926194746
213.136.127.110 1 17 414801 20050915100619
64.179.79.39 1 17 414801 20050919135509
84.194.176.201 1 13 656123 20050930170022
198.236.64.24 1 5 109167 20050909190952
148.144.76.124 1 1 58523 20050914165242
63.68.196.38 1 7 107439 20050914210127
168.122.153.69 1 17 414801 20050908043557
68.162.232.18 14 223 1169258 20050928180646
219.166.8.168 8 59 1049010 20050915064141
81.118.65.69 10 10 104758 20050907011411
194.230.91.36 15 164 1125156 20050928154839
66.224.220.240 1 1 20534 20050901221209
69.179.25.103 1 6 97849 20050904214725
64.252.142.240 1 17 414797 20050929030040
24.181.190.115 6 124 1018541 20050920201709
221.225.236.135 6 55 1175698 20050907133437
80.5.160.4 4 54 1813913 20050929212106
216.145.16.236 0 7 315965 
24.185.111.19 2 25 569965 20050907201449
84.233.148.21 2 2 5346 20050918211232
12.171.22.64 1 6 114095 20050921205528
208.252.203.165 1 10 105083 20050926122944
213.13.119.191 2 25 506490 20050907150039
137.241.252.24 4 50 622881 20050915132640
65.54.188.85 3 3 21829 20050904001708
65.112.25.67 5 44 983458 20050908193940
66.147.181.249 13 227 1371951 20050929171753
69.79.180.67 1 9 107708 20050925015241
205.188.117.67 0 2 19138 
205.188.117.68 0 2 5306 
68.105.84.110 1 17 414801 20050920004142
205.188.117.69 0 2 8016 
80.66.225.2 1 12 495626 20050915133849
64.252.2.5 3 25 698999 20050922042032
64.32.178.210 2 27 665705 20050915185852
200.119.40.6 1 10 105083 20050929023816
71.243.70.150 9 64 1267626 20050930032013
212.95.252.16 1 1 20534 20050921212945
192.195.167.53 1 6 97993 20050913072239
24.174.124.210 3 53 913331 20050913164322
206.29.197.150 1 1 20534 20050921163616
63.70.155.18 1 10 105083 20050928183908
24.226.196.27 1 1 7006 20050929040513
66.224.220.252 1 1 20558 20050902020702
192.189.192.251 1 17 415209 20050927121742
64.122.197.10 4 51 700971 20050915182025
66.219.128.146 1 17 414801 20050921123040
205.188.117.70 0 2 16850 
129.44.59.221 3 3 107303 20050914145714
205.188.117.71 0 1 23460 
205.188.117.74 0 1 2691 
62.160.174.40 1 13 656123 20050921122915
129.241.104.185 1 7 108807 20050927184309
129.241.104.186 1 11 183619 20050924134637
129.241.104.187 1 11 174918 20050926024633
129.241.104.188 1 7 108792 20050926054422
164.129.1.39 1 14 778401 20050919121842
129.241.104.189 2 19 344072 20050924135431
67.187.115.10 2 24 699003 20050929025349
208.252.145.73 8 73 0 20050902154119
65.201.145.130 2 20 437152 20050916175636
62.49.95.107 5 103 2239367 20050913144013
193.62.47.31 8 76 1229128 20050922080400
208.22.104.18 5 50 1033741 20050913134932
206.97.10.57 6 69 1196806 20050930123104
62.103.24.147 1 15 339974 20050906135305
67.185.130.143 1 13 244234 20050901221032
69.60.120.176 1 1 15759 20050930134946
12.111.131.13 1 17 415209 20050914155005
66.194.6.67 1 1 20534 20050930092928
66.194.6.68 1 1 8985 20050927125525
196.204.194.214 2 12 97849 20050919165841
END_VISITOR

# Date - Pages - Hits - Bandwidth - Visits
BEGIN_DAY 30
20050901 52 347 7575553 20
20050902 13 94 474218 6
20050903 26 126 2414457 10
20050904 26 31 421450 12
20050905 14 27 1765045 11
20050906 48 434 5654825 19
20050907 54 381 5551060 15
20050908 73 528 9567534 22
20050909 46 336 5649290 15
20050910 8 71 2149203 8
20050911 19 38 1079549 9
20050912 32 190 3421600 14
20050913 71 595 9681788 22
20050914 83 656 10840831 28
20050915 54 426 8152149 16
20050916 35 196 4660429 12
20050917 147 238 2720007 12
20050918 45 78 1403717 17
20050919 34 251 5642530 16
20050920 32 392 6369969 14
20050921 29 306 6266822 20
20050922 28 238 4579637 13
20050923 37 399 8747264 18
20050924 20 56 780154 11
20050925 19 135 2403533 12
20050926 51 479 8325385 21
20050927 57 488 6555165 28
20050928 56 622 5886596 18
20050929 70 597 11598279 26
20050930 68 489 9238644 26
END_DAY

# Worm ID - Hits - Last visit
# The 10 first Hits must be first (order not required for others)
BEGIN_WORMS 0
END_WORMS

# Session range - Number of visits
BEGIN_SESSION 7
15mn-30mn 6
0s-30s 344
1h+ 6
30s-2mn 55
5mn-15mn 26
2mn-5mn 39
30mn-1h 15
END_SESSION

# URL - Pages - Bandwidth - Entry - Exit
# The 10 first Pages must be first (order not required for others)
BEGIN_SIDER 60
/home.htm 302 4724312 195 125
/Etter+Products.htm 108 858112 5 18
/PartsLineCard.htm 103 1417163 23 41
/gas+boosters.htm 94 784956 49 49
/OERTLI+Asphalt+Burner.htm 87 416160 47 32
/INFORMATION.htm 45 290024 0 4
/TT+Burner+Tuning+030.htm 43 377650 33 33
/Panels.htm 35 374815 11 12
/HEATERS.htm 34 294179 5 7
/DRYING.htm 34 345492 7 15
/OVENS.htm 19 120326 3 4
/news.htm 12 89909 4 4
/feedback.htm 5 23291 2 2
/Web+Coater+PR.htm 5 33344 1 0
/Directions.htm 15 111716 1 3
/JOBS.htm 24 252679 3 9
/epb+brochure+(on+line+pdf).pdf 1 24845 1 1
/TT+Burner+Intro+010.htm 9 62203 1 1
/Product+Request+Form.htm 6 33914 0 1
/History.htm 12 54376 0 4
/Announcing+New+Engineering+Assistant.htm 7 42844 1 0
/HOME.htm 4 61703 1 3
/_vti_bin/shtml.dll 3 1379 0 0
/Web+Worx.htm 18 170898 2 4
/partslinecard.htm 3 47220 0 1
/drying.htm 1 10785 1 1
/inforequestfrm.htm 6 19740 1 2
/E101+Packaged+Booster+Brochure+0100.pdf 23 392794 3 8
/search.htm 8 20594 3 4
/_vti_bin/_vti_aut/author.dll 4 164432 0 1
/TT+Burner+Types+020.htm 24 204373 15 13
/Portable+IR+Brochure.doc 3 1170978 0 1
/EPB+Brochure+(On+Line+PDF).pdf 26 856484 8 13
/tt+burner+types+020.htm 1 9275 1 1
/Cure+Worx.htm 22 168367 7 8
/Web+Works+Demo.htm 5 32276 0 0
/Annoucning+AHR+Expo+Jan+2002.htm 4 21097 0 1
/Manufacturer+Info+Request+Form.htm 8 45223 3 3
/ovens.htm 1 7059 1 1
/Etter+catalogue+request+form.htm 6 35962 2 3
/GAS+BOOSTER+OPTIONS.htm 24 177131 14 11
/meters.htm 20 96405 4 8
/Announcing+New+Controls+Engineer.htm 5 28707 1 0
/Invensys+Metro+PR.htm 4 21055 0 0
/34ft+Oven+PR.htm 6 22075 0 2
/regulato.htm 20 86545 4 4
/Siemens+PR1.htm 5 26500 1 0
/ETTER+Newsletter+1202+Boosters+Consultants.htm 6 24331 1 4
/Siemens+PR2.htm 6 34419 0 0
/Tech+Tips!.htm 12 120068 0 0
/Newsletter+0202.htm 5 19908 2 2
/gas+booster+options.htm 1 8838 1 1
/IR+with+XIOM+Brochure.doc 4 2061372 2 4
/Annoucning+Metro+Office.htm 6 35334 2 1
/_vti_inf.html 2 4056 1 0
/Info+&+Help.htm 13 97300 4 4
/LINKS+OF+INTEREST.htm 24 209542 12 15
/heaters.htm 1 9180 0 1
/_vti_bin/owssvr.dll 7 2898 0 0
/Invensys+Rotary+PR.htm 6 42339 2 1
END_SIDER
