AWSTATS DATA FILE 5.5 (build 1.500)
# If you remove this file, all statistics for date 2009-06 will be lost/reset.

# Position (offset in bytes) in this file of beginning of each section
# for direct I/O access. If you made changes somewhere in this file, you
# should also remove completely the MAP section (AWStats will rewrite it
# at next update).
BEGIN_MAP 25
POS_GENERAL 1817                
POS_TIME 2173                
POS_VISITOR 19663               
POS_DAY 42962               
POS_DOMAIN 2778                
POS_LOGIN 2950                
POS_ROBOT 3089                
POS_WORMS 43756               
POS_EMAILSENDER 3602                
POS_EMAILRECEIVER 3750                
POS_SESSION 43820               
POS_SIDER 44044               
POS_FILETYPES 3889                
POS_OS 4193                
POS_BROWSER 4371                
POS_SCREENSIZE 4625                
POS_UNKNOWNREFERER 4703                
POS_UNKNOWNREFERERBROWSER 7442                
POS_ORIGIN 9627                
POS_SEREFERRALS 9786                
POS_PAGEREFS 10058               
POS_SEARCHWORDS 11215               
POS_KEYWORDS 13762               
POS_ERRORS 15023               
POS_SIDER_404 15208               
END_MAP

# LastLine    = Date of last record processed - Last record line number in last log - Last record offset in last log - Last record signature value
# FirstTime   = Date of first visit for history file
# LastTime    = Date of last visit for history file
# LastUpdate  = Date of last update - Nb of parsed records - Nb of old records - Nb of new records - Nb of corrupted - Nb of dropped
# TotalVisits = Number of visits
# TotalUnique = Number of unique visitors
# MonthHostsKnown   = Number of hosts known
# MonthHostsUnKnown = Number of hosts unknown
BEGIN_GENERAL 8
LastLine 20090623035202 628 216594 86370355159
FirstTime 20090601003237
LastTime 20090623031955
LastUpdate 20090623193807 628 0 435 156 37
TotalVisits 970                 
TotalUnique 532                 
MonthHostsKnown 0                   
MonthHostsUnknown 585                 
END_GENERAL

# Hour - Pages - Hits - Bandwidth
BEGIN_TIME 24
0 88 398 9261315
1 34 92 1705766
2 77 353 7954255
3 40 112 2466114
4 41 143 2616615
5 31 113 4181155
6 66 140 3387883
7 33 145 4024675
8 34 149 2813393
9 49 296 11571906
10 54 288 11107347
11 90 744 23219583
12 174 1370 47574280
13 240 1548 45113037
14 204 1870 37172073
15 192 1383 41636982
16 90 524 15363488
17 132 830 24140477
18 203 1263 25401082
19 119 898 18572134
20 144 1173 21897109
21 79 509 21989518
22 49 319 6689680
23 101 231 4025666
END_TIME

# Domain - Pages - Hits - Bandwidth
# The 10 first Pages must be first (order not required for others)
BEGIN_DOMAIN 1
ip 2364 14891 393885533
END_DOMAIN

# Login - Pages - Hits - Bandwidth - Last visit
# The 10 first Pages must be first (order not required for others)
BEGIN_LOGIN 0
END_LOGIN

# Robot ID - Hits - Bandwidth - Last visit
# The 10 first Hits must be first (order not required for others)
BEGIN_ROBOT 11
slurp 257 25976527 20090623035202
googlebot 172 9189335 20090623025437
robot 122 2540923 20090620115221
crawl 52 1302098 20090622055226
turnitinbot 20 3475068 20090609081816
speedy 16 34851 20090621173340
jeeves 14 468353 20090615175309
bspider 6 24612 20090622133406
yandex 4 90574 20090615054308
ia_archiver 2 22070 20090605084237
netcraft 1 22910 20090610183530
END_ROBOT

# EMail - Hits - Bandwidth - Last visit
# The 20 first Hits must be first (order not required for others)
BEGIN_EMAILSENDER 0
END_EMAILSENDER

# EMail - Hits - Bandwidth - Last visit
# The 20 first hits must be first (order not required for others)
BEGIN_EMAILRECEIVER 0
END_EMAILRECEIVER

# Files type - Hits - Bandwidth - Bandwidth without compression - Bandwidth after compression
BEGIN_FILETYPES 12
css 277 119360 0 0
png 1100 34418888 0 0
pdf 160 29580383 0 0
htm 1182 11930470 0 0
pl 5 221290 0 0
swf 24 83545869 0 0
php 20 306968 0 0
html 964 12396279 0 0
js 28 183027 0 0
jpg 5137 171566635 0 0
doc 9 613275 0 0
gif 5985 49003089 0 0
END_FILETYPES

# OS ID - Hits
BEGIN_OS 12
macintosh 700
winxp 11645
unix 1
winnt 1420
win2000 347
win98 14
linux 10
winme 3
win16 14
sunos 1
Unknown 723
freebsd 13
END_OS

# Browser ID - Hits
BEGIN_BROWSER 15
msie8.0 2119
msie6.0 2978
netscape4.08 14
netscape4.61 2
netscape5.0 3702
msie7.0 4463
libwww 1
netscape4.0 8
msie4.01 1
msie5.0 2
up. 52
msie 2
Unknown 606
w3c_validator 3
safari 938
END_BROWSER

# Screen size - Hits
BEGIN_SCREENSIZE 0
END_SCREENSIZE

# Unknown referer OS - Last visit date
BEGIN_UNKNOWNREFERER 37
Mozilla/5.0_(iPhone;_U;_CPU_iPhone_OS_2_2_1_like_Mac_OS_X;_en-us)_AppleWebKit/525.18.1_(KHTML,_like_Gecko)_Version/3.1.1_Mobile/5H11_Safari/525.20 20090616140124
Microsoft_Office_Existence_Discovery 20090610152716
libwww-perl/5.805 20090603142410
msnbot-webmaster/1.0_(_http://search.msn.com/msnbot.htm) 20090618121658
Mozilla/5.0_(compatible;_GurujiBot/1.0;__http://www.guruji.com/en/WebmasterFAQ.html) 20090604100955
Jakarta_Commons-HttpClient/3.0-rc2 20090616080135
Mozilla/5.0_(compatible;_MJ12bot/v1.2.5;_http://www.majestic12.co.uk/bot.php?_) 20090619124752
Ocelli/1.4_(http://www.globalspec.com/Ocelli) 20090613150933
Feedfetcher-Google;_(_http://www.google.com/feedfetcher.html;_feed-id=3821780684481087049) 20090602120256
msnbot/1.1_(_http://search.msn.com/msnbot.htm) 20090623031955
Mozilla/5.0_(compatible;_OpenfosBot/2.1;__http://www.openfos.com) 20090614214550
msnbot/1.1_(bing_Webmaster_Tool) 20090618124252
oBot 20090614065208
Mozilla/4.0 20090616074118
LegalX_Deep_Analyzer_(_http://www.legalx.net_)_<a_href="http://www.legalx.net">http://www.legalx.net</a> 20090607002543
BlackBerry8320/4.5.0.81_Profile/MIDP-2.0_Configuration/CLDC-1.1_VendorID/100 20090610005952
Mozilla/5.0_(iPhone;_U;_CPU_iPhone_OS_2_2_like_Mac_OS_X;_en-us)_AppleWebKit/525.18.1_(KHTML,_like_Gecko)_Version/3.1.1_Mobile/5G77_Safari/525.20 20090609112530
Mozilla/5.0_ThomasNet_Link_Checker 20090622163243
WWW-Mechanize/1.54 20090610183215
msnbot-media/1.1_(_http://search.msn.com/msnbot.htm) 20090620231814
Jakarta_Commons-HttpClient/3.1 20090603205231
Mozilla/5.0_(compatible;_MSIE_or_Firefox_mutant;_not_on_Windows_server;__http://ws.daum.net/aboutWebSearch.html)_Daumoa/2.0 20090617053427
- 20090617145049
Mozilla/5.0_(compatible;_MJ12bot/v1.2.4;_http://www.majestic12.co.uk/bot.php?_) 20090620062342
WideCircles_Analysis_Agent_(_http://www.widecircles.com_)_<a_href="http://www.widecircles.com">http://www.widecircles.com</a> 20090606211026
CatchBot/1.0;__http://www.catchbot.com 20090619094737
W3C_Validator/1.654 20090610230017
msnbot/2.0b_(_http://search.msn.com/msnbot.htm) 20090623003942
Mozilla/5.0_(compatible;_OpenfosBot/2.4;__http://www.openfos.com) 20090601064251
Mozilla/3.0_(compatible;_Indy_Library) 20090617174220
Mozilla/5.0_(compatible;_Charlotte/1.0t;_http://www.searchme.com/support/) 20090611070358
Mozzila/4.0 20090613185636
Java/1.6.0_03 20090608152735
Mozilla/5.0_(compatible;_Charlotte/1.1;_http://www.searchme.com/support/) 20090617174053
LWP::Simple/5.814 20090605162957
Mozilla/4.0_(compatible;) 20090621090355
Mozilla/5.0_(compatible;_DBLBot/1.0;__http://www.dontbuylists.com/) 20090602180238
END_UNKNOWNREFERER

# Unknown referer Browser - Last visit date
BEGIN_UNKNOWNREFERERBROWSER 30
WWW-Mechanize/1.54 20090610183215
Microsoft_Office_Existence_Discovery 20090610152716
msnbot-media/1.1_(_http://search.msn.com/msnbot.htm) 20090620231814
- 20090617145049
Jakarta_Commons-HttpClient/3.1 20090603205231
msnbot-webmaster/1.0_(_http://search.msn.com/msnbot.htm) 20090618121658
Mozilla/5.0_(compatible;_GurujiBot/1.0;__http://www.guruji.com/en/WebmasterFAQ.html) 20090604100955
Mozilla/5.0_(compatible;_MJ12bot/v1.2.4;_http://www.majestic12.co.uk/bot.php?_) 20090620062342
WideCircles_Analysis_Agent_(_http://www.widecircles.com_)_<a_href="http://www.widecircles.com">http://www.widecircles.com</a> 20090606211026
CatchBot/1.0;__http://www.catchbot.com 20090619094737
Mozilla/3.0_(compatible;_Indy_Library) 20090617174220
Mozilla/5.0_(compatible;_OpenfosBot/2.4;__http://www.openfos.com) 20090601064251
Jakarta_Commons-HttpClient/3.0-rc2 20090616080135
msnbot/2.0b_(_http://search.msn.com/msnbot.htm) 20090623003942
Mozilla/5.0_(compatible;_MJ12bot/v1.2.5;_http://www.majestic12.co.uk/bot.php?_) 20090619124752
Mozilla/5.0_(compatible;_del.icio.us-thumbnails/1.0;_FreeBSD)_KHTML/4.3.2_(like_Gecko) 20090606123448
Ocelli/1.4_(http://www.globalspec.com/Ocelli) 20090613150933
Feedfetcher-Google;_(_http://www.google.com/feedfetcher.html;_feed-id=3821780684481087049) 20090602120256
Mozilla/5.0_(compatible;_OpenfosBot/2.1;__http://www.openfos.com) 20090614214550
msnbot/1.1_(_http://search.msn.com/msnbot.htm) 20090623031955
Mozzila/4.0 20090613185636
Java/1.6.0_03 20090608152735
msnbot/1.1_(bing_Webmaster_Tool) 20090618124252
oBot 20090614065208
LegalX_Deep_Analyzer_(_http://www.legalx.net_)_<a_href="http://www.legalx.net">http://www.legalx.net</a> 20090607002543
BlackBerry8320/4.5.0.81_Profile/MIDP-2.0_Configuration/CLDC-1.1_VendorID/100 20090610005952
LWP::Simple/5.814 20090605162957
Mozilla/4.0_(compatible;) 20090621090355
TulipChain/6.03_(http://ostermiller.org/tulipchain/)_Java/1.6.0_11_(http://java.sun.com/)_Windows_XP/5.1_RPT-HTTPClient/0.3-3 20090620015410
Mozilla/5.0_(compatible;_DBLBot/1.0;__http://www.dontbuylists.com/) 20090602180238
END_UNKNOWNREFERERBROWSER

# Origin - Pages - Hits 
BEGIN_ORIGIN 6
From0 1010 1160
From1 3 3
From2 232 244
From3 69 77
From4 1050 13407
From5 0 0
END_ORIGIN

# Search engine referers ID - Pages - Hits
BEGIN_SEREFERRALS 7
images.google. 8 10
dmoz.org 1 1
(^|.)ask.com 1 1
search.aol.co 2 2
search..*com 17 17
yahoo. 29 29
google. 174 184
END_SEREFERRALS

# External page referers - Pages - Hits
# The 10 first Pages must be first (order not required for others)
BEGIN_PAGEREFS 20
http://www.bing.com/search 23 23
http://www.openfos.com/supply/Etter-Engineering-Co-Inc-709610/ 21 21
http://www.hauckburner.com/MAPS2/salesAgent2.asp 4 4
http://www.globalspec.com/Supplier/Profile 2 2
http://campaign.constantcontact.com/render 2 2
http://www.bryandonkinusa.com/ny_nj_ne.html 2 2
http://www.thomasglobal.cn/search/22219412157-%e7%ba%a2%e5%a4%96%e7%ba%bf%e7%82%89/ 2 2
http://www.stumbleupon.com/refer.php 2 2
http://www.info.com/natural%20gas%20booster 1 1
http://www.widecircles.com 1 1
http://64.233.189.132/translate_c 0 8
http://www.processregister.com/Process_Heaters/Suppliers/pid14224.htm 1 1
http://na.sensus.com/Module/DistLoc/StateList/gas 1 1
http://www.macraesbluebook.com/search/company.cfm 1 1
http://www.emailmeform.com/fid.php 1 1
http://www.shinkona.com/distributors.html 1 1
http://nicevideo15.com/view/1/1401/0 1 1
http://www.legalx.net 1 1
http://netmail.verizon.net/webmail/driver 1 1
http://bl145w.blu145.mail.live.com/mail/InboxLight.aspx 1 1
END_PAGEREFS

# Search keyphrases - Number of search
# The 10 first number of search must be first (order not required for others)
BEGIN_SEARCHWORDS 99
etter+engineering 48
oertli+burner 11
oertli+burners 10
natural+gas+booster+pumps 10
gas+booster+pump 9
gas+booster+pumps 5
booster 4
natural+gas+boosters 3
etter+booster+system 3
etter+engineering+cheshire+ct 3
etter+engineering+company 1
oertli+burner+manual 1
oil+burner+dark+smoke 1
eclips+gas+booster+pump 1
maintenance+manuals+for+eclipse+gas+boosters 1
gas+pressure+booster+pump 1
etters+eng 1
natural+gas+booster 2
natural+gas+booster+pump 1
gas+booster+pump+for+boiler 1
how+to+size+a+gas+booster+set 1
oertli+burner+address 1
natural+gas+drying+process 1
in-line+web+drying 1
scrubber+nozzles 1
engineers+ct 2
www.etterengineering.com 1
eclipse+booster 2
burner+oertli 2
natural+gas+service+regulator 1
engineers 1
etter+enginnering 2
web+drying+retrofit 1
web+drying+tunnel 1
mains+gas+booster+pump 1
equipment+engineering+burlington+ct 1
gas+booster+system 2
oertly+a.g.+burner 1
oertli+burner+website 1
etter+engineering+co 1
ortli+burner 1
orterli+burner 1
mechanical+engineers+in+cromwell+ct 1
connecticut+engineering 1
eclipse+hermetic+booster 1
process+gas+heating 1
packaged+gas+booster 1
agencies 1
industrial+process+heating 2
etter+engineing 1
eclipse+gas+booster+pump 2
oertli+carbon+burner 1
certified 1
engineer+cheshire+connecticut 1
mechanical+engineer+cheshire+connecticut 1
cib+burner+oertli 1
natural+gas+equipment+controls%2fplc 1
etter+enginerring 1
control+natural+gas+booster 1
etter 2
gas+system+booster 1
gas+booster+house 1
home+natural+gas+booster+pumps 1
what+is+a+building+gas+booster+pump 1
gas+booster+pumps+calculations 1
eclipse+booster+pump 1
oertli 1
ldu11+trouble+shoot 1
burner+tuning+and+setting. 1
ir+oven+size 1
etter+booster 2
drying 2
eclipse-boosterpak 1
mechanical+engineer+trumbull+ct 1
combustion 2
mechanical+engineers+ct 1
gaspressurebooster 1
burner+tuning 3
etterengineering.com 1
process+gas+engineering 1
small+natural+gas+electric+gas+booster+pump 1
safety 1
gas+booster+set 1
natural+gas+booster+pump+canada 3
combustion+natural+gas 2
etter+gas+booster 1
tune+natural+gas+burner 1
company 2
tuning+riello+oil+burner 1
gas+booster+sizing 1
natural+gas+combustion+components 1
features 1
information 1
et+ter+gas+booster 1
oertli+burners+ho 1
logo+oertli 1
tuning+oil+burners 1
honeywell+rm7800l+linkageless 1
etter+engineers 1
END_SEARCHWORDS

# Search keywords - Number of search
# The 10 first number of search must be first (order not required for others)
BEGIN_KEYWORDS 109
etter 66
gas 65
booster 64
engineering 56
oertli 31
natural 29
burner 28
pump 22
pumps 17
burners 12
pressure 1
manual 1
boosters 4
canada 3
co 1
trouble 1
what 1
calculations 1
mechanical 4
www.etterengineering.com 1
tuning 6
engineer 3
regulator 1
cib 1
and 1
equipment 2
engineers 6
setting. 1
small 1
system 6
orterli 1
is 1
sizing 1
nozzles 1
ct 9
size 2
web 3
to 1
tune 1
agencies 1
ter 1
home 1
set 2
house 1
smoke 1
linkageless 1
certified 1
eclipse 7
logo 1
a.g. 1
tunnel 1
mains 1
oertly 1
website 1
a 2
electric 1
components 1
ortli 1
eclips 1
ho 1
etters 1
riello 1
honeywell 1
controls%2fplc 1
in 1
address 1
et 1
in-line 1
carbon 1
for 2
how 1
ldu11 1
service 1
eng 1
process 5
drying 6
shoot 1
ir 1
building 1
eclipse-boosterpak 1
rm7800l 1
dark 1
retrofit 1
manuals 1
combustion 5
boiler 1
gaspressurebooster 1
etterengineering.com 1
industrial 2
safety 1
packaged 1
enginerring 1
trumbull 1
cheshire 5
maintenance 1
engineing 1
company 3
control 1
scrubber 1
enginnering 2
hermetic 1
features 1
oven 1
information 1
cromwell 1
connecticut 3
oil 3
burlington 1
heating 3
END_KEYWORDS

# Errors - Hits - Bandwidth
BEGIN_ERRORS 8
403 2 824
206 502 72787069
406 3 1932
302 1 449
500 5 0
405 13 23627
301 89 37267
404 934 1502005
END_ERRORS

# URL with 404 errors - Hits - Last URL referer
BEGIN_SIDER_404 69
/MSFPnav2n.src 1 http://www.etterengineering.com/
/Mark-IIE-Turbo-Meters.jpg 6 http://www.etterengineering.com/parts/
/images/new_site_images/Sample+NFPA+86+Combustion+Safety+Label_large.png 2 http://www.etterengineering.com/safety_audit.html
/etter_body_font_style.css 85 http://www.etterengineering.com/safety_audit.html
/sitemap.txt 2 -
/webdrying/images/nav_contact_us_b.png 30 http://www.etterengineering.com/webdrying/
/parts 1 -
/MSFPnav5n.src 1 http://www.etterengineering.com/
/images/JGM/ETTER 1 http://www.etterengineering.com/
/googlehostedservice.html 1 -
/PartsLineCard_files/filelist.xml 2 -
/html/webdrying 1 -
/etter_privacy_policy.htm 1 -
/images/JGM/blue 1 http://www.etterengineering.com/
/html/webdrying/index.html 1 -
/MSFPnav4n.src 1 http://www.etterengineering.com/
/images/new_site_images/ETTER_Engineering_Blank_Combustion_Safety_Audit+Graphic.png 3 http://www.etterengineering.com/safety%20audits.html
/MSFPnav1n.src 1 http://www.etterengineering.com/
/safety_audits.html 1 -
/engb/SpryAssets/SpryEffects.js 413 http://www.etterengineering.com/engb/engb_packaged_systems.html
/webdrying 1 -
/images/new_site_images/sample_NFPA_86_combustion_safety_audit_label_large.png.png 1 http://www.etterengineering.com/safety_audit.html
/webdrying/images/nav_products_b.png 57 http://www.etterengineering.com/webdrying/
/ETTER_sample_combustion_safety_audit.pdf.pdf 1 http://www.etterengineering.com/safety%20audits.html
/MSFPnav2h.src 1 http://www.etterengineering.com/
/MSFPnav1h.src 1 http://www.etterengineering.com/
/_derived/Etter 1 http://www.etterengineering.com/
/ETTER+Blank+Combustion+Audit+Report.pdf 2 http://www.etterengineering.com/safety%20audits.html
/webdrying.html 1 -
/_derived/safety_audit_button_p.gif 4 http://www.etterengineering.com/
/E101%20Packaged%20Booster%20Brochure%200100.pdf 1 -
/Know-Combustion-Front-FINAL.jpg 4 http://www.etterengineering.com/parts/
/webdrying/images/nav_information_b.png 34 http://www.etterengineering.com/webdrying/
/images/evil.php 1 -
/MSFPnav5h.src 1 http://www.etterengineering.com/
/MSFPnav3h.src 1 http://www.etterengineering.com/
/etter_privacy_policy.html 1 -
/webdrying/images/nav_Home_b.png 25 http://www.etterengineering.com/webdrying/
/engb/packaged_systems.html 3 -
/MSFPnav3n.src 1 http://www.etterengineering.com/
/gas 1 -
/sitemap 17 -
/etter_engb/etter_privacy_policy.html 3 http://www.etterengineering.com/register.html
/register.htm 1 -
/Etter 1 http://www.etterengineering.com/
/img 1 http://www.etterengineering.com/
/engb/images/2009_NY_Building_Show_Piece_Large.jpg 1 http://www.etterengineering.com/engb/index.html
/webdrying/images/ls 1 -
/webdrying/images/nav_parts_line_card_b.png 42 http://www.etterengineering.com/webdrying/
/webdrying/images/nav_safety_audits_b.png 35 http://www.etterengineering.com/webdrying/
/images/Image1.gif 3 -
/engb/web_docs/engb_sb_0509_REV_1_3.pdf 1 http://www.etterengineering.com/engb/resources.html
/webdrying/images/dir 1 -
/etter_engb 2 -
/MSFPnav4h.src 1 http://www.etterengineering.com/
/etter_web_tos.html 3 http://www.etterengineering.com/webdrying/
/SpryAssets/SpryEffects.js 11 http://www.etterengineering.com/webdrying/
/engb/web_docs/engb_sb_0509_REV_1_3_webdocs.pdf 1 http://www.etterengineering.com/engb/resources.html
/Info+&amp 1 -
/webceo.js 90 http://www.etterengineering.com/DRYING.htm
/images/JGM/Solutions...final 1 http://www.etterengineering.com/
/images/new_site_images/sample_NFPA_86_combustion_safety_audit_label_large.png 3 http://www.etterengineering.com/safety_audit.html
/webdrying/images/engb_sb_1208_rev1_2_thumbs.jpg 1 http://www.etterengineering.com/webdrying/
/Manufacturer%20Info%20Request%20Form.htm 1 http://www.etterengineering.com/Manufacturer%2520Info%2520Request%2520Form.htm
/webdrying/images/etter_web_drying_large.jpg 2 http://www.etterengineering.com/webdrying/
/ETTER_sample_combustion_safety_audit.pdf 4 http://www.etterengineering.com/safety_audit.html
/E101+Packaged+Booster+Broch&hellip 1 -
/pbg+burner.jpg 6 http://www.etterengineering.com/parts/
/webdrying/images/nav_Home_hover.png 1 -
END_SIDER_404

# Host - Pages - Hits - Bandwidth - Last visit date - [Start of last visit date] - [Last page of last visit]
# [Start of last visit date] and [Last page of last visit] are saved only if session is not finished
# The 10 first Hits must be first (order not required for others)
BEGIN_VISITOR 585
70.166.148.247 346 3130 45514641 20090622195434
71.125.38.2 78 558 20245410 20090612174652
74.55.94.90 59 59 556606 20090620235206
38.105.83.13 49 50 517381 20090617131828
121.138.194.106 45 57 1719097 20090622174923
12.238.107.131 40 439 10533239 20090622124534
72.37.171.148 30 160 2909993 20090609145505
65.170.130.10 25 184 18042128 20090609140614
195.128.18.18 25 25 280216 20090602180238
204.62.53.203 24 24 161221 20090616142235
158.57.150.68 8 87 2387801 20090615183931
65.55.106.244 3 3 23374 20090607124903
205.188.116.73 0 1 5337 
68.46.150.34 4 28 1518109 20090609121031
68.166.229.74 1 18 442034 20090609131126
205.188.116.141 0 2 9466 
169.155.33.1 4 50 824369 20090618143725
205.188.116.204 0 4 60440 
208.80.195.33 1 1 22906 20090611025928
75.44.163.70 1 18 442034 20090612163721
83.233.30.77 3 3 34152 20090619142848
59.182.89.50 1 10 767774 20090616092134
221.194.132.169 1 1 22910 20090619221352
24.2.237.98 1 20 344840 20090609120828
65.110.11.2 2 2 45774 20090607002543
24.190.11.56 1 18 442034 20090611173800
70.138.0.108 15 174 3542241 20090612004242
68.49.200.244 2 26 592466 20090604151822
65.55.106.187 2 2 32003 20090607201232
216.176.191.233 1 1 13736 20090610183215
65.55.110.99 1 1 13760 20090611090350
66.117.253.118 1 6 98299 20090616132333
205.188.117.69 0 2 28914 
58.61.164.139 18 18 326897 20090622071343
213.138.19.113 0 1 28182 
85.133.32.70 1 21 388318 20090610152558
70.71.160.233 1 6 98299 20090605034400
12.41.40.70 0 8 368974 
150.70.84.45 1 1 8315 20090601202954
71.172.194.212 2 12 515693 20090609223351
65.55.106.192 3 3 26974 20090611065635
64.12.116.14 0 2 5729 
194.250.145.56 1 10 767774 20090611133902
64.27.10.34 5 5 82695 20090607044849
146.243.4.157 5 55 1027317 20090609112757
206.53.153.47 4 39 979189 20090610005556
74.201.117.226 10 42 986152 20090610124021
65.55.106.171 2 2 18566 20090619151744
205.188.117.11 1 1 635030 20090613000836
12.88.188.14 2 19 464925 20090612145036
64.128.177.3 5 5 4374562 20090617215639
74.93.78.129 6 35 5507934 20090609125348
65.55.106.111 1 1 7207 20090606003855
65.55.106.136 1 1 7207 20090601104137
65.55.106.180 3 3 530359 20090620182412
203.6.203.73 1 1 22910 20090619094737
173.49.122.46 2 26 592466 20090604155738
218.18.222.144 1 1 19215 20090601021217
65.55.106.143 1 1 6564 20090618162015
174.133.39.178 1 1 22887 20090613011024
88.36.194.242 1 9 645947 20090615100904
65.55.106.140 4 4 36274 20090620164244
72.232.173.194 1 1 6888 20090611081921
64.12.116.142 0 1 2807 
71.230.158.21 12 71 1557380 20090609192401
121.246.34.60 5 35 766952 20090610115644
65.55.230.192 3 3 26311 20090613022542
208.115.138.254 3 3 52502 20090610155751
208.80.195.34 4 4 88348 20090619121254
58.61.164.141 2 2 45778 20090620104318
208.80.195.56 3 3 68722 20090622231948
72.28.44.4 1 9 645731 20090622183720
12.41.40.20 1 9 62545 20090601173704
69.37.150.198 11 76 1356400 20090612224959
72.94.249.34 1 1 22891 20090607151444
89.215.25.82 1 8 402545 20090617100731
64.12.117.66 0 2 301457 
208.99.209.32 1 1 22891 20090619231454
143.238.220.9 6 35 606852 20090602132639
12.158.1.205 1 1 58638 20090604174702
72.240.52.250 5 53 1065118 20090601200836
67.205.85.53 2 2 45812 20090608062108
65.55.106.124 2 2 15829 20090619190415
64.12.117.18 0 1 761 
81.86.152.245 1 24 396598 20090616085241
65.55.106.239 2 2 13527 20090604191235
65.55.106.114 1 1 6564 20090614135950
122.248.16.2 1 9 645947 20090603095950
65.55.209.92 1 1 0 20090601144740
199.64.0.252 1 18 442034 20090621034147
212.103.208.66 1 9 645947 20090609092358
65.55.106.215 1 1 19595 20090604091805
64.128.171.4 16 16 170272 20090613150933
192.35.44.24 2 27 547656 20090602180628
186.104.63.38 1 18 442034 20090621011110
151.204.231.176 2 23 532316 20090609123310
65.55.209.87 1 1 0 20090602135344
66.235.229.94 2 38 787786 20090609115200
69.119.21.129 1 18 442034 20090614215540
75.127.243.3 10 100 2420312 20090617212429
65.55.209.77 3 3 0 20090620003810
65.55.248.164 1 1 0 20090618121658
24.39.132.216 1 1 0 20090619134744
64.119.128.99 6 99 974350 20090609113909
65.55.232.37 1 1 9126 20090621014407
195.198.209.86 7 7 109726 20090619124752
64.12.116.13 0 1 4100 
66.134.160.186 4 41 841862 20090604140709
24.9.139.180 0 1 157436 
65.55.106.204 4 4 40051 20090621102642
81.149.201.149 7 75 5842233 20090602102714
96.229.151.179 3 28 855326 20090616205532
75.138.179.44 11 72 1444880 20090609142704
72.20.109.62 1 1 19618 20090604100955
65.55.106.230 2 2 13128 20090616194811
63.166.105.113 3 24 728924 20090609124646
69.49.45.51 9 84 1377307 20090606111432
66.92.53.117 1 1 58638 20090601120813
69.95.50.75 9 63 6289496 20090609135307
81.150.198.238 2 26 589230 20090611091415
64.12.116.73 0 1 5337 
205.188.117.77 0 2 27368 
65.55.109.109 1 2 8772 20090618173919
65.55.209.79 2 2 0 20090609053216
76.178.116.201 2 23 491973 20090613044532
64.246.165.130 1 10 399163 20090610222100
65.55.107.180 1 1 8960 20090607192904
65.55.106.188 1 1 5354 20090622175612
71.196.116.192 1 1 7698 20090613115750
68.211.216.123 2 18 1291462 20090611202653
65.55.106.165 2 2 13433 20090609075237
71.167.111.22 3 43 1384755 20090615135022
66.122.123.202 12 62 7760583 20090609162242
206.130.125.28 1 1 0 20090617035907
65.55.106.237 2 2 19352 20090611121935
64.33.247.61 1 20 344840 20090609125455
82.114.175.146 1 9 9862 20090621083918
208.80.195.27 5 5 114039 20090617134450
65.55.106.123 2 2 16658 20090607221102
116.30.4.92 1 1 19618 20090604082421
64.246.165.237 1 12 132468 20090610224753
74.125.74.215 1 1 4525 20090604121003
69.119.63.151 1 1 0 20090621193303
208.99.193.9 2 2 28283 20090620022119
98.172.149.34 5 46 1041352 20090610185617
65.55.106.113 4 4 31048 20090610104404
69.234.120.21 1 21 388318 20090603013422
66.196.119.21 0 6 39182 
65.55.106.220 1 1 6564 20090621041411
79.111.89.222 1 1 22906 20090616230502
74.83.24.2 1 1 22891 20090620015410
65.55.110.106 1 1 13386 20090602164624
190.225.212.111 4 42 629725 20090616192938
91.149.18.211 1 1 22910 20090622165005
140.124.8.34 1 10 52709 20090610030539
41.213.126.6 1 8 393069 20090603135436
70.89.196.129 11 101 2315536 20090601212925
205.166.194.2 1 6 98299 20090602104542
69.183.179.61 3 32 716002 20090602131621
125.25.99.5 4 40 991490 20090618081405
208.105.89.178 8 79 1649739 20090617190514
65.55.209.78 3 3 15996 20090603000202
65.55.106.240 2 2 17050 20090612171406
85.115.52.180 5 50 1038638 20090609103901
99.168.82.46 8 124 2624816 20090622225343
65.55.110.146 1 3 19357 20090601125852
65.183.162.248 1 18 442034 20090606233927
218.81.205.109 1 17 1180382 20090604120942
60.251.71.43 1 18 442034 20090622035733
205.188.116.143 0 1 81569 
76.204.160.54 7 67 6012168 20090609153236
122.144.12.227 1 18 442466 20090621100726
70.138.16.46 6 56 1158389 20090610182436
125.25.97.174 3 27 650256 20090617042552
85.5.172.35 2 26 592466 20090611184201
65.55.106.137 4 4 40355 20090616181339
65.55.109.110 1 1 12927 20090618162803
208.80.195.41 5 5 114043 20090620080532
65.55.106.213 3 3 63524 20090610202507
67.83.134.5 2 26 848292 20090609182522
68.162.89.242 3 38 771073 20090602190116
128.103.244.183 2 11 164931 20090609122013
74.212.15.206 8 67 1882935 20090603145654
69.95.208.24 2 26 848292 20090611194853
65.55.209.86 4 4 0 20090619010534
8.21.4.254 2 2 29995 20090603020634
76.210.252.126 1 18 442034 20090617203525
65.55.106.159 7 7 66025 20090615101750
216.153.192.235 1 10 176744 20090609233717
208.48.7.140 1 8 201420 20090601183922
203.197.123.130 1 21 388318 20090618092526
65.55.106.145 1 1 8960 20090613223450
65.255.66.69 1 21 388318 20090609175001
141.201.155.167 2 26 592466 20090610150542
134.129.141.144 3 35 806223 20090615165951
124.120.80.107 1 1 13736 20090610213116
75.149.146.65 1 17 431519 20090604143441
65.55.106.191 1 1 13736 20090605080125
93.122.135.1 1 9 645731 20090607131650
67.167.34.97 20 115 2256993 20090603151353
118.100.78.124 2 19 442034 20090613135938
119.27.62.254 1 1 4525 20090616074118
65.55.106.185 1 1 8960 20090607201232
222.231.42.202 1 1 13755 20090602122736
217.220.221.155 1 9 645947 20090612120052
65.55.106.236 5 5 49111 20090615181949
99.231.82.110 14 14 168699 20090622005111
98.227.18.192 3 24 628596 20090609011857
65.55.106.107 1 1 11922 20090604182437
204.62.53.125 1 18 442466 20090611070356
76.245.66.244 3 25 867962 20090620213244
194.75.37.250 1 21 388318 20090604133429
155.212.250.98 7 41 1038186 20090617124142
69.116.10.140 6 42 1869218 20090609110558
122.53.140.111 1 21 312982 20090622005014
211.211.120.154 2 37 807688 20090601073113
64.12.116.67 0 4 11334 
208.125.28.172 2 22 392409 20090601145719
65.55.230.201 1 1 9816 20090620231814
65.55.231.31 0 1 50970 
173.14.168.105 6 44 944096 20090619152950
208.80.195.39 6 6 134152 20090621202635
70.252.124.234 4 28 690462 20090608161657
205.188.117.5 2 4 158402 20090608041053
92.244.162.102 1 21 388318 20090615142523
72.54.201.42 3 24 663388 20090601202508
78.161.195.200 1 10 767774 20090615102400
65.55.106.134 4 4 34876 20090623003942
82.23.176.160 1 21 388318 20090611214022
65.217.244.140 8 48 3340077 20090610090811
67.82.17.8 2 22 392409 20090609161652
65.55.106.241 2 2 18486 20090619173444
75.21.173.157 1 18 442034 20090619000350
71.255.16.201 14 111 2322397 20090608191121
70.90.242.21 2 18 451118 20090603140014
24.151.114.105 1 17 431519 20090601165957
208.80.195.36 2 2 45816 20090616022532
63.151.233.163 1 18 442034 20090617192600
12.96.66.194 4 32 578566 20090603224508
65.55.104.18 1 1 22910 20090614054531
32.143.10.76 1 16 379027 20090616140057
99.157.183.86 1 18 442034 20090609130320
4.154.205.198 1 8 30487 20090619201557
64.12.116.135 0 2 5663 
81.155.142.180 1 13 236977 20090615181726
68.109.225.173 1 18 442034 20090618180103
65.55.106.108 5 5 46223 20090607132419
58.61.164.40 2 2 45778 20090620102425
65.55.106.173 4 4 33785 20090615154720
208.40.28.130 5 5 27472 20090608194646
205.188.116.18 0 1 20214 
65.46.48.194 1 1 10396 20090603020634
65.55.106.186 3 3 34739 20090615153020
69.0.94.102 1 18 442034 20090619203001
65.55.106.227 4 4 59230 20090622125243
208.176.55.129 1 10 120334 20090609144238
76.248.144.135 6 49 793050 20090605182619
68.27.65.241 6 73 1081016 20090605184606
65.55.106.112 3 3 19857 20090611170635
72.14.195.33 1 1 19599 20090602120256
65.55.232.41 1 1 12812 20090606181951
204.124.192.32 2 23 532316 20090610123448
86.169.111.50 1 21 388318 20090618084813
64.12.116.10 0 1 882 
82.81.43.17 4 4 90574 20090613185637
208.80.195.42 5 5 107950 20090618102504
71.234.128.180 2 34 494798 20090613022845
220.225.53.113 8 81 2961006 20090610091131
68.161.126.68 1 18 442034 20090611142053
119.152.42.43 3 38 807688 20090611114500
65.55.106.190 1 1 10396 20090617221452
65.55.106.183 4 4 43274 20090610183741
205.188.116.134 0 2 10563 
65.55.106.206 2 2 18926 20090607165103
65.55.232.16 15 15 1511513 20090621014217
65.55.106.238 5 5 52101 20090621191842
87.118.124.11 1 1 22906 20090618032548
65.246.19.190 1 16 433407 20090604201734
217.127.168.82 1 10 767774 20090610170905
128.30.52.70 2 2 28872 20090610230017
4.154.207.31 1 6 28329 20090619162303
65.55.106.189 7 7 54648 20090607185303
75.99.252.10 1 20 344840 20090609193903
65.55.108.173 1 2 49427 20090605130657
98.173.141.129 2 34 494798 20090615171533
24.187.197.66 19 115 2694257 20090622204203
59.182.22.7 1 9 0 20090616103850
65.55.107.179 1 1 6564 20090602225008
75.138.183.150 1 18 442034 20090616165721
65.55.209.73 6 6 12922 20090623011230
148.183.196.166 1 21 364441 20090618124727
81.214.129.63 1 9 645947 20090611060949
65.55.106.218 3 3 41863 20090604165206
75.144.201.234 1 18 442034 20090609155509
65.55.109.11 1 1 19239 20090614052437
65.55.209.74 4 4 8007 20090618173625
65.55.106.135 3 3 20335 20090614221520
65.55.106.157 7 7 59405 20090621205013
71.98.249.61 0 1 0 
124.115.1.8 16 16 330189 20090622073131
24.189.138.234 8 71 6417255 20090604204752
70.217.171.68 1 18 442034 20090610005535
65.55.106.109 2 2 14262 20090620195811
203.175.64.10 3 24 501283 20090614051217
86.162.127.92 3 39 944835 20090610155031
65.55.106.209 2 2 11665 20090605231525
65.55.106.196 3 3 21944 20090617223545
65.55.110.240 1 1 9793 20090619041758
68.192.128.58 1 18 442034 20090621231820
64.12.116.208 1 1 22891 20090609110306
65.55.106.147 5 5 57053 20090606031956
64.252.186.223 5 49 996654 20090618150554
65.55.209.80 2 2 0 20090604203516
71.235.95.70 1 18 442034 20090609111212
65.55.106.118 4 4 33465 20090611203036
68.9.120.246 11 94 2252588 20090615022125
208.99.193.10 5 5 46674 20090620025550
208.80.195.38 3 3 65434 20090618160606
64.12.116.18 0 1 20214 
192.249.47.164 7 52 1084420 20090620144250
64.69.100.93 1 18 442034 20090616231527
205.188.117.10 0 1 97611 
65.55.209.83 3 3 22910 20090617024412
207.46.92.18 0 1 77193 
205.188.116.131 0 4 73591 
65.114.224.250 15 191 1748301 20090610203128
213.68.238.130 1 21 388318 20090609093619
66.162.235.30 1 16 419754 20090609130051
71.154.163.102 1 1 58638 20090610193408
65.126.43.73 7 60 1684663 20090609192115
65.55.106.242 1 1 6564 20090601182407
173.9.28.70 1 18 441962 20090618132128
65.55.106.131 3 3 28758 20090620203842
205.188.116.11 0 2 9561 
98.203.243.141 1 18 597114 20090606211319
208.179.157.98 3 63 776636 20090603142820
199.231.28.56 1 18 442466 20090609103714
205.188.116.208 0 2 1476 
64.12.116.7 0 2 55591 
208.80.195.37 4 4 65438 20090616225049
65.55.106.184 1 1 8960 20090622145743
65.55.106.234 1 1 12788 20090602212939
65.213.111.138 12 65 1376821 20090612170145
65.55.231.114 1 2 43724 20090601115422
75.151.178.249 12 84 7076447 20090609213241
91.214.45.207 1 1 6583 20090603095359
216.196.250.226 8 64 1549589 20090608200530
205.188.116.65 0 2 12874 
208.101.134.121 12 96 1737256 20090611003257
89.149.226.14 3 3 46706 20090611203652
83.71.147.53 1 21 388318 20090603081143
65.55.110.214 1 1 9170 20090612014747
208.125.177.202 1 6 98299 20090619165223
219.80.3.40 1 17 431519 20090604033947
69.15.3.202 6 59 1110099 20090609121034
121.29.220.28 3 35 506670 20090601061910
206.75.198.6 1 1 58638 20090601193102
205.188.117.15 1 1 4525 20090616185643
75.45.27.247 1 18 442034 20090616191946
76.28.7.111 1 1 22891 20090618030417
65.55.209.72 12 12 32049 20090623031955 20090623031955 /engb/web_docs/gas_booster_size_form.php
79.131.8.54 1 6 98299 20090612115020
66.251.17.98 8 42 747666 20090609134930
70.166.145.34 6 34 951695 20090615212025
205.188.116.9 0 1 28158 
24.151.33.12 1 6 98299 20090615040312
209.196.235.120 1 1 7988 20090620062342
65.55.110.62 1 1 7231 20090609065836
205.178.184.154 4 4 55293 20090619234834
65.55.106.167 2 2 13128 20090613095318
59.182.31.185 1 9 645731 20090613091218
205.188.116.69 0 1 129450 
205.188.116.133 0 4 37074 
84.97.21.208 1 9 645731 20090614200327
65.55.106.170 2 2 14905 20090605235426
64.61.48.50 5 38 524723 20090608133950
74.73.118.203 1 21 388318 20090615141314
64.12.116.198 0 2 5548 
32.141.63.151 1 16 419370 20090609112520
65.89.12.2 9 86 2118826 20090610155952
63.117.123.194 3 29 857371 20090610143751
38.117.185.222 1 20 344840 20090610124611
68.165.142.243 2 14 368246 20090608145005
74.95.54.93 1 6 98299 20090609201547
122.231.33.159 1 1 22891 20090617174220
199.125.14.2 1 1 19599 20090603142410
71.243.112.108 5 51 846060 20090622193406
64.253.49.67 1 20 344840 20090618155846
65.55.106.208 7 7 66286 20090622062912
65.55.232.42 1 1 13760 20090606182124
66.196.119.20 1 7 387532 20090606123447
208.51.47.2 1 16 419370 20090609124524
204.213.240.187 1 20 344840 20090609120518
65.55.106.212 5 5 40904 20090615153420
67.66.143.175 1 53 1426144 20090611235221
65.55.106.243 1 1 7698 20090604134937
83.29.166.11 1 1 19599 20090602134523
80.225.143.103 1 4 66447 20090611062221
68.110.222.22 23 86 1910996 20090618162750
68.16.133.157 2 22 420778 20090622151748
205.188.116.16 2 2 18962 20090613000748
114.80.93.71 17 17 378764 20090622235527
65.55.209.81 1 1 0 20090603030425
221.194.132.167 1 1 22910 20090619005127
75.17.100.157 1 17 431519 20090602154549
69.58.178.33 10 10 123850 20090603034627
70.54.190.189 10 64 6233934 20090609151532
146.23.245.16 1 18 442034 20090608213220
82.33.175.36 1 9 645731 20090603183740
65.55.106.235 2 2 21748 20090607233002
24.63.254.145 6 59 617367 20090609120749
192.249.47.163 6 48 769407 20090622172638
59.97.209.226 1 6 98299 20090611095606
124.115.1.7 4 4 91560 20090621103409
194.153.113.8 2 2 753 20090614065208
124.191.113.105 1 1 58638 20090603062346
65.55.106.158 2 2 32709 20090615115622
199.72.103.50 3 35 741503 20090622215435
65.55.106.139 2 2 35679 20090619140416
65.55.209.82 2 2 14600 20090608234504
131.107.0.102 1 1 22887 20090617145049
64.12.116.207 0 1 4106 
167.236.0.61 7 54 1813560 20090622215312
64.12.117.70 0 1 4026 
70.22.172.182 2 34 740687 20090616225224
65.55.106.146 1 1 7027 20090612134005
24.183.186.76 13 118 1467996 20090602165048
75.185.66.67 2 26 848292 20090609120944
205.188.116.140 0 3 15672 
65.55.106.168 2 2 14262 20090605154755
146.145.210.2 2 21 410376 20090609153819
65.55.106.181 2 2 14262 20090606122155
59.95.210.159 1 9 645731 20090621054934
209.172.187.22 1 1 0 20090609142454
65.55.106.144 1 1 7698 20090605162656
64.12.117.17 0 2 5716 
78.87.108.54 1 1 4525 20090622051513
64.179.9.23 7 69 2746507 20090608201120
69.253.129.65 10 118 3351516 20090617205635
67.100.151.114 11 65 1669214 20090609151803
65.55.106.117 1 1 6564 20090620112012
69.147.167.218 1 16 419370 20090609142918
208.99.193.13 4 4 49832 20090620024016
208.80.195.44 3 3 68722 20090622020053
38.100.41.94 1 1 22887 20090609154528
63.198.170.90 7 63 1525274 20090603184006
65.55.106.121 3 3 18259 20090616013008
125.176.201.174 2 2 45826 20090614170849
205.188.117.13 0 2 31528 
68.99.154.187 1 20 344840 20090609205904
205.188.117.67 0 2 6920 
65.55.21.18 1 1 22891 20090618124252
65.55.106.161 1 1 7698 20090603034439
216.145.16.235 0 1 20214 
216.201.189.193 1 1 58638 20090619143000
65.55.106.179 1 1 11922 20090604141438
194.74.227.226 2 26 592466 20090616082657
64.12.116.197 1 2 13182 20090609110316
122.152.148.234 3 40 582623 20090603020639
78.36.172.114 1 1 6564 20090603111444
128.30.52.71 1 1 14416 20090610205440
195.88.33.42 1 1 22910 20090612232350
65.55.106.162 2 2 16658 20090602014037
65.55.106.115 1 1 7281 20090603071138
220.168.228.122 1 1 22396 20090605134441
71.235.94.138 0 1 157436 
41.202.192.83 1 18 208901 20090612140658
65.55.209.76 3 3 9788 20090619041317
69.78.223.102 1 17 437928 20090605193611
59.95.201.197 1 9 580195 20090607093839
24.193.43.26 3 27 795208 20090602173844
67.114.0.234 1 18 442034 20090616221349
24.34.157.95 15 69 1668796 20090616001018
65.55.106.233 3 3 19262 20090604231826
205.188.116.138 1 2 291238 20090609120705
74.92.38.5 3 25 5396139 20090609114912
216.195.223.26 4 28 1080335 20090609152106
65.55.106.138 4 4 21831 20090620212043
69.0.54.189 4 38 1017472 20090619180948
205.188.116.200 0 1 113736 
24.131.160.138 1 20 344840 20090609092648
38.100.41.119 1 1 22891 20090609114125
66.195.71.123 1 17 431519 20090602134817
158.57.45.246 3 27 695597 20090609114656
220.225.41.131 2 19 1413961 20090616111252
64.12.116.206 0 2 5717 
96.57.227.18 1 20 344840 20090609141128
204.62.53.204 10 10 74334 20090617174053
65.55.106.216 2 2 14262 20090619010514
211.25.129.2 2 22 388822 20090610101819
65.55.106.182 1 1 9818 20090605045702
64.252.37.254 1 18 376498 20090617154158
74.10.239.237 23 127 9761663 20090610153402
65.55.106.122 1 1 7698 20090608040103
208.80.195.31 4 4 88340 20090621051025
202.50.143.2 3 40 1011307 20090608040152
65.55.106.210 4 4 37430 20090614182620
65.55.106.229 4 4 44574 20090618063616
173.32.5.127 1 17 431519 20090604130345
64.12.117.74 0 1 2808 
65.55.106.133 2 2 31137 20090605000958
216.74.139.212 7 7 2442 20090622163243
65.55.109.194 1 1 5936 20090606011105
12.229.118.178 1 18 442034 20090615144850
65.55.232.44 1 2 9083 20090603020529
86.161.170.1 1 13 495923 20090618183432
68.161.224.209 1 1 0 20090608215429
65.55.106.155 2 2 17133 20090609122637
65.55.106.169 2 2 14262 20090620015213
65.55.106.194 2 2 13128 20090617040553
151.138.28.141 1 18 442034 20090608165220
71.234.45.109 4 40 1147577 20090612181014
208.99.193.8 3 3 42424 20090620025023
66.228.67.162 8 52 1084990 20090615173806
74.44.13.251 1 13 495923 20090614020145
208.99.193.12 3 3 32673 20090620024525
59.96.172.77 2 20 1535548 20090619054741
64.12.116.139 0 1 2742 
65.42.121.131 8 75 2434973 20090609113025
206.229.18.66 11 105 2895695 20090611183237
65.55.106.205 2 2 19620 20090612115435
65.55.107.181 3 3 27066 20090612214123
98.217.148.90 4 40 977295 20090609173056
68.15.61.99 7 62 1481301 20090609111949
65.55.106.219 2 2 17133 20090608032434
24.45.143.251 8 75 1906350 20090609121330
65.55.209.75 3 3 8007 20090622065308
206.53.157.47 4 30 791629 20090610005952
147.175.16.111 0 1 69435 
69.95.88.34 1 9 645731 20090605180842
155.94.119.221 1 10 767774 20090616074118
58.61.164.39 2 2 45778 20090620104359
69.37.111.224 10 81 2070798 20090615190031
64.12.116.131 0 1 8523 
65.164.205.5 3 23 1055802 20090605191016
65.55.106.193 5 5 38877 20090619092147
65.55.106.148 2 2 13771 20090622145942
208.99.193.11 3 3 30766 20090620022054
65.55.106.163 4 4 36580 20090616105509
94.187.26.201 1 9 645731 20090604072145
32.143.201.25 2 26 782756 20090609135602
65.55.106.203 3 3 23697 20090604183305
74.73.30.152 1 1 0 20090622020527
205.246.28.59 1 10 106293 20090612195611
68.9.140.23 1 16 433407 20090605171455
65.55.106.116 1 1 7281 20090606103025
123.180.79.55 3 42 785124 20090614060652
68.9.119.53 1 6 98299 20090612055136
65.55.106.232 2 2 29603 20090605184629
83.240.154.200 1 1 6583 20090603111405
173.89.1.213 1 13 236977 20090618113608
206.183.9.43 2 20 106293 20090612193228
65.55.106.217 1 1 6564 20090621123143
116.125.140.11 1 1 22906 20090617053427
65.55.106.172 3 3 23881 20090610191341
205.188.116.142 0 2 290288 
99.155.21.128 2 37 593186 20090612002158
96.57.228.210 9 132 2160016 20090615204715
65.55.106.119 5 5 42083 20090610020907
205.188.116.8 0 2 9670 
74.11.114.129 1 1 32460 20090608152330
65.55.209.96 1 1 0 20090601214112
203.188.235.130 1 21 376539 20090611070411
58.61.164.140 2 2 45774 20090619070455
216.204.193.162 5 40 1156661 20090601142503
208.80.195.32 3 3 68726 20090622171546
205.188.116.203 0 2 12528 
65.55.106.156 4 4 40785 20090611072135
70.89.237.117 5 49 1265702 20090609185421
69.242.165.18 2 26 848292 20090609134831
70.142.58.253 1 20 344840 20090609182640
65.55.48.71 1 1 22891 20090618124233
65.55.209.85 1 1 0 20090614051928
205.178.184.155 8 8 57592 20090619234828
65.55.209.94 1 1 0 20090602134534
65.55.106.211 2 2 19352 20090611035636
173.9.74.42 2 21 475912 20090610170448
65.55.109.51 1 2 7856 20090609064641
203.206.161.131 2 17 411187 20090618025209
65.55.231.42 1 2 353378 20090618131108
65.55.230.193 1 1 7223 20090612095223
89.216.69.65 1 9 645731 20090622114313
64.12.117.15 2 2 4893 20090622110458
96.57.96.234 11 143 1491662 20090617130848
64.12.116.204 0 2 5664 
END_VISITOR

# Date - Pages - Hits - Bandwidth - Visits
BEGIN_DAY 23
20090601 111 547 12893887 60
20090602 108 500 13457484 45
20090603 98 513 11054112 49
20090604 120 689 15434740 61
20090605 131 665 11750389 61
20090606 38 159 3136039 27
20090607 47 63 3068781 41
20090608 96 629 15954902 39
20090609 356 2876 111852398 104
20090610 159 1169 32891396 56
20090611 152 1265 27077180 43
20090612 128 1026 20919367 33
20090613 41 184 4478084 21
20090614 33 136 3403972 28
20090615 105 945 20628541 40
20090616 61 423 12414695 37
20090617 182 1375 26298447 44
20090618 77 575 16119914 36
20090619 96 403 14060205 46
20090620 113 180 3591436 33
20090621 27 119 2968124 25
20090622 81 446 10408880 37
20090623 4 4 22560 4
END_DAY

# Worm ID - Hits - Last visit
# The 10 first Hits must be first (order not required for others)
BEGIN_WORMS 0
END_WORMS

# Session range - Number of visits
BEGIN_SESSION 7
1h+ 5
5mn-15mn 28
15mn-30mn 19
2mn-5mn 41
30s-2mn 77
0s-30s 765
30mn-1h 34
END_SESSION

# URL - Pages - Bandwidth - Entry - Exit
# The 10 first Pages must be first (order not required for others)
BEGIN_SIDER 91
/ 405 8182006 330 250
/engb/ 147 1019819 45 36
/gas+boosters.htm 142 1635103 63 40
/HOME.htm 101 1921418 11 28
/PartsLineCard.htm 93 1691974 31 35
/Etter+Products.htm 92 749221 12 17
/engb/engb_packaged_systems.html 73 644943 32 21
/safety_audit.html 70 504631 19 9
/INFORMATION.htm 68 469056 29 29
/Manufacturer+Info+Request+Form.htm 64 413594 60 63
/OVENS.htm 46 346469 27 30
/TT+Burner+Tuning+030.htm 22 192153 13 14
/webstats/awstats.pl 5 221290 0 1
/LINKS+OF+INTEREST.htm 21 176314 5 6
/engb/web_docs/engb_press_release_rev_21009_text_only.doc 3 31532 1 1
/History.htm 22 158905 6 5
/regulato.htm 19 104384 7 8
/34ft+Oven+PR.htm 6 22310 3 3
/feedback.htm 6 29599 2 2
/ETTER+Newsletter+1202+Boosters+Consultants.htm 5 19803 1 1
/engb/web_docs/engb_sb_1208_rev1_2_webdocs.pdf 6 1898507 0 2
/news.htm 15 127856 2 1
/Etter+catalogue+request+form.htm 14 101972 11 11
/webdrying/ 56 455155 9 10
/DRYING.htm 46 590528 22 27
/engb/web_docs/engb_press_release_rev_21009.pdf 6 224944 1 2
/information.htm 1 7226 0 1
/Siemens+PR1.htm 5 26595 3 3
/safety+audits.html 18 75889 1 0
/Directions.htm 11 72541 2 6
/Booster+Training.htm 11 40958 1 5
/engb/gasPOD_sales_brochure_0509+REV+2_2.pdf 25 6431620 1 14
/GAS+BOOSTER+OPTIONS.htm 42 384718 4 15
/etter+products.htm 1 10415 0 0
/engb/contact_us.html 11 106142 1 3
/Web+Works+Demo.htm 3 16196 1 1
/engb/resources.html 33 239456 2 2
/E101+Packaged+Booster+Brochure+0100.pdf 31 779107 5 12
/Web+Worx.htm 22 250377 14 17
/EPB+Brochure+(On+Line+PDF).pdf 17 704040 16 13
/Product+Request+Form.htm 9 54990 7 5
/home.htm 1 22910 0 0
/gasPOD_sales_brochure_0509+REV+2_2.pdf 14 3588672 0 9
/Portable+IR+Brochure.doc 3 65911 2 1
/bakingservice/ 1 18043 0 0
/ETTER_sample_combustion_safety_audit.pdf.pdf 29 5639439 1 12
/engb/etter_web_tos.html 6 71902 3 2
/Web+Coater+PR.htm 6 41840 2 2
/TT+Burner+Intro+010.htm 9 75730 0 0
/engb/web_docs/2009_natl_grid_blue_book_web.pdf 8 4823757 3 4
/Announcing+New+Controls+Engineer.htm 8 50597 3 2
/OERTLI+Asphalt+Burner.htm 47 190610 42 40
/register.html 14 43976 0 0
/JOBS.htm 15 134542 4 5
/engb/about_engb.html 36 275562 4 6
/parts/ 17 212755 4 3
/ETTER_Web_Drying_0509_REV_+1_2.pdf 9 2560975 1 3
/Tech+Tips!.htm 19 205408 1 2
/engb/engb_features.html 29 236005 2 8
/engb/literature_request.html 8 48133 2 2
/partslinecard.htm 2 38449 1 1
/Invensys+Metro+PR.htm 3 21100 1 1
/engb/engb_features_cust_outlet.html 7 48930 1 1
/_derived/nortbots.htm 1 2958 0 0
/search.htm 5 12195 2 2
/engb/web_docs/ENGB+Photo+Gallery.swf 24 83545869 0 7
/TT+Burner+Types+020.htm 12 117627 3 4
/engb/engb_features_cool_flow_technology.html 7 43267 2 2
/Invensys+Rotary+PR.htm 5 34063 3 3
/inforequestfrm.htm 2 8013 2 1
/Annoucning+Metro+Office.htm 4 21367 1 1
/engb/external_motor_wiring.html 6 46842 0 0
/ETTER+Model+ETB-500.pdf 4 589864 0 0
/Info+&+Help.htm 20 138963 10 10
/Announcing+New+Engineering+Assistant.htm 10 65013 1 4
/engb/web_docs/engb_sb_0509_REV_1_3.pdf 2 1613464 0 0
/Annoucning+AHR+Expo+Jan+2002.htm 3 21193 1 1
/engb/thank_you.html 2 9404 0 1
/Information.htm 5 36107 4 1
/engb/engb_features_sliding_tank_housing.html 8 49538 2 3
/Panels.htm 26 334123 9 10
/engb/web_docs/engb_sb_0509_REV_1_3_webdocs.pdf 2 589824 0 0
/engb/etter_privacy_policy.html 10 63881 0 0
/HEATERS.htm 30 294622 6 10
/Siemens+PR2.htm 3 13855 1 1
/Cure+Worx.htm 42 349436 33 33
/engb/web_docs/engb_press_release_2809.pdf 7 136170 1 4
/meters.htm 15 75023 6 9
/Newsletter+0202.htm 2 10051 2 2
/IR+with+XIOM+Brochure.doc 3 515832 1 2
/engb/web_docs/gas_booster_size_form.php 20 306968 3 5
END_SIDER
