AWSTATS DATA FILE 5.5 (build 1.500)
# If you remove this file, all statistics for date 2004-10 will be lost/reset.

# Position (offset in bytes) in this file of beginning of each section
# for direct I/O access. If you made changes somewhere in this file, you
# should also remove completely the MAP section (AWStats will rewrite it
# at next update).
BEGIN_MAP 25
POS_GENERAL 1817                
POS_TIME 2165                
POS_VISITOR 13128               
POS_DAY 24721               
POS_DOMAIN 2734                
POS_LOGIN 2904                
POS_ROBOT 3078                
POS_WORMS 25676               
POS_EMAILSENDER 3610                
POS_EMAILRECEIVER 3758                
POS_SESSION 25740               
POS_SIDER 25962               
POS_FILETYPES 3897                
POS_OS 4054                
POS_BROWSER 4203                
POS_SCREENSIZE 4538                
POS_UNKNOWNREFERER 4616                
POS_UNKNOWNREFERERBROWSER 5452                
POS_ORIGIN 6147                
POS_SEREFERRALS 6304                
POS_PAGEREFS 6648                
POS_SEARCHWORDS 7963                
POS_KEYWORDS 10342               
POS_ERRORS 11794               
POS_SIDER_404 11928               
END_MAP

# LastLine    = Date of last record processed - Last record line number in last log - Last record offset in last log - Last record signature value
# FirstTime   = Date of first visit for history file
# LastTime    = Date of last visit for history file
# LastUpdate  = Date of last update - Nb of parsed records - Nb of old records - Nb of new records - Nb of corrupted - Nb of dropped
# TotalVisits = Number of visits
# TotalUnique = Number of unique visitors
# MonthHostsKnown   = Number of hosts known
# MonthHostsUnKnown = Number of hosts unknown
BEGIN_GENERAL 8
LastLine 20041101032338 20 2076 27988627760
FirstTime 20041001002233
LastTime 20041031111102
LastUpdate 20041101041233 20 11 1 8 0
TotalVisits 345                 
TotalUnique 256                 
MonthHostsKnown 0                   
MonthHostsUnknown 292                 
END_GENERAL

# Hour - Pages - Hits - Bandwidth
BEGIN_TIME 24
0 29 137 1706927
1 38 284 3126001
2 49 179 2170850
3 61 237 2772002
4 19 149 1501398
5 109 233 2641284
6 61 630 4035838
7 24 58 613699
8 8 35 617378
9 5 5 93858
10 12 77 643481
11 32 256 3070442
12 55 430 4775173
13 38 471 5060715
14 75 1080 11313658
15 53 534 6365871
16 62 473 4604260
17 78 411 4817200
18 64 623 6607823
19 81 635 7239700
20 71 635 5758553
21 44 356 3590814
22 18 204 1723206
23 27 150 1648413
END_TIME

# Domain - Pages - Hits - Bandwidth
# The 10 first Pages must be first (order not required for others)
BEGIN_DOMAIN 1
ip 1113 8282 86498544
END_DOMAIN

# Login - Pages - Hits - Bandwidth - Last visit
# The 10 first Pages must be first (order not required for others)
BEGIN_LOGIN 1
guest 13 13 192077 20041030001720
END_LOGIN

# Robot ID - Hits - Bandwidth - Last visit
# The 10 first Hits must be first (order not required for others)
BEGIN_ROBOT 12
googlebot 178 3442888 20041031202319
slurp 160 1911457 20041031095404
robi 110 473351 20041026151541
jeeves 53 854113 20041030194004
linkwalker 46 0 20041014160458
psbot 37 487726 20041006192558
crawl 34 47750 20041031225236
wisenutbot 13 176420 20041019050530
ia_archiver 7 92785 20041024135344
appie 4 70009 20041028131951
python 2 42488 20041014173952
robot 1 5756 20041001003343
END_ROBOT

# EMail - Hits - Bandwidth - Last visit
# The 20 first Hits must be first (order not required for others)
BEGIN_EMAILSENDER 0
END_EMAILSENDER

# EMail - Hits - Bandwidth - Last visit
# The 20 first hits must be first (order not required for others)
BEGIN_EMAILRECEIVER 0
END_EMAILRECEIVER

# Files type - Hits - Bandwidth - Bandwidth without compression - Bandwidth after compression
BEGIN_FILETYPES 5
dll 4 1508 0 0
gif 5166 17527353 0 0
pdf 63 2055348 0 0
jpg 2003 51819159 0 0
htm 1046 15095176 0 0
END_FILETYPES

# OS ID - Hits
BEGIN_OS 9
winme 264
winnt 115
winxp 4456
win95 13
win2000 2274
Unknown 377
macintosh 37
win98 686
linux 60
END_OS

# Browser ID - Hits
BEGIN_BROWSER 21
netscape5.0 296
netscape7.02 52
msie5.22 16
netscape4.5 3
teleport 1
netscape4.7 74
konqueror 36
netscape7.1 38
netscape7.2 42
msie5.0 86
galeon 18
msie6.0 6448
opera 4
msie5.5 530
msie 1
safari 20
Unknown 330
netscape4.04 3
libwww 2
msie5.00 15
msie5.01 267
END_BROWSER

# Screen size - Hits
BEGIN_SCREENSIZE 0
END_SCREENSIZE

# Unknown referer OS - Last visit date
BEGIN_UNKNOWNREFERER 16
Jetbot/1.0 20041016194251
Wotbox/0.7-alpha_(bot@wotbox.com;_http://www.wotbox.com) 20041022044545
Ocelli/1.1_(http://www.globalspec.com) 20041014051359
IUSA_Browser 20041029045807
HTML2JPG_Blackbox,_http://www.html2jpg.com_ 20041017034757
Scrubby/2.2_(http://www.scrubtheweb.com/) 20041010061513
Mozilla/3.0_(compatible;_Indy_Library) 20041012114855
Mozilla/4.7_[en](Exabot@exava.com) 20041022055842
Mozilla/3.01_(compatible;) 20041030201911
- 20041026023443
Mozilla/3.0_(compatible) 20041008164807
Teleport_Pro/1.29.1590 20041023051900
W3C-WebCon/5.2.8_libwww/5.2.8 20041023074050
msnbot/0.3_(_http://search.msn.com/msnbot.htm) 20041030060546
Mozilla/4.0_(compatible;_grub-client-2.3) 20041031004225
Faxobot/1.0 20041030205126
END_UNKNOWNREFERER

# Unknown referer Browser - Last visit date
BEGIN_UNKNOWNREFERERBROWSER 13
Jetbot/1.0 20041016194251
Wotbox/0.7-alpha_(bot@wotbox.com;_http://www.wotbox.com) 20041022044545
Ocelli/1.1_(http://www.globalspec.com) 20041014051359
IUSA_Browser 20041029045807
HTML2JPG_Blackbox,_http://www.html2jpg.com_ 20041017034757
Scrubby/2.2_(http://www.scrubtheweb.com/) 20041010061513
Mozilla/3.0_(compatible;_Indy_Library) 20041012114855
Mozilla/3.01_(compatible;) 20041030201911
- 20041026023443
Mozilla/3.0_(compatible) 20041008164807
msnbot/0.3_(_http://search.msn.com/msnbot.htm) 20041030060546
Mozilla/4.0_(compatible;_grub-client-2.3) 20041031004225
Faxobot/1.0 20041030205126
END_UNKNOWNREFERERBROWSER

# Origin - Pages - Hits 
BEGIN_ORIGIN 6
From0 474 847
From1 13 13
From2 147 152
From3 54 54
From4 425 7216
From5 0 0
END_ORIGIN

# Search engine referers ID - Pages - Hits
BEGIN_SEREFERRALS 12
msn. 43 43
google. 27 27
(^|.)ask.com 3 3
images.google. 6 10
altavista. 2 2
overture.com 2 2
yahoo. 53 54
search.aol.co 2 2
teoma. 1 1
metacrawler. 1 1
search..*com 4 4
excite. 3 3
END_SEREFERRALS

# External page referers - Pages - Hits
# The 10 first Pages must be first (order not required for others)
BEGIN_PAGEREFS 20
http://bbs.zykj.net 15 15
http://www.xiom-corp.com/assocvendors.htm 9 9
http://www.chemindustry.com/chem2ask.asp 6 6
http://www.shinkona.com/distributors.html 3 3
http://www.durag.com/html/salesreps/Connecticut.html 2 2
http://67.95.174.54/SensusGas/DistributorLocator/detail.asp 2 2
http://www.chemindustry.com/more_searches/M/meters.asp 2 2
http://www.faxo.com 2 2
http://www.chemindustry.com/popular/R/regulators.asp 2 2
http://www.line-text.com/proveedores_cont.html 1 1
http://www.durag.com/html/salesreps/New%20York%20State.html 1 1
http://www.njsmartstartbuildings.com/main/fata/installers/etterengineering.html 1 1
http://www.chemindustry.com/popular/C/custom_control_panel.asp 1 1
http://www.chemindustry.com/more_searches/R/regulators.asp 1 1
http://www.kellysearch.nl/us-company-900279190.html 1 1
http://www.pyrometerequipment.com/links.html 1 1
http://www.invensysenergymetering.com/tool-dealer-2/searchbystate2.cfm 1 1
http://www.bdrmgcanada.com/Contact%20Information%20-%20Etter%20Engineering.htm 1 1
http://www.manufacturersmart.com/cgi-bin/csvread.pl 1 1
http://www.thebluebook.com/wsnsa.dll/WService=wsbrk1/viewpgb.htm 1 1
END_PAGEREFS

# Search keyphrases - Number of search
# The 10 first number of search must be first (order not required for others)
BEGIN_SEARCHWORDS 85
etter+engineering 21
gas+booster+pumps 6
etter 5
gas+booster+pump 4
gas+booster 3
gas+pressure+booster 3
etter+gas+booster 3
ir+ovens 3
gas+pressure+booster+systems 2
nfpa+85 2
equimeter+diaphragm+meter+rockwell 1
etter+engineering+gas+booster 1
eclipse+combustion+air+filters 1
do+it+yourself+oil+burner+tune+up 1
gas+booster+pressure 1
plumbing+pressure+booster 1
%ef%bd%81%ef%bd%88%ef%bd%92%ef%bd%85%ef%bd%98%ef%bd%90%ef%bd%8f 1
atmospheric+burner 1
natural+gas+static 1
eclipse+packaged+gas+booster+systems 1
fuel+staying+rich 1
203-272-9860 1
type+burner+burning+gas 1
invensys+gas+meter 1
zero+governor 1
gas+burners+parts%2fdistributor%2fcontrols 1
heating+manufacturing+cheshire+connecticut 1
gas+burner+types 1
high+velocity+drying 1
packaged+gas+systems 1
gas+heating+furnace+replacement+parts 1
oil+burner+tuning 1
air+drying+tunnel+design 1
oil+burners+ct. 1
eclipse+dungs+controllers 1
types+of+burner 1
etterengineering 1
gas+air+mix+valve 1
gas+safety+shut+off 1
combustion+burner+stands 1
nfpa+86 1
simple+gas+burner 1
pressure+regulating+stations 1
natural+%26+gas+%26+flame+%26+safety+%26+valves 1
hermetic+gas+booster 1
industrial+gas+burner+tube+equipment 1
combustion+natural+gas+fuzzy 1
atmospheric+ring+burners 1
industrial+gas+burner+controls 1
burner+controls+landis 1
gas+furnace+diaphram+pressure+switches 1
gas+fired+burners 1
www.etterengineering.com 1
mixers+types+and+operation 1
gas+booster+pressure+price 1
siesmic+valves 1
gas+burner+blower 1
gas+valve+train 1
gas+boosters 1
gas+booster+components 1
burner+tuning 2
etter+engineering.com 1
gas+pipe+burners 1
eclipse+booster 1
maxitrol+replacement+solenoids 1
eclipse+low+flow+packaged+gas+booster+systems 1
venturi+pipe+burners 1
gas+controls.com 1
heaters+by+train 1
packaged+skid+system 1
mix+gas+burner 2
willing+to+train+jobs 1
pipe+burner+mixers 1
burner+rods+for+heaters 1
siesmic+shut+off+valve 1
equimeter+incorporated 1
process+heating+gas 2
powder+coat+ovens 1
pics+of+big+ships 2
etter+engineering+gas+booster+system 2
ul+508a 1
types+of+gas+furnaces 1
tuning+an+oil+burner 1
infrared+burner+controls 1
oil+burner+tune+up+do+it+yourself 1
END_SEARCHWORDS

# Search keywords - Number of search
# The 10 first number of search must be first (order not required for others)
BEGIN_KEYWORDS 126
gas 56
etter 33
booster 32
engineering 24
burner 21
pressure 10
burners 6
pumps 6
oil 5
systems 5
pics 2
up 2
by 1
low 1
tube 1
regulating 1
landis 1
filters 1
cheshire 1
%ef%bd%81%ef%bd%88%ef%bd%92%ef%bd%85%ef%bd%98%ef%bd%90%ef%bd%8f 1
and 1
hermetic 1
engineering.com 1
operation 1
packaged 4
process 2
venturi 1
safety 2
diaphram 1
203-272-9860 1
zero 1
invensys 1
furnaces 1
jobs 1
blower 1
mix 3
coat 1
tune 2
ships 2
flow 1
equipment 1
static 1
flame 1
types 4
85 2
stations 1
86 1
infrared 1
of 4
etterengineering 1
tuning 4
for 1
pipe 3
%26 4
price 1
replacement 2
siesmic 2
stands 1
burning 1
plumbing 1
controls 3
simple 1
fuel 1
staying 1
natural 3
controls.com 1
do 2
diaphragm 1
furnace 2
heating 4
powder 1
system 3
boosters 1
www.etterengineering.com 1
dungs 1
controllers 1
parts%2fdistributor%2fcontrols 1
manufacturing 1
big 2
heaters 2
equimeter 2
solenoids 1
rockwell 1
connecticut 1
switches 1
skid 1
shut 2
combustion 3
mixers 2
an 1
fired 1
components 1
to 1
high 1
eclipse 5
design 1
ct. 1
off 2
drying 2
velocity 1
ir 3
valves 2
it 2
tunnel 1
type 1
atmospheric 2
air 3
ovens 4
ring 1
industrial 2
incorporated 1
parts 1
maxitrol 1
valve 3
pump 4
willing 1
nfpa 3
governor 1
508a 1
ul 1
rods 1
yourself 2
meter 2
rich 1
train 3
fuzzy 1
END_KEYWORDS

# Errors - Hits - Bandwidth
BEGIN_ERRORS 4
206 121 2610386
403 2 8540
500 1 175
404 90 377928
END_ERRORS

# URL with 404 errors - Hits - Last URL referer
BEGIN_SIDER_404 21
/Invensys 1 -
/images/Image1.gif 22 http://www.etterengineering.com/DRYING.htm
/Etter%20Products.htm 1 -
/images/Image2.gif 22 http://www.etterengineering.com/DRYING.htm
/cgi-bin/wellness.pl 1 http://www.etterengineering.com/
/Annoucning 1 -
/Parts+Line+Card.htm 1 -
/file:/C:/My+Documents/My+Webs/ETRX/Info+&+Help.htm 1 -
/images/Image3.gif 21 http://www.etterengineering.com/DRYING.htm
/file:/C:/My+Documents/My+Webs/ETRX/DocURL.indexOf( 1 -
/fusserotik.htm 1 http://bbs.zykj.net
/images/JGM/3 1 -
/WEBSHARE/flexo1.jpg 8 http://www.etterengineering.com/HEATERS.htm
/Announcing 1 -
/tigh_high.htm 1 http://bbs.zykj.net
/Siemens 1 -
/Web 1 -
/braune_strumpfhosen.htm 1 http://bbs.zykj.net
/impressum.html 1 http://bbs.zykj.net
/ETTER+ENGINEERING!+You've+found+YOUR+process+heating+source!_files/showiframe.htm 1 http://www.etterengineering.com/HOME.htm
/34ft 1 -
END_SIDER_404

# Host - Pages - Hits - Bandwidth - Last visit date - [Start of last visit date] - [Last page of last visit]
# [Start of last visit date] and [Last page of last visit] are saved only if session is not finished
# The 10 first Hits must be first (order not required for others)
BEGIN_VISITOR 292
65.54.188.103 90 90 1433699 20041030060546
65.54.188.99 46 46 667565 20041020190139
66.194.55.242 44 44 633913 20041014051359
67.15.62.62 43 43 601578 20041017030217
64.124.85.98 42 44 640868 20041022055842
65.54.188.101 41 41 594039 20041016024923
216.77.131.140 36 483 3816853 20041029111316
172.156.27.135 26 267 1671159 20041001063450
207.245.79.130 24 199 2643183 20041028193822
66.194.6.76 23 23 488612 20041025155815
65.16.102.218 1 12 283697 20041007124005
132.40.121.33 5 64 715450 20041005145130
65.73.70.187 1 8 101779 20041018222151
64.255.96.235 1 13 286415 20041019202310
68.162.39.241 1 25 336321 20041010035748
67.108.149.10 3 38 486626 20041019135832
65.122.37.4 2 31 509869 20041014192413
162.83.239.115 4 35 449593 20041019145151
24.151.84.123 19 491 4237699 20041027141008
65.8.25.245 1 22 293739 20041004140250
66.194.6.75 6 6 127464 20041030225812
201.243.237.116 1 15 113366 20041001170301
66.194.6.78 1 1 13253 20041030011318
66.194.6.79 5 5 66265 20041014115131
208.181.115.2 1 1 21244 20041012000456
12.40.84.151 1 15 292115 20041019142640
207.190.204.189 3 41 604717 20041013155251
146.27.122.17 1 11 41700 20041013225809
146.27.122.18 0 4 19128 
64.132.220.21 1 13 142875 20041025141624
146.27.122.19 0 10 101691 
68.163.184.235 1 18 161978 20041007115814
152.121.200.200 1 13 142530 20041027152230
204.116.155.217 2 35 248259 20041024222730
24.177.34.39 1 16 337626 20041009133949
81.80.148.226 1 1 58523 20041007081331
63.67.141.58 8 74 774409 20041026135349
66.194.6.80 4 4 73949 20041012174352
66.194.6.81 6 6 93476 20041028220944
192.31.106.42 1 9 129585 20041026013223
66.194.6.83 11 11 180678 20041031111102
216.217.36.130 2 2 37760 20041029190936
66.194.6.84 6 6 93476 20041024165603
128.230.62.38 1 1 58523 20041028191705
81.244.105.200 1 15 184280 20041013135542
168.243.218.2 1 13 141480 20041007230527
211.157.8.43 1 14 151206 20041015054116
64.12.116.12 0 1 20111 
208.46.145.165 4 28 250339 20041012175540
63.167.187.4 0 5 0 
219.116.242.198 1 16 138875 20041019102739
64.12.116.14 1 2 22671 20041026145146
211.157.8.48 15 15 209086 20041012232821
205.188.116.208 0 2 5263 
146.27.122.21 0 6 16089 
206.213.251.31 1 18 161982 20041021172723
158.57.45.246 1 1 41229 20041027141044
64.252.89.72 1 18 161982 20041011140919
216.152.232.3 1 24 333689 20041028174855
69.45.37.173 1 1 360 20041001004445
219.136.169.4 1 1 12508 20041023051900
66.97.220.162 11 11 146578 20041008164811
80.177.157.74 2 27 363772 20041004151852
206.227.128.13 5 66 559466 20041006151447
205.188.116.6 0 1 2157 
217.29.143.15 1 13 143187 20041018073505
203.76.178.31 13 244 781202 20041022064112
12.0.45.199 2 2 58547 20041025184015
67.109.146.98 3 42 360587 20041005204222
213.148.154.128 5 71 1058541 20041001120612
205.188.116.211 0 1 20207 
205.188.116.213 0 1 52754 
63.77.247.130 0 5 0 
205.188.116.214 0 1 8941 
64.12.116.201 0 2 5287 
64.12.116.203 0 2 22949 
205.188.116.145 0 1 5247 
64.12.116.204 0 1 52754 
64.12.116.134 0 1 20540 
61.11.8.4 1 19 171017 20041005211823
64.12.116.135 0 1 2743 
203.196.115.13 1 16 337626 20041015082707
64.12.116.137 0 1 5247 
64.12.116.138 1 1 21268 20041026145116
68.161.36.224 1 19 164699 20041026135732
209.25.171.44 1 1 2967 20041026023443
64.228.99.135 1 13 142875 20041003154600
205.188.116.22 0 1 20111 
12.175.0.44 1 1 15890 20041025162650
69.104.63.43 1 14 145507 20041007230705
207.8.133.30 1 13 142084 20041012202727
62.135.119.69 1 13 142875 20041023115416
66.166.132.189 1 1 13253 20041017193251
4.14.212.255 4 54 609310 20041027014956
209.23.200.179 1 1 288 20041016011234
69.150.123.195 1 31 177864 20041027164546
24.3.154.66 3 54 161982 20041007130851
203.122.16.18 1 16 337626 20041007061308
199.217.212.93 1 1 58547 20041021145110
206.229.18.66 5 41 90858 20041027140334
62.254.64.12 1 13 142875 20041021010152
129.47.170.42 5 68 485714 20041020163728
24.60.179.11 2 26 336358 20041001145036
24.187.225.110 7 99 809166 20041030212359
146.145.127.82 13 119 1725173 20041026193953
81.130.54.193 1 13 142875 20041015145321
203.199.247.1 2 3 239110 20041019061019
208.181.115.201 1 1 21244 20041019072724
24.16.86.171 1 18 161922 20041008233739
65.33.45.49 1 8 118066 20041022025945
63.199.16.8 1 13 141350 20041027223757
64.136.27.228 3 45 538000 20041011024536
64.12.116.5 0 1 8887 
170.202.254.170 1 19 165948 20041021141421
68.220.36.174 1 18 161982 20041013215014
68.160.220.84 4 55 591707 20041020201107
81.45.238.205 1 13 141480 20041008135441
217.80.224.78 2 2 564 20041012124837
132.197.253.4 3 3 63732 20041016110639
63.155.4.62 2 30 289465 20041015035510
128.6.30.195 1 3 31539 20041026055847
68.127.103.50 1 13 312180 20041021003729
198.7.225.36 1 15 291755 20041016183542
211.157.36.9 1 1 21268 20041012114855
220.226.17.134 7 57 428521 20041018105033
68.51.68.80 1 8 129572 20041013033302
65.54.98.28 1 17 168655 20041004225754
67.38.235.115 3 3 25599 20041027195718
24.211.197.253 1 1 24845 20041007093642
205.179.23.114 2 26 361140 20041025182903
159.124.6.148 4 36 497955 20041020212137
4.243.203.57 1 26 334330 20041017185210
66.189.41.231 2 21 184943 20041029182910
68.106.106.82 1 14 151206 20041022224609
148.243.173.67 1 31 177864 20041015182238
69.145.105.74 1 15 291755 20041005015918
12.15.242.69 1 15 184280 20041029184024
216.41.112.134 1 1 24845 20041013115601
194.78.208.81 12 12 174137 20041027124455
64.71.144.63 1 1 21244 20041016194251
64.161.253.66 1 13 141480 20041021225143
141.209.61.35 1 12 283697 20041021205757
4.237.14.152 7 70 582141 20041002014756
69.194.109.61 1 1 21244 20041024002841
68.15.54.85 7 104 448007 20041006135804
210.8.211.221 1 18 244441 20041015115850
67.15.16.28 1 1 21244 20041014110306
64.12.116.66 0 3 4163 
141.150.142.136 2 27 0 20041005215737
68.200.68.108 1 14 145507 20041023030753
64.233.33.182 3 39 315739 20041018173301
65.249.65.166 1 1 13253 20041027032957
68.239.60.238 8 57 977377 20041021194613
68.210.120.251 1 15 184280 20041017142436
24.220.155.121 3 33 452946 20041022030317
66.233.128.80 1 15 291755 20041015222037
62.114.150.177 1 18 161982 20041028114416
68.254.207.140 1 15 184280 20041029183827
205.188.116.66 0 1 815 
63.238.167.100 9 102 800304 20041007203502
69.2.254.74 1 31 177864 20041027222727
65.98.55.234 1 1 21244 20041014040519
199.125.14.2 2 2 42526 20041029045807
64.12.117.11 0 1 8425 
64.12.117.14 0 1 11067 
209.194.234.142 2 27 279540 20041022151148
68.163.218.190 6 86 817419 20041007121917
209.113.177.58 1 15 291755 20041005145842
69.95.88.34 6 52 341699 20041018165644
64.12.116.70 0 1 23835 
64.12.116.72 0 1 2731 
209.62.166.253 4 28 263544 20041016204937
200.68.89.101 1 18 162414 20041006145621
132.246.109.130 3 27 361166 20041021154347
66.207.118.206 2 2 42507 20041028210627
205.188.117.10 0 1 2656 
205.188.116.196 0 1 2630 
68.161.227.46 5 37 324458 20041006145045
4.40.45.220 1 13 141480 20041016164205
203.201.215.2 2 25 456918 20041030115056
64.12.117.5 0 1 9059 
64.12.117.7 0 1 2656 
64.114.199.1 1 1 21263 20041012000516
64.12.117.8 0 1 3990 
205.188.117.17 0 1 8425 
141.154.6.18 5 55 709727 20041004165643
66.6.69.226 2 32 406397 20041012145115
67.164.91.101 1 1 13253 20041006080308
219.79.33.219 1 1 24845 20041014143708
61.16.164.66 1 15 292115 20041005132546
64.140.165.132 1 1 0 20041010061513
68.63.98.66 3 58 437647 20041015022002
212.165.80.155 5 52 520941 20041023180148
203.124.150.250 1 1 13253 20041015064007
202.156.2.91 5 63 636990 20041017040438
67.80.120.79 4 36 333002 20041021232942
218.155.185.188 3 55 553423 20041019015950
202.46.15.164 1 13 142875 20041005053900
205.188.117.23 1 1 13957 20041006015705
64.12.116.195 0 1 2630 
142.166.200.21 1 15 291755 20041026131436
64.12.116.196 0 2 26398 
64.12.116.197 0 1 2741 
65.4.122.147 5 60 643806 20041029003613
216.54.98.132 1 15 291755 20041027183522
213.170.46.30 2 16 309695 20041005141735
68.232.233.147 1 18 229068 20041006063207
199.48.5.2 1 8 129585 20041020191135
67.93.221.98 2 2 24845 20041015125110
64.246.165.130 1 18 162414 20041009034648
129.86.240.204 1 18 161982 20041020193733
136.1.1.33 1 16 166049 20041028135346
24.227.105.39 1 18 161982 20041018142645
67.101.8.41 1 18 161982 20041007002324
203.197.255.179 1 5 227227 20041015131048
208.47.92.210 2 24 234752 20041022151758
62.89.119.24 1 13 141792 20041011082628
68.251.40.117 1 1 21244 20041003051246
4.3.109.255 1 18 161982 20041028192350
68.91.215.101 20 20 278478 20041030205126
66.224.127.94 2 2 42488 20041007145239
81.144.182.250 1 18 161982 20041017034757
81.5.184.25 1 1 21244 20041022044545
66.83.6.50 1 18 161982 20041025181646
68.46.59.182 1 8 129585 20041012005247
68.210.172.62 3 42 511092 20041014154209
24.46.63.19 1 18 161982 20041023200126
66.160.142.3 3 3 55168 20041012220338
24.128.230.69 3 39 276420 20041020204629
24.147.142.32 2 30 501468 20041017153224
218.167.165.137 7 102 844323 20041027053930
212.77.192.54 2 30 553423 20041017140550
66.166.66.178 1 24 0 20041015165754
66.88.62.235 1 24 334265 20041007125910
67.86.230.4 1 18 161982 20041001002233
63.105.38.2 1 13 142530 20041029152247
207.58.214.54 2 25 366726 20041004185337
168.75.177.103 13 13 192077 20041030001720
4.235.54.76 5 47 564131 20041021192652
65.89.250.194 0 4 0 
205.235.175.11 2 26 368630 20041021145547
216.68.8.237 1 18 162414 20041018144352
65.38.202.254 1 1 4924 20041012152416
195.113.58.140 1 1 21244 20041022074838
204.60.88.131 5 52 348888 20041029142813
24.176.180.173 2 19 183166 20041012060429
144.134.113.80 7 86 806121 20041012124201
216.179.80.3 2 33 384161 20041001113555
24.186.115.124 12 156 867847 20041022205741
67.138.229.61 1 18 161982 20041009044540
66.159.137.104 9 68 880749 20041004214833
209.113.185.242 7 80 742879 20041021173304
80.186.174.235 1 1 13253 20041031004225
206.46.32.50 5 66 483148 20041021184157
137.99.137.105 5 45 466197 20041014033414
70.19.91.107 8 85 1220083 20041019162603
200.16.7.30 1 15 292115 20041013021737
128.165.156.80 1 12 283697 20041005170439
65.207.58.36 2 21 185447 20041028215128
207.53.230.81 3 40 392310 20041019162716
209.199.136.6 1 5 56380 20041029180154
207.50.236.83 2 2 42488 20041004204340
68.196.40.135 1 33 183153 20041020043127
68.167.129.30 9 98 1387530 20041022133954
65.54.188.88 1 1 21244 20041007160727
64.198.3.211 1 1 24845 20041014161658
64.115.186.126 4 63 937644 20041029190201
216.83.202.34 2 28 325760 20041006212905
211.28.80.89 1 24 333689 20041018043959
212.95.252.16 1 1 21244 20041019010823
68.114.216.127 2 32 452946 20041013235727
168.215.103.193 1 13 142530 20041012212526
167.82.191.50 12 126 1402403 20041020153806
209.24.49.130 2 19 166906 20041007142942
218.155.122.174 2 2 26912 20041023074050
68.208.47.90 3 44 585675 20041006132708
209.6.228.86 1 18 161982 20041013234227
198.107.42.86 1 8 129572 20041019182941
199.46.199.231 3 38 486281 20041007113736
216.153.151.199 5 43 607056 20041026155814
12.42.51.28 5 62 407686 20041025182728
65.165.182.20 1 8 129585 20041027111801
69.37.126.212 4 36 497091 20041028195439
70.16.31.50 6 29 399815 20041014164933
62.252.32.11 7 90 813080 20041024214137
167.235.252.243 2 57 484630 20041026180103
192.151.110.119 4 50 558925 20041028183146
4.37.64.164 17 129 1197657 20041020125451
218.110.4.156 1 1 13253 20041010191136
12.31.43.201 1 19 164701 20041014115454
24.131.37.178 3 38 485714 20041010010505
24.150.199.147 1 13 142530 20041029022811
END_VISITOR

# Date - Pages - Hits - Bandwidth - Visits
BEGIN_DAY 31
20041001 56 449 3941195 10
20041002 12 92 658133 6
20041003 3 15 185363 3
20041004 29 269 3578718 11
20041005 24 296 3349441 13
20041006 24 258 2390107 12
20041007 35 373 3524367 20
20041008 16 47 504709 6
20041009 28 77 1109506 6
20041010 9 70 890017 7
20041011 7 78 869725 5
20041012 45 226 2448468 18
20041013 14 181 2232523 11
20041014 72 221 2866842 15
20041015 49 315 3555973 17
20041016 27 77 963244 8
20041017 63 302 3554556 11
20041018 25 271 2310481 10
20041019 45 533 6305945 16
20041020 76 544 5388229 14
20041021 61 519 5967024 20
20041022 84 580 4465166 13
20041023 14 103 1066466 9
20041024 29 74 850971 6
20041025 11 83 890381 9
20041026 68 463 5915930 14
20041027 77 1005 8203715 16
20041028 27 292 3394360 12
20041029 34 359 3661574 16
20041030 46 107 1415656 8
20041031 3 3 39759 3
END_DAY

# Worm ID - Hits - Last visit
# The 10 first Hits must be first (order not required for others)
BEGIN_WORMS 0
END_WORMS

# Session range - Number of visits
BEGIN_SESSION 7
15mn-30mn 4
1h+ 8
0s-30s 242
5mn-15mn 19
30s-2mn 32
2mn-5mn 33
30mn-1h 7
END_SESSION

# URL - Pages - Bandwidth - Entry - Exit
# The 10 first Pages must be first (order not required for others)
BEGIN_SIDER 54
/home.htm 168 3229874 145 84
/PartsLineCard.htm 83 1346448 29 28
/HOME.htm 72 1313715 2 18
/Etter+Products.htm 61 700844 1 8
/gas+boosters.htm 60 859198 19 13
/OVENS.htm 51 662650 33 34
/INFORMATION.htm 44 555260 1 4
/EPB+Brochure+(On+Line+PDF).pdf 33 1296721 11 14
/DRYING.htm 32 407541 6 7
/TT+Burner+Types+020.htm 31 404153 19 17
/news.htm 17 254253 0 1
/information.htm 1 12927 0 0
/Web+Coater+PR.htm 7 113141 0 0
/Directions.htm 14 174931 0 2
/JOBS.htm 16 325608 2 4
/TT+Burner+Intro+010.htm 12 148776 4 1
/Product+Request+Form.htm 9 44340 3 1
/History.htm 16 130864 0 3
/Announcing+New+Engineering+Assistant.htm 8 95456 0 1
/drying.htm 2 28136 0 0
/partslinecard.htm 1 17959 0 0
/Web+Worx.htm 9 142858 1 2
/search.htm 5 28660 0 2
/web+worx.htm 1 15890 0 0
/etter+products.htm 1 12759 0 0
/E101+Packaged+Booster+Brochure+0100.pdf 30 758627 5 16
/Annoucning+AHR+Expo+Jan+2002.htm 8 98824 4 4
/Booster+Training.htm 7 46949 2 3
/Web+Works+Demo.htm 10 109793 1 0
/Manufacturer+Info+Request+Form.htm 8 36864 0 1
/ovens.htm 1 13272 0 0
/Etter+catalogue+request+form.htm 7 37282 0 2
/GAS+BOOSTER+OPTIONS.htm 30 426535 6 9
/meters.htm 21 113215 4 4
/Announcing+New+Controls+Engineer.htm 10 112572 2 1
/Invensys+Metro+PR.htm 9 145571 0 0
/34ft+Oven+PR.htm 8 63096 1 1
/regulato.htm 30 164535 4 10
/Panels.htm 20 415863 6 8
/panels.htm 1 21904 0 0
/Siemens+PR1.htm 9 132622 0 1
/ETTER+Newsletter+1202+Boosters+Consultants.htm 6 17802 1 3
/Tech+Tips!.htm 15 272544 0 0
/Siemens+PR2.htm 9 108939 1 1
/_derived/nortbots.htm 1 4763 0 1
/Newsletter+0202.htm 6 10470 0 0
/HEATERS.htm 29 321711 2 8
/Annoucning+Metro+Office.htm 9 99784 0 0
/_vti_bin/owssvr.dll 4 1508 0 1
/heaters.htm 1 11110 0 0
/Info+&+Help.htm 16 307800 1 1
/LINKS+OF+INTEREST.htm 31 627264 19 22
/TT+Burner+Tuning+030.htm 14 190280 9 4
/Invensys+Rotary+PR.htm 9 157571 1 0
END_SIDER
