AWSTATS DATA FILE 5.5 (build 1.500)
# If you remove this file, all statistics for date 2009-05 will be lost/reset.

# Position (offset in bytes) in this file of beginning of each section
# for direct I/O access. If you made changes somewhere in this file, you
# should also remove completely the MAP section (AWStats will rewrite it
# at next update).
BEGIN_MAP 25
POS_GENERAL 1817                
POS_TIME 2171                
POS_VISITOR 18051               
POS_DAY 43779               
POS_DOMAIN 2775                
POS_LOGIN 2947                
POS_ROBOT 3086                
POS_WORMS 44788               
POS_EMAILSENDER 3685                
POS_EMAILRECEIVER 3833                
POS_SESSION 44852               
POS_SIDER 45078               
POS_FILETYPES 3972                
POS_OS 4277                
POS_BROWSER 4414                
POS_SCREENSIZE 4675                
POS_UNKNOWNREFERER 4753                
POS_UNKNOWNREFERERBROWSER 7090                
POS_ORIGIN 8885                
POS_SEREFERRALS 9043                
POS_PAGEREFS 9314                
POS_SEARCHWORDS 10224               
POS_KEYWORDS 13729               
POS_ERRORS 15435               
POS_SIDER_404 15612               
END_MAP

# LastLine    = Date of last record processed - Last record line number in last log - Last record offset in last log - Last record signature value
# FirstTime   = Date of first visit for history file
# LastTime    = Date of last visit for history file
# LastUpdate  = Date of last update - Nb of parsed records - Nb of old records - Nb of new records - Nb of corrupted - Nb of dropped
# TotalVisits = Number of visits
# TotalUnique = Number of unique visitors
# MonthHostsKnown   = Number of hosts known
# MonthHostsUnKnown = Number of hosts unknown
BEGIN_GENERAL 8
LastLine 20090601003237 207 38751 46691818648
FirstTime 20090501013358
LastTime 20090531233421
LastUpdate 20090601194646 207 0 79 108 20
TotalVisits 1186                
TotalUnique 599                 
MonthHostsKnown 0                   
MonthHostsUnknown 647                 
END_GENERAL

# Hour - Pages - Hits - Bandwidth
BEGIN_TIME 24
0 52 153 3261408
1 70 207 3880877
2 105 247 5134338
3 55 249 5892568
4 63 161 6761412
5 62 141 3869071
6 54 164 5031824
7 76 169 4285953
8 53 114 4068918
9 50 95 3755433
10 48 204 6774723
11 61 236 6973702
12 126 950 23325661
13 137 1137 31414360
14 217 1269 32165921
15 203 1340 37784139
16 80 616 10647382
17 154 1310 35890513
18 170 1045 26230738
19 182 1519 25833164
20 101 755 20064469
21 128 437 9062976
22 141 424 10232997
23 52 317 7010127
END_TIME

# Domain - Pages - Hits - Bandwidth
# The 10 first Pages must be first (order not required for others)
BEGIN_DOMAIN 1
ip 2440 13259 329352674
END_DOMAIN

# Login - Pages - Hits - Bandwidth - Last visit
# The 10 first Pages must be first (order not required for others)
BEGIN_LOGIN 0
END_LOGIN

# Robot ID - Hits - Bandwidth - Last visit
# The 10 first Hits must be first (order not required for others)
BEGIN_ROBOT 14
slurp 328 27382961 20090531192517
googlebot 272 18129585 20090531144031
crawl 61 1235501 20090530182916
robot 33 744338 20090526105227
jeeves 28 382767 20090530193534
psbot 25 224519 20090521111914
speedy 17 85183 20090530202213
turnitinbot 12 1227161 20090522091738
yandex 9 176391 20090531112804
wget 2 44489 20090519074042
core 1 1080 20090525094753
ia_archiver 1 19618 20090524183726
spider 1 376 20090504092640
netcraft 1 19618 20090504201622
END_ROBOT

# EMail - Hits - Bandwidth - Last visit
# The 20 first Hits must be first (order not required for others)
BEGIN_EMAILSENDER 0
END_EMAILSENDER

# EMail - Hits - Bandwidth - Last visit
# The 20 first hits must be first (order not required for others)
BEGIN_EMAILRECEIVER 0
END_EMAILRECEIVER

# Files type - Hits - Bandwidth - Bandwidth without compression - Bandwidth after compression
BEGIN_FILETYPES 12
css 156 67140 0 0
png 497 20952808 0 0
pdf 111 16657876 0 0
htm 1478 14421237 0 0
pl 30 1155760 0 0
swf 21 45161565 0 0
php 13 195197 0 0
html 775 9929823 0 0
js 16 122074 0 0
jpg 4971 173751586 0 0
doc 12 3399858 0 0
gif 5179 43537750 0 0
END_FILETYPES

# OS ID - Hits
BEGIN_OS 8
winme 4
macintosh 454
winxp 10153
win2000 667
winnt 898
win98 4
Unknown 1036
linux 43
END_OS

# Browser ID - Hits
BEGIN_BROWSER 16
msie8.0 543
msie6.0 2804
konqueror 30
msie5.01 6
netscape0.91 1
netscape5.0 3781
msie7.0 4427
libwww 2
netscape4.0 5
msie5.0 6
msie 2
up. 28
msie5.5 69
netscape7.2 17
Unknown 987
safari 551
END_BROWSER

# Screen size - Hits
BEGIN_SCREENSIZE 0
END_SCREENSIZE

# Unknown referer OS - Last visit date
BEGIN_UNKNOWNREFERER 38
BotTracer;_(_http://www.informacja.pl)_visited_etterengineering.com 20090504122218
libwww-perl/5.805 20090529143633
Java/1.6.0_13 20090508144523
Xenu_Link_Sleuth_1.3c 20090515102130
Jakarta_Commons-HttpClient/3.0-rc2 20090526080141
Ocelli/1.4_(http://www.globalspec.com/Ocelli) 20090530122852
Feedfetcher-Google;_(_http://www.google.com/feedfetcher.html;_feed-id=3821780684481087049) 20090518180941
msnbot/1.1_(_http://search.msn.com/msnbot.htm) 20090531152157
tynqmhhtmqncmytawncge 20090516045040
Microsoft_Internet_Explorer 20090521154509
Mozilla/4.0 20090526231559
Goldfire_Server 20090519205354
Java/1.6.0_04 20090528224252
Mozilla/5.0_(compatible;_ScoutJet;__http://www.scoutjet.com/) 20090502020248
Mozilla/5.0_ThomasNet_Link_Checker 20090531033012
Yanga_WorldSearch_Bot_v1.1/beta_(http://www.yanga.co.uk/) 20090517093014
Mozilla/0.91_Beta_(Windows) 20090507153056
Mozilla/4.0_(compatible;_http://search.thunderstone.com/texis/websearch/about.html) 20090503152915
- 20090531011538
Mozilla/5.0_(compatible;_MSIE_or_Firefox_mutant;_not_on_Windows_server;__http://ws.daum.net/aboutWebSearch.html)_Daumoa/2.0 20090527112808
msnbot-media/1.1_(_http://search.msn.com/msnbot.htm) 20090525203915
SuperPagesBot/0.2 20090515004015
MSIE_5.0 20090505194459
Mozilla/5.0_(compatible;_MJ12bot/v1.2.4;_http://www.majestic12.co.uk/bot.php?_) 20090505080007
CatchBot/1.0;__http://www.catchbot.com 20090530050400
msnbot/2.0b_(_http://search.msn.com/msnbot.htm) 20090531225207
Mozilla/5.0_(compatible;_OpenfosBot/2.4;__http://www.openfos.com) 20090512221101
BlackBerry8310/4.2.2_Profile/MIDP-2.0_Configuration/CLDC-1.1_VendorID/102 20090527125046
Mozilla/5.0_(compatible;_Charlotte/1.0t;_http://www.searchme.com/support/) 20090525184027
Java/1.5.0_11 20090514151524
Mozzila/4.0 20090517082555
Java/1.6.0_03 20090530063429
renlifangbot/1.0_(_http://search.msn.com/msnbot.htm) 20090523214700
Mozilla/5.0_(compatible;_Charlotte/1.1;_http://www.searchme.com/support/) 20090506134240
LWP::Simple/5.814 20090501130702
HTML2JPG_Blackbox,_http://www.html2jpg.com 20090522235038
NutchCVS/0.7.2_(Nutch;_http://lucene.apache.org/nutch/bot.html;_nutch-agent@lucene.apache.org) 20090524225012
Mozilla/4.0_(compatible;) 20090531152814
END_UNKNOWNREFERER

# Unknown referer Browser - Last visit date
BEGIN_UNKNOWNREFERERBROWSER 29
Mozilla/5.0_(compatible;_ScoutJet;__http://www.scoutjet.com/) 20090502020248
BotTracer;_(_http://www.informacja.pl)_visited_etterengineering.com 20090504122218
Yanga_WorldSearch_Bot_v1.1/beta_(http://www.yanga.co.uk/) 20090517093014
Mozilla/4.0_(compatible;_http://search.thunderstone.com/texis/websearch/about.html) 20090503152915
msnbot-media/1.1_(_http://search.msn.com/msnbot.htm) 20090525203915
- 20090531011538
Java/1.6.0_13 20090508144523
Mozilla/5.0_(compatible;_MJ12bot/v1.2.4;_http://www.majestic12.co.uk/bot.php?_) 20090505080007
CatchBot/1.0;__http://www.catchbot.com 20090530050400
Xenu_Link_Sleuth_1.3c 20090515102130
Jakarta_Commons-HttpClient/3.0-rc2 20090526080141
Mozilla/5.0_(compatible;_OpenfosBot/2.4;__http://www.openfos.com) 20090512221101
msnbot/2.0b_(_http://search.msn.com/msnbot.htm) 20090531225207
Ocelli/1.4_(http://www.globalspec.com/Ocelli) 20090530122852
Feedfetcher-Google;_(_http://www.google.com/feedfetcher.html;_feed-id=3821780684481087049) 20090518180941
tynqmhhtmqncmytawncge 20090516045040
Java/1.5.0_11 20090514151524
BlackBerry8310/4.2.2_Profile/MIDP-2.0_Configuration/CLDC-1.1_VendorID/102 20090527125046
msnbot/1.1_(_http://search.msn.com/msnbot.htm) 20090531152157
Mozzila/4.0 20090517082555
Java/1.6.0_03 20090530063429
Microsoft_Internet_Explorer 20090521154509
renlifangbot/1.0_(_http://search.msn.com/msnbot.htm) 20090523214700
Goldfire_Server 20090519205354
HTML2JPG_Blackbox,_http://www.html2jpg.com 20090522235038
LWP::Simple/5.814 20090501130702
NutchCVS/0.7.2_(Nutch;_http://lucene.apache.org/nutch/bot.html;_nutch-agent@lucene.apache.org) 20090524225012
Mozilla/4.0_(compatible;) 20090531152814
Java/1.6.0_04 20090528224252
END_UNKNOWNREFERERBROWSER

# Origin - Pages - Hits 
BEGIN_ORIGIN 6
From0 1271 1538
From1 1 1
From2 298 315
From3 31 39
From4 839 11366
From5 0 0
END_ORIGIN

# Search engine referers ID - Pages - Hits
BEGIN_SEREFERRALS 7
images.google. 22 29
(^|.)ask.com 1 1
search.aol.co 1 1
search..*com 19 19
msn. 23 23
yahoo. 32 34
google. 200 208
END_SEREFERRALS

# External page referers - Pages - Hits
# The 10 first Pages must be first (order not required for others)
BEGIN_PAGEREFS 16
http://na.sensus.com/Module/DistLoc/StateList/gas 10 10
http://www.globalspec.com/Supplier/Profile 3 3
http://qadweb.ajantunes.com/cgi-bin/wspd_cgi.ksh/WService=prod_WS/ajpartner.html 3 3
http://www.appletonrestore.org 2 2
http://www.emailmeform.com/fid.php 2 2
http://192.168.252.15:15871/cgi-bin/blockOptions.cgi 2 2
http://www.durag.com/html/salesreps/Ohio%20South.html 1 1
http://pesquisa.sapo.pt 1 1
http://www.BigFinder.de 1 1
http://www.durag.com/html/salesreps/Massachusetts.html 1 1
http://74.125.47.132/search 0 8
http://www.yellowpages.com/CT/Mechanical-Engineers 1 1
http://www.nedmirror.nl 1 1
http://www.bryandonkinusa.com/ny_nj_ne.html 1 1
http://search.earthlink.net/search 1 1
http://www.shinkona.com/distributors.html 1 1
END_PAGEREFS

# Search keyphrases - Number of search
# The 10 first number of search must be first (order not required for others)
BEGIN_SEARCHWORDS 131
etter+engineering 52
oertli+burners 15
oertli+burner 13
gas+booster+pump 10
etter 7
natural+gas+booster 6
natural+gas+pressure+booster 4
etter+engineering+company 4
oertli 4
eclipse+booster 4
custom+train+control+panel 1
gas+burner+tune 1
tuning+dnm+burner 1
industrial+engineer+waterford+ct 2
sales 1
gas+coolers+for+gas+booster 1
plc+control+panels+shops+in+california 1
process+combustion+systems 1
content 1
packaged+gas+booster+sets 2
mbtuh+cfh 1
individual 1
burner+tuning+efficiency 1
booster+pump+gases 1
outlet 1
gas+pressure+booster+pump 1
etter+engineering+co.+cheshire+ct 1
natural+gas+boost+pump 1
engineering 1
natural+gas+booster+pump 1
burner 2
tuning+up+burners 1
natural+gas+pressure+booster+pump 1
gas+booster+1+hp 1
powder+coat+oven 3
web+drying+equipment 1
ir+ovens 1
mechanical+engineering+company+in+connecticut 1
gas+booster+set+schematic 1
wolseley+gas+booster+pump 1
engb+engineering 1
eclipse+booster+pumps 1
natural+gas+booster+pumps 3
etter+engineering+chester+ct 2
burner+oertli 2
kinemax+burner+tuning 1
lal+...+%2flocktype+basic+wiring+diagram+for+burner 1
etterengineering 1
ul+control+panels+examples 1
inser+gas+booster+system+womack 1
tuning+natural+gas+burners 1
gas+booster+system 3
gas+booster+piping 1
industrial+process+heating+equipment 1
ortli+burner 1
etter+engineering+co.+inc. 3
gas+booster+pump+small 1
connecticut+engineering 1
ul+panel+shop 1
etter+enginering 1
abco+gas+booster+pump 2
oerpli+burner 1
natural+gas+combustion 3
etter+engineering+gas+booster+systems 1
dungs+combustion+controls+gas+and+air+filter 1
new+britain+engineering+company 1
compact+gas+booster+pump 1
eclipse+gas+booster+pump 3
adjusting+and+tuning+oil+burners 1
low+pressure+natural+gas+check+valve 1
industrial+design+pine+bluff+ar 1
cib+burner+oertli 1
natural+gas+line+pressure+booster 1
gas+pilots+maxon 1
tuning+burner+used+oil+combustion 1
hemetic+gas+booster 1
champion+spark+plugs+line+card 1
gas+buster+pump+eclips 2
invensys+instromet 1
three+t+s+of+combustion 1
etter+eclipse+hb+gas+booster 1
ul+certified+panel+shops 1
etter+engineering. 1
eclipse+booster+pump 2
eclipse+gas+booster 1
etter+engineering+ct 2
oil+burner+tuning+book 1
how+to+check+i+need+gas+booster 1
high+speed+drying+tunnel 1
etter+gas+booster+pumps 2
gas+booster 3
gas+booster+pump+venting 1
certli+burner 1
natural+gas+boosters 2
eclipse+burner+first+out+annunciation 1
tuning+oil+burner 2
etter+sales 1
burners+oertli 2
equimeter+incorporated 2
tter+engineering 1
gas+booster+pumps 1
etter+engineering+cheshire+ct 1
natural+gas+booster+and+pressure+regulation+skid 1
combustion 1
natural+gas+regulators+with+slam+shut 1
burner+jiangxi+oertli 1
linecard+engineering 1
engineer+ct 1
burner+tuning 2
etterengineering.com 1
etter+eng 1
oil+burner+co+tuning+gastemp 1
web+drying+system 1
gas+buster+pump 2
eclipse+pour+booster 1
natural+gas+combustion+temperature 1
etter+gas+booster 2
oertli+burners+uk 1
etter+natural+gas+booster 1
equimeter+valves 1
tuning+burner 1
how+to+tune+a+gas+burner 1
can+eng+burner+tuning 1
oe3+oertli+burner 1
burner+tuning+basics 1
industrial+gas+engineering 1
gas+boosters+chesshire+ct 1
tuning+a+gas+burner 2
transclosures 2
service+of+gas+process+ovens 1
biogas+pressure+pumps 1
END_SEARCHWORDS

# Search keywords - Number of search
# The 10 first number of search must be first (order not required for others)
BEGIN_KEYWORDS 166
gas 85
etter 83
engineering 74
booster 70
burner 42
oertli 40
pump 30
natural 28
burners 21
tuning 18
pressure 10
equimeter 3
abco 2
oerpli 1
boosters 3
hb 1
skid 1
controls 1
co 1
temperature 1
examples 1
chesshire 1
basics 1
shut 1
mbtuh 1
adjusting 1
dungs 1
linecard 1
tter 1
used 1
panels 2
and 3
small 1
system 5
of 2
pine 1
custom 1
panel 3
ct 10
coat 3
schematic 1
speed 1
tune 2
pour 1
ul 3
hp 1
co. 4
certified 1
plc 1
can 1
certli 1
gases 1
waterford 2
a 3
boost 1
ortli 1
eclips 2
spark 1
systems 2
in 2
pilots 1
shops 2
valve 1
kinemax 1
valves 1
diagram 1
engineering. 1
champion 1
s 1
maxon 1
oe3 1
drying 3
card 1
ir 1
combustion 9
britain 1
... 1
industrial 5
venting 1
packaged 2
invensys 1
check 2
low 1
gastemp 1
coolers 1
company 6
i 1
control 3
wolseley 1
engb 1
instromet 1
oil 6
jiangxi 1
shop 1
transclosures 2
ovens 2
sales 2
content 1
%2flocktype 1
individual 1
annunciation 1
regulators 1
outlet 1
line 2
out 1
piping 1
mechanical 1
engineer 3
etterengineering 1
cib 1
train 1
with 1
equipment 2
lal 1
efficiency 1
california 1
enginering 1
web 2
design 1
to 2
bluff 1
incorporated 2
set 1
filter 1
eclipse 14
powder 3
inser 1
tunnel 1
wiring 1
inc. 3
uk 1
need 1
slam 1
regulation 1
1 1
new 1
t 1
compact 1
for 2
how 2
service 1
eng 2
process 3
pumps 8
buster 4
basic 1
three 1
up 1
biogas 1
etterengineering.com 1
high 1
cheshire 2
hemetic 1
first 1
sets 2
chester 2
womack 1
oven 3
connecticut 2
ar 1
plugs 1
heating 1
book 1
cfh 1
air 1
dnm 1
END_KEYWORDS

# Errors - Hits - Bandwidth
BEGIN_ERRORS 7
403 9 11652
302 2 902
206 272 35727433
405 10 18168
406 1 1937
301 54 23387
404 438 726916
END_ERRORS

# URL with 404 errors - Hits - Last URL referer
BEGIN_SIDER_404 50
/MSFPnav2n.src 1 -
/ETTER_Web_Drying_0509_REV_+1_2.pdf 5 http://www.etterengineering.com/DRYING.htm
/MSFPnav3h.src 1 -
/TT%20Burner%20Tuning%20030.htm 16 http://www.etterengineering.com/TT%2520Burner%2520Tuning%2520030.htm
/Drag+to+a+file+to+make+a+link. 1 http://www.etterengineering.com/DRYING.htm
/etter_privacy_policy.html 1 -
/images/new_site_images/bakery_mailer_front.jpg 5 http://www.etterengineering.com/bakingservice/
/MSFPnav8h.src 1 -
/MSFPnav3n.src 1 -
/gas 1 -
/images/web_drying_problem_large.gif 4 http://www.etterengineering.com/DRYING.htm
/sitemap 25 -
/index.html 1 -
/images/Image2.gif 17 http://www.etterengineering.com/DRYING.htm
/parts 1 -
/home.html 1 -
/PartsLineCard_files/filelist.xml 12 -
/(null) 1 -
/bakingservice.html 3 http://etterengineering.com/webstats/awstats.pl
/Etter 1 -
/bakingservice/index 1 -
/engb/gasPOD_sales_brochure_0509+REV+2_2.pdf 1 http://www.etterengineering.com/engb/engb_packaged_systems.html
/bakingservices 1 -
/bakingservice 2 -
/noexist_179e217134eca878.html 2 -
/images/Image1.gif 15 http://www.etterengineering.com/DRYING.htm
/inde 1 -
/engb/SpryAssets/SpryEffects.js 211 http://www.etterengineering.com/engb/index.html
/engb/privacy.html 1 -
/MSFPnav4h.src 1 -
/etter_engb 8 -
/parts.html 1 -
/gasPOD_sales_brochure_0509+REV+2_2.pdf 1 http://www.etterengineering.com/gas%20boosters.htm
/SpryAssets/SpryEffects.js 30 http://www.etterengineering.com/bakingservice/
/bakingservice/index.html 1 -
/images/Image3.gif 16 http://www.etterengineering.com/DRYING.htm
/Info+&amp 4 -
/webceo.js 25 http://www.etterengineering.com/bakingservice/
/images/JGM/Solutions...final 2 -
/MSFPnav2h.src 1 -
/bakingservice/bakingservice 2 -
/home 1 -
/engb/web_docs/ENGB+Press+Release+Rev+2-6-09.pdf 1 -
/_derived/Etter 1 -
/engb/contact_us.html' 1 -
/index 1 -
/engb/privacy_policy.html 1 -
/links+of+interest_Files/Bindings.xml 1 -
/images/new_site_images/bakery_mailer_front.gif 3 http://www.etterengineering.com/bakingservice/
/images/new_site_images/etter_banner_graphic_2009.gif 2 http://www.etterengineering.com/bakingservice/
END_SIDER_404

# Host - Pages - Hits - Bandwidth - Last visit date - [Start of last visit date] - [Last page of last visit]
# [Start of last visit date] and [Last page of last visit] are saved only if session is not finished
# The 10 first Hits must be first (order not required for others)
BEGIN_VISITOR 647
70.166.148.247 330 2950 50980755 20090528145015
89.122.29.35 53 53 477835 20090522023915
89.123.14.9 53 53 477965 20090528224252
38.100.41.105 52 53 492431 20090528214529
79.112.214.67 49 53 488265 20090508144523
64.128.171.4 32 32 339861 20090530122852
121.138.194.106 28 38 1237944 20090530063429
194.153.113.18 22 69 3184050 20090508152514
208.164.48.172 21 118 9004889 20090526155700
208.105.178.234 18 137 2974363 20090528211358
65.104.0.180 1 6 98299 20090527213648
220.225.147.89 1 10 767774 20090522063013
65.55.106.244 5 5 52563 20090514065159
195.220.10.24 1 1 6869 20090531011433
208.80.195.33 1 1 19618 20090519085627
83.233.30.77 3 3 30860 20090510100602
96.241.212.106 1 1 58638 20090519163911
64.12.116.136 0 1 5933 
123.118.128.212 1 9 645731 20090525073810
70.138.0.108 2 23 532316 20090527230448
63.80.255.3 2 33 484283 20090513192702
65.55.106.187 3 3 28168 20090524223554
212.81.140.32 3 48 623713 20090508103748
65.55.106.214 6 6 60166 20090523233124
75.144.198.41 8 51 1148018 20090522174552
24.235.208.32 1 13 486667 20090521194949
82.99.30.18 0 3 0 
69.248.183.41 1 1 58638 20090520150922
58.61.164.139 16 16 313584 20090531052246
66.134.41.122 4 36 1263384 20090519170341
219.142.53.25 1 1 8530 20090506193133
99.238.110.196 2 22 523608 20090506232806
98.227.14.54 1 1 7300 20090531011544
92.147.106.45 1 9 284163 20090504151038
85.133.32.70 1 1 32460 20090521093047
88.232.120.136 1 10 767774 20090508191546
65.55.106.192 6 6 50883 20090526025146
218.208.91.249 2 15 179147 20090504052213
217.128.155.159 1 17 431519 20090525084951
81.214.50.94 1 2 131072 20090506103613
206.53.85.181 2 34 431519 20090528134112
64.12.117.20 0 1 5839 
82.99.30.37 0 3 0 
74.66.246.251 1 1 19623 20090514231020
64.252.91.73 1 17 431519 20090501144221
82.99.30.43 0 1 0 
99.35.134.72 1 1 13362 20090503115325
65.55.106.171 3 3 27717 20090525235947
203.170.208.178 1 9 645731 20090513033541
208.80.195.43 2 2 39228 20090522005819
69.37.68.146 2 18 451118 20090518134809
216.156.80.102 3 23 1023870 20090519180729
64.128.177.3 4 4 1392 20090526080141
71.184.52.87 3 43 1100637 20090504122209
65.55.106.111 3 3 39507 20090528133008
65.55.106.180 2 2 26913 20090521085030
65.55.106.136 7 7 74428 20090531180437
64.252.91.28 1 17 431519 20090505123935
76.237.96.181 1 13 495923 20090515144845
65.55.209.84 4 4 10140 20090527122934
65.55.106.231 6 6 60153 20090531165107
198.246.222.7 1 13 420324 20090527125045
65.55.106.143 4 4 54147 20090527195856
70.88.250.57 2 19 437769 20090528151907
59.106.46.32 4 4 33244 20090517182333
65.55.106.140 4 4 31937 20090531163208
68.76.240.217 3 27 190747 20090507212546
208.125.72.187 1 17 431519 20090507165024
72.232.173.194 2 2 14188 20090522165704
74.36.217.219 2 25 837777 20090516103017
71.230.158.21 3 19 451118 20090504144608
24.64.223.205 2 7 108096 20090520153158
66.183.49.30 2 2 39198 20090505004720
96.227.72.60 3 36 501156 20090518185443
64.12.116.203 0 2 17797 
204.17.67.50 5 81 931569 20090506194515
65.55.209.95 2 2 20177 20090521190504
65.55.230.192 14 14 90951 20090519043332
208.115.138.254 3 3 43297 20090526231559
24.152.204.112 2 11 106658 20090521154509
208.80.195.34 7 7 137318 20090531162725
58.61.164.141 6 6 117594 20090514075122
125.165.173.52 3 33 945852 20090525224621
70.131.98.4 10 71 2139270 20090528190242
72.94.249.34 1 1 19599 20090504165423
82.99.30.6 0 4 0 
65.55.106.164 3 3 40182 20090526104818
70.131.133.69 1 1 58638 20090522202021
65.55.231.97 0 1 52397 
24.118.44.128 1 21 388318 20090529013855
90.4.190.221 1 11 38599 20090521113105
64.12.117.69 0 1 14871 
64.122.197.10 3 39 971630 20090514223914
208.99.209.32 1 1 19599 20090524010248
123.115.219.254 1 9 645731 20090512063139
91.93.55.107 1 10 767774 20090529124707
67.205.85.53 1 1 19614 20090523012555
65.55.106.124 1 1 19215 20090523004055
65.55.106.239 5 5 55001 20090523223054
64.12.116.130 0 1 86939 
65.55.106.114 6 6 44072 20090531012507
87.194.71.115 1 21 388318 20090529151735
99.0.87.145 9 64 2026973 20090518135745
65.55.209.92 3 3 19018 20090515222550
72.93.225.207 16 248 8460624 20090509132420
199.64.0.252 1 13 495923 20090520150715
65.55.106.215 3 3 32986 20090522040148
69.37.139.48 1 17 431519 20090510035243
68.80.134.4 1 6 98299 20090505013005
71.243.119.155 3 26 624243 20090508173725
69.0.24.77 1 17 431519 20090501191346
71.216.158.220 1 21 464970 20090501151903
8.20.84.12 1 1 8296 20090518093738
98.163.218.96 1 17 431519 20090529211915
65.55.106.141 2 2 27293 20090519030929
63.173.11.98 1 17 431519 20090520153901
65.55.209.87 5 5 45958 20090529173458
89.213.92.46 1 1 32460 20090505094200
69.119.15.61 1 17 431519 20090522125431
216.66.229.220 5 66 812654 20090519171348
85.240.231.182 3 31 1518631 20090504111605
208.80.195.51 5 5 98074 20090530120107
65.55.209.77 3 3 593806 20090524082839
208.80.195.61 1 1 19599 20090515231734
64.12.116.210 0 1 758 
70.90.89.9 1 1 58638 20090506181645
148.85.209.182 3 32 716002 20090501180812
69.183.194.254 4 28 575533 20090506194944
173.52.81.42 5 49 1015473 20090519003323
80.250.248.70 1 1 19599 20090512062608
200.76.184.158 3 48 780194 20090523191941
66.134.160.186 5 35 764326 20090520144556
65.218.164.106 6 57 1588180 20090514123927
65.55.106.110 2 2 14262 20090522122944
83.59.74.22 1 9 645731 20090529212906
59.184.61.238 1 9 645731 20090510111139
64.191.56.197 1 1 19595 20090515130955
124.115.179.66 1 10 767774 20090526052151
65.55.106.204 1 1 6138 20090514180328
65.55.106.230 2 2 27768 20090528131837
65.175.157.61 3 27 844811 20090526193044
63.166.105.113 1 1 58638 20090512203510
98.228.211.9 5 43 642488 20090527225024
209.120.199.30 2 2 64920 20090518114907
199.181.178.177 1 1 6893 20090531011445
208.80.195.35 1 1 19614 20090505120853
64.12.116.73 0 1 5337 
195.146.33.250 3 3 58086 20090502014331
65.55.106.132 7 7 63056 20090528014137
65.55.209.79 11 11 141500 20090529214844
59.95.218.253 1 9 645731 20090507094133
64.12.117.11 1 1 358 20090508185809
65.55.230.191 2 2 25161 20090521115656
65.55.107.180 7 7 53750 20090531025407
131.191.90.208 1 6 98299 20090514191650
24.67.196.23 1 6 98299 20090509031239
65.55.106.188 6 6 44367 20090525092620
208.99.199.22 1 1 9500 20090524055133
71.195.88.15 1 17 431519 20090526193821
24.103.170.76 5 66 1170448 20090522171817
12.25.42.82 3 36 844027 20090508194057
65.55.106.165 2 2 26937 20090528155507
206.130.125.28 2 2 0 20090526004124
65.55.106.237 1 1 7231 20090503064736
82.250.71.126 1 1 58638 20090526175503
136.182.2.26 2 33 484283 20090505133615
76.175.52.172 1 17 431519 20090510044134
65.55.106.123 7 7 117079 20090524221325
65.55.231.92 0 1 17232 
189.73.174.205 1 9 645731 20090508133125
65.55.106.113 4 4 39162 20090529010437
74.205.131.230 1 17 431519 20090513192851
81.31.98.234 7 171 1397718 20090514145013
146.119.253.15 1 1 9146 20090508024923
65.55.106.220 1 1 6869 20090517020500
67.155.106.18 1 13 190747 20090506141037
71.198.171.67 1 13 182114 20090512021623
139.130.192.34 1 1 19618 20090530050400
130.76.32.181 1 13 495923 20090504021157
98.229.189.79 5 34 811783 20090504121047
64.12.116.76 1 1 8410 20090514105714
65.55.209.93 7 7 2016568 20090531142614
92.83.141.89 1 10 767774 20090515080340
70.85.92.98 1 1 7300 20090531011538
65.55.209.78 14 14 87217 20090531091135
98.225.197.202 1 1 9716 20090501150536
65.55.106.240 6 6 44045 20090527120048
141.149.128.73 2 22 490328 20090506171610
99.168.82.46 11 138 2835778 20090514162629
64.211.4.61 5 39 559949 20090521190254
65.55.189.67 1 1 19215 20090523010242
65.55.106.137 5 5 36247 20090531092907
71.174.230.52 1 17 431519 20090521181303
76.195.22.150 6 49 1005738 20090527171451
66.228.161.111 2 2 39194 20090523150951
82.99.30.21 0 1 0 
65.55.106.213 3 3 20359 20090523054433
94.71.19.36 1 9 580195 20090528095210
81.144.182.250 1 13 420305 20090522235038
24.248.97.139 1 17 431519 20090527173127
69.95.208.24 7 61 1343644 20090519185602
65.55.209.86 1 1 13381 20090512134421
65.55.106.159 4 4 31889 20090528035838
77.44.21.112 1 10 767774 20090501104815
81.232.122.28 2 7 108096 20090519152641
64.252.0.168 1 13 302005 20090501163238
81.144.182.242 1 1 14552 20090506130749
91.205.124.2 10 15 217133 20090517093006
67.52.220.82 1 10 106293 20090515114943
65.55.189.93 1 1 19599 20090523004943
97.66.146.34 1 1 58638 20090527133030
65.55.106.145 6 6 58046 20090529010408
71.55.136.89 10 58 1227186 20090514180459
65.175.175.235 1 17 431451 20090516174640
4.88.160.105 1 17 431519 20090502135505
64.12.116.200 1 1 17420 20090514105633
205.178.191.39 6 6 39198 20090514151524
74.234.180.122 1 6 98299 20090505155615
151.198.114.194 1 9 645731 20090511014946
24.39.223.205 8 67 1651854 20090528141814
65.55.106.191 4 4 50034 20090526010448
85.75.171.228 1 9 645731 20090507100840
76.248.147.150 1 12 247328 20090511223409
207.67.51.190 10 187 1390309 20090501121912
195.11.1.98 1 9 645731 20090505140112
65.55.106.185 2 2 14737 20090524020324
82.99.30.31 0 2 0 
64.252.196.84 2 25 604644 20090519134503
65.55.108.154 0 2 150287 
208.99.199.23 1 1 19234 20090524053302
203.24.148.50 2 2 19947 20090523032904
65.55.106.236 2 2 19950 20090515120130
68.253.125.62 1 6 98299 20090521051229
65.55.106.107 2 2 17920 20090524041557
220.255.7.225 0 1 282942 
24.63.29.101 3 32 733546 20090522174822
204.62.53.125 1 17 431927 20090525184026
71.174.175.154 2 14 301870 20090520211359
216.21.39.252 5 40 984824 20090519032228
157.248.37.3 1 37 191680 20090510161353
66.83.226.210 1 17 431519 20090501134526
133.27.172.68 3 3 25518 20090525104845
205.167.7.141 2 2 38814 20090505194459
64.114.199.1 1 1 19619 20090510200534
69.249.66.182 1 13 495923 20090513164644
41.232.218.194 2 11 772299 20090511091038
207.34.44.214 1 6 98299 20090508150534
161.51.11.2 1 13 495923 20090525124740
216.87.109.201 10 69 1576999 20090507174555
207.46.126.27 1 1 7698 20090527233502
66.198.41.21 2 10 1432379 20090526102746
70.166.44.114 1 1 58638 20090530195320
76.24.110.122 1 17 431519 20090506170703
208.80.195.39 5 5 98078 20090527085623
205.188.117.5 2 2 59022 20090508163148
213.35.129.186 3 12 767774 20090519123903
59.96.159.44 1 9 516281 20090529101040
208.113.35.218 9 109 2801497 20090525140156
66.190.45.131 3 23 556068 20090501184354
130.76.32.182 1 13 495923 20090503041258
65.55.106.134 3 3 43743 20090520011459
64.80.229.30 7 64 1263649 20090519152041
83.80.197.31 12 12 133835 20090525151606
216.3.138.34 5 49 1104958 20090529152814
65.55.109.173 1 1 8984 20090521161734
98.191.56.136 5 45 963465 20090511150607
193.138.10.41 1 1 19623 20090519205354
68.9.59.142 15 100 2023421 20090522031004
74.52.245.146 1 1 19618 20090524144757
189.177.155.220 1 13 495923 20090523202325
91.84.209.99 1 9 645731 20090527092220
65.55.106.241 3 3 38392 20090527115547
64.246.144.17 1 1 58638 20090526184445
77.49.58.212 1 9 645731 20090528223504
92.232.85.76 2 34 592466 20090514075737
12.171.58.190 7 52 1038371 20090513201912
199.34.5.20 1 17 431519 20090516174936
79.179.126.73 2 2 39198 20090511131548
208.80.195.36 1 1 19614 20090504085737
209.252.69.235 1 1 58638 20090511205535
24.39.187.202 1 17 431451 20090520205241
96.56.90.58 7 68 1897546 20090519204628
64.4.54.22 1 1 19599 20090530220901
216.41.111.82 9 85 1809265 20090518131715
64.12.116.135 1 1 9797 20090514105724
65.55.189.68 1 1 19599 20090527000142
65.55.106.108 7 7 85296 20090525212847
89.107.144.139 0 2 303447 
65.55.106.173 5 5 57748 20090525190247
82.99.30.54 0 2 0 
64.12.117.7 0 1 5516 
85.195.139.202 1 11 863137 20090502193809
91.194.90.208 2 2 31992 20090518013539
65.55.106.186 6 6 64643 20090531085737
169.139.185.1 1 21 464970 20090506165524
65.55.106.227 1 1 11946 20090506175815
193.47.80.77 2 30 928162 20090520234229
220.255.7.231 0 1 5337 
208.111.154.16 9 9 76623 20090506134240
70.109.133.169 2 19 442898 20090530213325
68.160.185.188 1 17 431519 20090528131834
137.170.133.5 0 1 8523 
74.43.146.251 5 56 1260362 20090507135642
65.55.4.113 4 4 24552 20090505221538
65.55.106.112 3 3 20758 20090523045255
72.14.195.33 1 1 19599 20090518180941
208.80.195.40 1 1 19618 20090515051042
125.27.68.152 1 9 645731 20090511121818
64.12.116.10 0 1 5833 
118.100.199.215 1 6 98299 20090521123705
65.55.109.148 1 1 11432 20090526051244
58.164.2.20 1 6 98299 20090530073250
208.80.195.42 7 7 137322 20090527151614
65.55.106.142 8 8 69329 20090529094208
65.55.189.92 2 2 38430 20090526234802
59.112.217.25 2 25 837777 20090526062934
82.99.30.12 0 6 0 
62.146.68.11 1 1 19599 20090504122218
158.96.4.6 1 13 130226 20090511155124
80.254.146.52 2 2 32484 20090512145239
65.55.106.183 6 6 67282 20090531001006
65.55.106.190 6 6 43292 20090526115347
71.234.4.223 3 32 733546 20090511194758
71.167.250.228 4 28 690462 20090513193252
129.170.192.150 0 1 69454 
12.70.206.130 1 13 495923 20090522182442
65.55.106.206 3 3 28665 20090523112924
204.26.122.219 1 6 98299 20090507164259
65.55.232.16 15 15 145582 20090530010303
155.201.35.68 4 38 753674 20090515143446
65.55.106.238 4 4 27631 20090527031616
212.117.188.207 6 6 65681 20090511025903
208.99.199.24 1 1 9610 20090524055151
65.55.106.166 3 3 34323 20090531060812
65.55.106.189 6 6 73602 20090528030108
151.138.28.142 1 17 431519 20090513114518
220.255.7.207 0 1 52870 
65.55.107.230 1 1 4549 20090522023620
67.163.94.61 3 45 727756 20090506220745
65.55.107.179 8 8 87905 20090528190738
24.187.197.66 13 116 8477473 20090521145347
70.88.242.5 4 27 857376 20090512181846
205.178.184.152 2 2 10787 20090507185831
212.43.14.1 1 21 388318 20090520145004
208.99.199.26 2 2 21098 20090524053034
65.55.106.218 3 3 37856 20090520150128
208.99.199.25 5 5 61888 20090524060643
192.151.110.119 3 47 980784 20090527131341
65.55.189.112 1 1 19599 20090525224835
58.27.134.122 1 6 98299 20090530071325
119.96.215.83 4 30 541556 20090512063507
219.142.53.20 1 1 4477 20090520203559
65.55.106.135 5 5 66628 20090531204507
83.133.125.202 3 3 39236 20090521193233
65.55.106.157 2 2 15380 20090521184701
124.115.1.8 16 16 313584 20090528062644
64.12.116.78 0 1 84527 
67.86.137.39 8 76 1932940 20090521030114
60.53.208.232 1 1 58638 20090520052629
24.39.200.82 2 18 490157 20090512191801
65.55.106.109 3 3 34611 20090519194029
65.55.106.209 1 1 11922 20090514205129
96.57.136.219 1 21 464970 20090506151218
65.55.106.196 6 6 46298 20090522022714
160.109.63.30 6 82 1888970 20090514162231
189.18.28.24 1 9 645731 20090506145138
89.122.48.145 1 10 768014 20090519131759
211.143.6.177 2 2 39198 20090531191447
24.97.162.50 1 17 431519 20090522192055
65.55.106.147 6 6 53488 20090528163509
65.55.106.118 5 5 47489 20090526102917
65.55.209.80 4 4 38383 20090521161701
116.72.182.121 2 19 373017 20090521034215
68.9.120.246 5 40 846750 20090517184550
83.226.9.48 1 18 597114 20090527114739
208.80.195.38 1 1 19614 20090502024939
64.12.116.18 0 1 20214 
74.47.91.148 1 6 98299 20090508154330
116.125.140.4 1 1 19614 20090527112808
65.55.209.83 8 8 37933 20090529185709
69.58.178.32 10 10 123301 20090505085651
78.93.175.154 2 7 108096 20090513163116
122.173.79.229 1 14 394999 20090511104900
78.174.150.58 1 8 132293 20090506232941
86.96.226.14 0 2 5638 
65.55.106.242 5 5 38231 20090528163307
65.170.130.10 4 51 1430243 20090527165529
71.4.180.50 3 50 812121 20090506171148
65.55.106.131 3 3 16697 20090529124638
61.247.243.130 1 1 19599 20090529055052
76.193.241.6 8 38 776341 20090526171613
64.12.116.7 0 1 52846 
208.80.195.37 2 2 39228 20090513222503
65.55.106.184 2 2 14905 20090522124414
216.230.101.210 7 63 900187 20090501160658
74.125.75.3 1 1 19599 20090501183724
65.55.106.234 5 5 49717 20090524121126
63.138.167.171 13 127 2399826 20090501122355
65.55.110.61 1 1 8085 20090513192744
68.236.140.28 1 1 58638 20090520120048
64.252.69.255 2 25 523968 20090519150157
65.55.109.68 1 1 9170 20090515001000
74.94.147.249 0 1 0 
207.237.38.232 5 46 1337836 20090521203911
64.65.204.195 3 25 5396141 20090519152419
208.159.52.61 1 1 19618 20090513185444
219.133.166.237 1 17 198386 20090512061858
116.212.106.243 1 21 465474 20090506141841
69.152.218.14 1 13 302005 20090514143107
67.152.185.194 1 16 419370 20090527215142
75.53.8.22 1 17 431519 20090515155705
64.209.138.199 1 1 19618 20090524225012
208.80.195.30 2 2 39228 20090514225747
69.129.91.18 2 22 248285 20090526211152
96.237.14.136 0 12 290596 
212.235.92.172 1 1 15996 20090507153056
65.55.106.167 4 4 42768 20090526102347
205.178.184.154 2 2 7591 20090507185837
200.36.161.206 1 1 6869 20090531011500
94.23.121.36 8 8 78020 20090525043702
65.55.106.170 3 3 33861 20090524064554
65.55.106.160 2 2 32601 20090518183814
89.249.92.185 3 31 1518631 20090515054824
195.229.241.171 3 25 542115 20090517182324
77.88.66.251 3 3 30803 20090517182205
88.195.98.126 1 9 645731 20090531072204
69.149.71.37 2 26 592466 20090519040520
63.117.123.194 4 42 5827660 20090518175016
96.11.112.46 3 38 1010972 20090511154748
121.254.193.165 1 1 19614 20090518161655
68.109.230.247 4 24 557759 20090506181520
96.224.13.131 1 21 388318 20090522150704
209.54.123.12 10 70 1197244 20090527171717
70.4.11.68 1 13 495923 20090527025613
85.92.222.254 1 1 19215 20090503234942
199.125.14.2 2 2 39198 20090529143633
208.99.199.27 8 8 83088 20090524053427
68.173.241.232 2 26 592466 20090531052750
205.178.184.153 8 8 84960 20090507185842
65.175.132.6 2 18 451118 20090519122430
162.84.233.36 1 21 464970 20090508131941
70.138.19.220 12 129 2168981 20090514012405
65.55.106.208 4 4 33583 20090528052808
65.55.109.190 1 1 5378 20090523013047
64.12.116.74 0 1 2233 
65.55.106.120 5 5 48766 20090531225038
204.213.240.187 3 28 616576 20090521181748
65.55.106.212 2 2 20569 20090525145521
219.142.53.17 1 1 9165 20090509221149
65.55.106.243 5 5 37276 20090525233247
71.234.77.56 1 17 431519 20090509210614
66.226.41.3 1 12 426467 20090522111607
173.45.82.146 3 3 47988 20090507135328
68.110.222.22 2 18 451118 20090521220157
64.43.232.10 2 25 837777 20090512185215
98.175.216.180 5 39 651131 20090521192542
114.80.93.71 13 13 254787 20090531072852
65.55.209.81 2 2 40794 20090520202712
70.54.190.189 5 49 1094825 20090525182934
125.27.233.45 2 23 1046837 20090518045243
64.88.166.10 1 13 190747 20090508142836
65.55.106.235 2 2 25779 20090531002607
72.18.150.6 0 1 387 
193.195.46.26 0 2 11331 
124.115.1.7 7 7 137193 20090517065801
66.11.209.158 14 94 2200689 20090527184848
69.95.41.97 4 42 894833 20090508152550
65.55.106.158 7 7 64588 20090522212313
208.80.195.55 1 1 19618 20090530181834
65.55.106.139 5 5 37672 20090531101408
66.64.131.226 1 10 106293 20090527115535
24.60.32.66 1 17 431519 20090521153313
65.55.209.82 6 6 4435088 20090527005050
203.126.8.101 3 38 1010972 20090507034212
65.55.110.190 1 1 10370 20090521190632
64.12.116.207 0 1 6033 
220.255.7.159 1 2 13048 20090511041040
203.211.135.29 7 7 92650 20090530070242
65.55.106.146 3 3 21043 20090528210438
59.96.21.252 1 9 645731 20090520081842
24.183.186.76 17 134 11649045 20090522180514
65.55.106.168 8 8 658604 20090529090637
65.55.106.181 4 4 44776 20090517231221
65.55.106.144 4 4 45076 20090522112445
81.149.230.130 2 19 492697 20090505074047
207.46.126.16 1 1 19215 20090527002332
114.59.106.45 1 9 645731 20090522070056
195.170.6.1 1 11 118433 20090504065933
64.179.9.23 5 50 1063137 20090506191450
69.118.54.73 2 33 484283 20090528130635
65.55.106.117 5 5 40711 20090528155437
69.147.167.218 2 25 837777 20090527125657
12.150.131.2 1 15 495923 20090519130347
85.21.32.52 1 17 431927 20090527123209
208.80.195.44 3 3 58850 20090531110420
65.55.231.100 0 1 49709 
204.209.216.245 2 8 69692 20090521212907
65.55.106.121 5 5 38506 20090524141625
65.55.189.110 1 1 19599 20090530212811
85.211.65.195 4 4 29171 20090502233844
68.99.154.187 6 60 1695271 20090512152629
65.55.106.161 2 2 31137 20090526143117
64.74.215.250 1 1 0 20090508082500
222.44.122.152 1 1 58638 20090506204639
65.54.233.20 1 1 19599 20090528002322
123.237.252.254 1 9 645731 20090501093806
65.55.106.179 2 2 13433 20090516110829
65.55.231.112 2 3 55132 20090524224133
41.202.5.48 1 9 278661 20090528082401
70.57.113.7 2 37 807677 20090520000953
220.255.7.221 0 1 113736 
76.124.166.64 1 17 431519 20090519231900
220.255.7.219 0 1 28158 
65.55.106.162 5 5 41105 20090525152517
83.31.32.139 1 9 645731 20090522105916
213.31.11.24 1 9 645731 20090514080314
208.99.199.28 1 1 19618 20090524052512
65.55.106.115 2 2 26446 20090526064717
79.185.74.253 1 9 645731 20090506110458
75.101.2.190 3 40 1133688 20090530171614
71.235.94.138 6 60 1577742 20090513003146
162.6.97.3 8 66 876140 20090512140653
96.232.219.130 2 26 592466 20090529143623
65.55.231.72 0 1 24394 
65.55.106.233 4 4 29755 20090522205414
218.104.55.72 1 9 645731 20090526061636
69.64.106.20 9 82 1274048 20090518164921
12.15.141.3 1 17 431519 20090514122021
77.85.186.213 1 9 645731 20090513103333
65.55.106.138 5 5 34473 20090509114115
87.113.75.242 1 1 19234 20090503011503
220.225.57.24 1 10 768014 20090519042432
67.102.2.171 1 1 58638 20090527210055
38.108.180.36 1 1 10415 20090502020248
65.55.110.114 1 2 15154 20090504032409
65.55.106.216 4 4 42802 20090522182214
65.55.106.182 1 1 19215 20090519151429
82.99.30.8 0 3 0 
65.55.107.182 4 4 49080 20090529140208
65.55.106.122 1 1 7207 20090517004429
24.174.234.26 1 13 190747 20090509023706
69.113.73.29 1 13 495923 20090527222720
65.55.231.58 0 1 32581 
207.46.92.16 0 1 80802 
208.80.195.31 1 1 19614 20090518014154
74.218.10.250 3 16 522556 20090519182445
82.99.30.50 0 1 0 
68.149.166.245 1 6 98299 20090511151307
217.75.15.182 1 13 495923 20090518152350
65.55.106.210 9 9 84225 20090531203237
99.165.196.241 1 17 431451 20090531010019
65.55.106.229 7 7 58764 20090526102947
65.55.106.133 4 4 28283 20090524152754
216.74.139.212 9 9 3132 20090531033012
64.12.117.10 1 1 9146 20090514105824
98.140.135.130 1 1 32460 20090521192956
69.152.170.24 2 25 837777 20090517232702
65.55.106.155 2 2 14761 20090516160900
68.161.224.209 1 1 0 20090520182743
65.55.106.169 4 4 27200 20090525135216
65.55.106.194 3 3 31917 20090526235546
87.115.7.157 1 1 9812 20090507025657
219.142.53.30 1 1 515473 20090523214700
190.144.117.170 1 1 7300 20090531011523
220.255.7.203 0 1 20238 
65.55.106.207 3 3 25218 20090531225207
65.51.41.162 2 14 495923 20090512200038
67.93.35.2 1 9 109280 20090512181014
125.93.204.54 2 25 536762 20090515022041
114.76.45.93 1 6 98299 20090510105254
91.208.16.31 1 1 19618 20090508114544
64.61.55.26 2 28 545945 20090528133400
206.229.18.66 13 116 2172572 20090529145120
65.55.106.205 7 7 588524 20090531090137
65.55.107.181 4 4 32372 20090528081038
164.77.49.57 0 8 641206 
65.55.106.219 5 5 46363 20090531000707
24.45.143.251 3 38 1028424 20090529154218
173.77.117.12 9 152 1718896 20090514120759
62.128.158.161 1 1 147672 20090515020145
72.70.47.10 4 27 890874 20090516225414
69.115.241.123 1 1 19599 20090505080007
75.144.0.253 6 75 1365575 20090505144100
67.38.132.86 4 24 479416 20090519182530
64.12.116.131 0 1 8523 
65.55.109.35 1 2 9521 20090529214937
217.136.101.171 1 21 464937 20090513165003
71.80.137.194 5 44 904672 20090506201807
64.244.62.153 5 5 53245 20090503214654
65.55.189.88 1 1 7698 20090523010117
65.55.231.71 1 2 70624 20090505022653
209.204.74.110 5 94 2685846 20090514175043
65.55.106.193 3 3 22297 20090526182417
66.98.226.35 1 1 9793 20090515102130
69.67.168.163 1 17 431519 20090519173023
65.55.106.148 3 3 24081 20090515012058
65.55.106.163 5 5 43680 20090531125907
136.145.14.145 2 20 355775 20090520021029
65.55.106.203 3 3 24566 20090525042749
65.55.106.116 4 4 54225 20090530092837
151.138.13.244 2 2 39198 20090515004015
65.55.106.232 2 2 30662 20090526052016
71.183.213.157 10 88 2008354 20090526174745
208.80.195.45 2 2 39228 20090517004848
123.239.108.98 1 9 645731 20090518045512
124.120.81.73 2 20 767774 20090527063307
80.31.32.21 1 10 588502 20090525152244
203.82.91.104 1 17 431519 20090517035207
213.31.11.80 1 10 767774 20090519115627
65.55.106.217 2 2 16370 20090526174516
134.67.6.14 1 6 98299 20090526231559
206.183.1.74 9 9 118533 20090503152915
65.55.106.172 2 2 13795 20090513030136
71.192.159.180 4 42 633240 20090504132730
82.113.106.158 1 6 98299 20090527183839
65.55.106.228 8 8 79488 20090526002546
198.36.167.120 1 17 431519 20090528134012
96.57.228.210 1 17 431519 20090515184146
65.55.231.35 1 2 34461 20090524154208
65.55.106.119 4 4 23979 20090525135846
96.56.43.42 1 13 495923 20090526122809
80.35.61.21 1 21 464970 20090505115738
64.149.254.42 1 1 58638 20090514150620
211.75.91.19 3 3 30803 20090525043701
65.55.209.96 2 2 34208 20090519221455
208.92.228.62 1 1 58638 20090529190159
216.204.48.50 1 17 431519 20090507185138
58.61.164.140 3 3 58797 20090516071647
208.80.195.32 6 6 117704 20090529173611
62.49.210.41 1 13 302005 20090521145949
220.255.7.135 0 1 129474 
192.136.15.149 2 25 838377 20090514165642
65.55.106.156 6 6 54768 20090526004017
83.76.64.227 1 9 645731 20090527170708
174.100.208.25 2 25 837777 20090512032029
82.81.146.216 2 2 39198 20090517082557
206.128.28.134 1 17 431519 20090528155332
65.55.209.85 2 2 4544 20090531152157
65.55.209.94 4 4 51529 20090516204839
65.55.106.211 2 2 24148 20090517005157
65.55.109.60 1 1 19623 20090509124035
65.55.189.95 1 1 19215 20090530212102
195.171.131.151 2 26 517130 20090518133032
64.114.199.38 1 1 19595 20090511053134
202.5.177.46 1 6 98299 20090531233421
65.55.230.193 1 1 19618 20090522030638
75.149.32.210 1 1 13381 20090516045040
END_VISITOR

# Date - Pages - Hits - Bandwidth - Visits
BEGIN_DAY 31
20090501 72 671 11655176 29
20090502 23 49 1558878 18
20090503 36 51 1632100 22
20090504 51 306 13066322 29
20090505 61 275 6782343 41
20090506 88 534 10807106 59
20090507 66 324 7738652 36
20090508 174 923 17611665 30
20090509 41 312 9440734 25
20090510 37 91 2103850 32
20090511 50 246 7116528 35
20090512 123 834 22238848 45
20090513 129 1203 18002769 42
20090514 155 1156 27125389 55
20090515 57 301 7807791 42
20090516 34 113 2972528 29
20090517 62 165 3361739 41
20090518 78 413 15153622 47
20090519 105 758 24354362 52
20090520 89 581 10257089 44
20090521 91 620 11437549 44
20090522 149 734 16245301 49
20090523 36 93 2160272 33
20090524 52 64 1555291 39
20090525 79 271 7304986 45
20090526 93 450 22785737 46
20090527 78 536 13075903 49
20090528 200 644 20830017 42
20090529 48 340 7837496 31
20090530 41 105 2252837 16
20090531 42 96 3079794 39
END_DAY

# Worm ID - Hits - Last visit
# The 10 first Hits must be first (order not required for others)
BEGIN_WORMS 0
END_WORMS

# Session range - Number of visits
BEGIN_SESSION 7
1h+ 10
5mn-15mn 23
30s-2mn 66
2mn-5mn 36
15mn-30mn 19
0s-30s 1018
30mn-1h 14
END_SESSION

# URL - Pages - Bandwidth - Entry - Exit
# The 10 first Pages must be first (order not required for others)
BEGIN_SIDER 88
/ 398 7062417 348 254
/INFORMATION.htm 129 916519 84 89
/gas+boosters.htm 129 1518761 58 41
/PartsLineCard.htm 117 2172095 54 68
/OVENS.htm 98 747373 68 70
/HOME.htm 95 1548647 23 39
/DRYING.htm 89 876457 38 43
/engb/engb_packaged_systems.html 84 550050 13 17
/Etter+Products.htm 77 728419 14 21
/OERTLI+Asphalt+Burner.htm 71 303358 66 63
/webstats/awstats.pl 30 1155760 3 3
/TT+Burner+Tuning+030.htm 37 338522 29 25
/LINKS+OF+INTEREST.htm 15 146949 7 6
/engb/web_docs/engb_press_release_rev_21009_text_only.doc 2 31145 1 1
/History.htm 14 77120 2 2
/engb/contact_us_4_14_09_TEST.html 2 9551 0 0
/regulato.htm 42 246125 17 18
/34ft+Oven+PR.htm 8 35717 4 2
/feedback.htm 9 53285 1 4
/ETTER+Newsletter+1202+Boosters+Consultants.htm 7 34621 2 2
/news.htm 16 136974 2 4
/engb/web_docs/engb_sb_1208_rev1_2_webdocs.pdf 4 2224188 2 3
/Etter+catalogue+request+form.htm 17 123944 14 16
/engb/ 58 464993 15 11
/bakingservice.html 16 145001 0 0
/engb/web_docs/engb_press_release_rev_21009.pdf 2 89987 1 1
/information.htm 1 7226 1 0
/Siemens+PR1.htm 6 33239 1 3
/Directions.htm 19 153256 5 7
/Booster+Training.htm 9 36886 4 3
/ovens.htm 2 15396 2 2
/engb/gasPOD_sales_brochure_0509+REV+2_2.pdf 11 1245184 0 5
/GAS+BOOSTER+OPTIONS.htm 44 425173 6 20
/etter+products.htm 2 20811 1 2
/engb/contact_us.html 21 203112 4 5
/Web+Works+Demo.htm 8 48615 3 4
/E101+Packaged+Booster+Brochure+0100.pdf 21 584371 6 8
/engb/resources.html 18 172791 2 4
/EPB+Brochure+(On+Line+PDF).pdf 34 1759567 24 26
/Web+Worx.htm 22 250492 14 14
/Product+Request+Form.htm 14 89407 11 9
/home.htm 1 19623 0 0
/gasPOD_sales_brochure_0509+REV+2_2.pdf 20 4092696 0 5
/Manufacturer+Info+Request+Form.htm 55 361327 54 53
/Portable+IR+Brochure.doc 5 1756800 3 3
/bakingservice/ 26 341247 6 4
/engb/etter_web_tos.html 10 143781 3 3
/Web+Coater+PR.htm 5 41863 1 1
/TT+Burner+Intro+010.htm 12 100997 3 5
/engb/web_docs/2009_natl_grid_blue_book_web.pdf 2 5151456 2 2
/Announcing+New+Controls+Engineer.htm 6 43370 1 1
/JOBS.htm 16 165661 2 5
/engb/about_engb.html 22 187023 4 1
/ETTER_Web_Drying_0509_REV_+1_2.pdf 1 131072 0 1
/Tech+Tips!.htm 20 216916 4 4
/engb/engb_features.html 29 236000 6 9
/engb/literature_request.html 10 61892 1 4
/partslinecard.htm 7 134524 7 7
/Invensys+Metro+PR.htm 6 42200 1 3
/engb/engb_features_cust_outlet.html 8 65238 1 2
/_derived/nortbots.htm 4 11828 0 0
/search.htm 5 15258 1 1
/engb/web_docs/ENGB+Photo+Gallery.swf 21 45161565 1 6
/TT+Burner+Types+020.htm 14 127419 3 6
/engb/engb_features_cool_flow_technology.html 10 72102 1 1
/Invensys+Rotary+PR.htm 6 51104 3 2
/inforequestfrm.htm 3 12010 3 0
/Annoucning+Metro+Office.htm 7 49869 3 3
/engb/external_motor_wiring.html 9 62435 1 1
/heaters.htm 1 9818 1 1
/ETTER+Model+ETB-500.pdf 9 1262660 2 1
/Info+&+Help.htm 41 335421 36 36
/Announcing+New+Engineering+Assistant.htm 10 57750 2 1
/engb/contact_us_4_14_09_Test.html 27 28905 1 0
/Annoucning+AHR+Expo+Jan+2002.htm 4 28251 0 0
/engb/thank_you.html 18 53058 0 3
/engb/engb_features_sliding_tank_housing.html 8 56622 1 1
/Panels.htm 51 641646 18 26
/HEATERS.htm 42 402735 10 16
/engb/etter_privacy_policy.html 1 13605 0 0
/links+of+interest.htm 2 10177 2 1
/Siemens+PR2.htm 6 41546 3 2
/Cure+Worx.htm 28 251053 18 20
/meters.htm 28 150122 12 14
/engb/web_docs/engb_press_release_2809.pdf 7 116695 5 5
/panels.htm 1 13362 1 1
/IR+with+XIOM+Brochure.doc 5 1611913 2 3
/engb/web_docs/gas_booster_size_form.php 13 195197 7 7
END_SIDER
