AWSTATS DATA FILE 5.5 (build 1.500)
# If you remove this file, all statistics for date 2009-03 will be lost/reset.

# Position (offset in bytes) in this file of beginning of each section
# for direct I/O access. If you made changes somewhere in this file, you
# should also remove completely the MAP section (AWStats will rewrite it
# at next update).
BEGIN_MAP 25
POS_GENERAL 1817                
POS_TIME 2173                
POS_VISITOR 19319               
POS_DAY 46387               
POS_DOMAIN 2780                
POS_LOGIN 2952                
POS_ROBOT 3091                
POS_WORMS 47404               
POS_EMAILSENDER 3664                
POS_EMAILRECEIVER 3812                
POS_SESSION 47468               
POS_SIDER 47692               
POS_FILETYPES 3951                
POS_OS 4218                
POS_BROWSER 4358                
POS_SCREENSIZE 4599                
POS_UNKNOWNREFERER 4677                
POS_UNKNOWNREFERERBROWSER 7129                
POS_ORIGIN 8962                
POS_SEREFERRALS 9119                
POS_PAGEREFS 9421                
POS_SEARCHWORDS 11108               
POS_KEYWORDS 14948               
POS_ERRORS 16687               
POS_SIDER_404 16861               
END_MAP

# LastLine    = Date of last record processed - Last record line number in last log - Last record offset in last log - Last record signature value
# FirstTime   = Date of first visit for history file
# LastTime    = Date of last visit for history file
# LastUpdate  = Date of last update - Nb of parsed records - Nb of old records - Nb of new records - Nb of corrupted - Nb of dropped
# TotalVisits = Number of visits
# TotalUnique = Number of unique visitors
# MonthHostsKnown   = Number of hosts known
# MonthHostsUnKnown = Number of hosts unknown
BEGIN_GENERAL 8
LastLine 20090401003637 603 191270 51512017780
FirstTime 20090301002456
LastTime 20090331231440
LastUpdate 20090401193851 603 0 468 100 35
TotalVisits 856                 
TotalUnique 585                 
MonthHostsKnown 0                   
MonthHostsUnknown 701                 
END_GENERAL

# Hour - Pages - Hits - Bandwidth
BEGIN_TIME 24
0 44 136 3071432
1 35 338 8958828
2 59 391 8880704
3 41 297 7176039
4 55 235 6214404
5 34 111 3769662
6 21 99 3060356
7 31 187 4697442
8 56 154 13786377
9 23 79 2327499
10 72 186 8971927
11 41 263 10325975
12 173 1257 33634731
13 164 1295 25709458
14 164 1301 41379078
15 192 1219 28260452
16 106 914 18753856
17 139 1176 31395363
18 239 1217 46150034
19 132 870 21609972
20 127 1087 40819820
21 124 765 34589022
22 71 465 13406811
23 112 354 8154693
END_TIME

# Domain - Pages - Hits - Bandwidth
# The 10 first Pages must be first (order not required for others)
BEGIN_DOMAIN 1
ip 2255 14396 425103935
END_DOMAIN

# Login - Pages - Hits - Bandwidth - Last visit
# The 10 first Pages must be first (order not required for others)
BEGIN_LOGIN 0
END_LOGIN

# Robot ID - Hits - Bandwidth - Last visit
# The 10 first Hits must be first (order not required for others)
BEGIN_ROBOT 13
slurp 382 13801343 20090331221232
googlebot 298 10888447 20090331183032
crawl 33 368737 20090324225916
jeeves 31 408316 20090331092449
psbot 18 169515 20090308194038
speedy 18 188423 20090331132659
robot 10 172513 20090331211018
yandex 5 101734 20090331235017
ia_archiver 1 20349 20090305004427
spider 1 376 20090327102859
roadrunner 1 20359 20090316150446
spiderview 1 20362 20090326181724
netcraft 1 20359 20090311044657
END_ROBOT

# EMail - Hits - Bandwidth - Last visit
# The 20 first Hits must be first (order not required for others)
BEGIN_EMAILSENDER 0
END_EMAILSENDER

# EMail - Hits - Bandwidth - Last visit
# The 20 first hits must be first (order not required for others)
BEGIN_EMAILRECEIVER 0
END_EMAILRECEIVER

# Files type - Hits - Bandwidth - Bandwidth without compression - Bandwidth after compression
BEGIN_FILETYPES 10
css 96 64617 0 0
png 307 27471679 0 0
html 757 10187895 0 0
pdf 115 11080789 0 0
js 23 183170 0 0
jpg 5587 236194141 0 0
htm 1346 13261286 0 0
doc 11 2331211 0 0
gif 6128 37271203 0 0
swf 26 87057944 0 0
END_FILETYPES

# OS ID - Hits
BEGIN_OS 8
macintosh 505
winxp 10659
winnt 1033
win2000 1090
win98 22
linux 37
winme 6
Unknown 1044
END_OS

# Browser ID - Hits
BEGIN_BROWSER 15
msie8.0 158
msie6.0 3805
msie5.01 11
konqueror 17
netscape5.0 2679
msie7.0 6139
libwww 3
opera 159
netscape4.0 6
msie5.0 13
msie 2
up. 71
msie5.5 1
Unknown 961
safari 371
END_BROWSER

# Screen size - Hits
BEGIN_SCREENSIZE 0
END_SCREENSIZE

# Unknown referer OS - Last visit date
BEGIN_UNKNOWNREFERER 36
BlackBerry9530/4.7.0.75_Profile/MIDP-2.0_Configuration/CLDC-1.1_VendorID/105 20090307222039
NextGenSearchBot_4_(for_information_visit_http://www.zoominfo.com/About/misc/NextGenSearchBot.aspx) 20090306102143
Java/1.6.0_07 20090331120654
Microsoft_Office_Existence_Discovery 20090318124903
Mozilla/5.0_(compatible;_WebDataCentreBot/1.0;__http://WebDataCentre.com/) 20090304153832
NextGenSearchBot_5_(for_information_visit_http://www.zoominfo.com/About/misc/NextGenSearchBot.aspx) 20090306102200
libwww-perl/5.805 20090327011815
librabot/1.0_(_http://search.msn.com/msnbot.htm) 20090302185903
BPImageWalker/2.0_(www.bdbrandprotect.com) 20090308013453
Jakarta_Commons-HttpClient/3.0-rc2 20090331080145
Ocelli/1.4_(http://www.globalspec.com/Ocelli) 20090329080425
msnbot/1.1_(_http://search.msn.com/msnbot.htm) 20090331231335
Mozilla/4.0 20090330154656
oBot 20090305120644
BlackBerry8330/4.3.0_Profile/MIDP-2.0_Configuration/CLDC-1.1_VendorID/104 20090326112749
BlackBerry9000/4.6.0.167_Profile/MIDP-2.0_Configuration/CLDC-1.1_VendorID/102_UP.Link/6.3.1.20.0 20090311173339
Goldfire_Server 20090324021131
Java/1.6.0_04 20090311183530
msnbot/2.0b 20090313212841
Mozilla/5.0_(compatible;_ScoutJet;__http://www.scoutjet.com/) 20090304112701
Yanga_WorldSearch_Bot_v1.1/beta_(http://www.yanga.co.uk/) 20090322005853
Safari5528.16_CFNetwork/422.15.2_Darwin/9.6.0_(i386)_(Macmini1%2C1) 20090329102848
panscient.com 20090311222911
Java/1.6.0_11 20090305042253
SuperPagesBot/0.2 20090311162826
Mozilla/5.0_(compatible;_MSIE_or_Firefox_mutant;_not_on_Windows_server;__http://ws.daum.net/aboutWebSearch.html)_Daumoa/2.0 20090318181901
- 20090327005334
msnbot-media/1.1_(_http://search.msn.com/msnbot.htm) 20090328073711
NextGenSearchBot_1_(for_information_visit_http://www.zoominfo.com/About/misc/NextGenSearchBot.aspx) 20090306102251
Scrubby/3.0_(_http://www.scrubtheweb.com/help/technology.html) 20090323120703
Mozilla/5.0_(compatible;_OpenfosBot/2.4;__http://www.openfos.com) 20090312193149
Mozilla/5.0_(compatible;_Charlotte/1.0t;_http://www.searchme.com/support/) 20090323072303
renlifangbot/1.0_(_http://search.msn.com/msnbot.htm) 20090307034805
Mozilla/5.0_(compatible;_Charlotte/1.1;_http://www.searchme.com/support/) 20090331111649
HTML2JPG_Blackbox,_http://www.html2jpg.com 20090307093051
Mozilla/4.0_(compatible;) 20090324061405
END_UNKNOWNREFERER

# Unknown referer Browser - Last visit date
BEGIN_UNKNOWNREFERERBROWSER 28
Mozilla/5.0_(compatible;_ScoutJet;__http://www.scoutjet.com/) 20090304112701
msnbot/2.0b 20090313212841
BlackBerry9530/4.7.0.75_Profile/MIDP-2.0_Configuration/CLDC-1.1_VendorID/105 20090307222039
NextGenSearchBot_4_(for_information_visit_http://www.zoominfo.com/About/misc/NextGenSearchBot.aspx) 20090306102143
Yanga_WorldSearch_Bot_v1.1/beta_(http://www.yanga.co.uk/) 20090322005853
Java/1.6.0_07 20090331120654
Microsoft_Office_Existence_Discovery 20090318124903
panscient.com 20090311222911
Mozilla/5.0_(compatible;_WebDataCentreBot/1.0;__http://WebDataCentre.com/) 20090304153832
Java/1.6.0_11 20090305042253
msnbot-media/1.1_(_http://search.msn.com/msnbot.htm) 20090328073711
- 20090327005334
NextGenSearchBot_5_(for_information_visit_http://www.zoominfo.com/About/misc/NextGenSearchBot.aspx) 20090306102200
NextGenSearchBot_1_(for_information_visit_http://www.zoominfo.com/About/misc/NextGenSearchBot.aspx) 20090306102251
librabot/1.0_(_http://search.msn.com/msnbot.htm) 20090302185903
BPImageWalker/2.0_(www.bdbrandprotect.com) 20090308013453
Scrubby/3.0_(_http://www.scrubtheweb.com/help/technology.html) 20090323120703
Mozilla/5.0_(compatible;_OpenfosBot/2.4;__http://www.openfos.com) 20090312193149
Jakarta_Commons-HttpClient/3.0-rc2 20090331080145
Ocelli/1.4_(http://www.globalspec.com/Ocelli) 20090329080425
msnbot/1.1_(_http://search.msn.com/msnbot.htm) 20090331231335
oBot 20090305120644
renlifangbot/1.0_(_http://search.msn.com/msnbot.htm) 20090307034805
BlackBerry8330/4.3.0_Profile/MIDP-2.0_Configuration/CLDC-1.1_VendorID/104 20090326112749
Goldfire_Server 20090324021131
HTML2JPG_Blackbox,_http://www.html2jpg.com 20090307093051
Mozilla/4.0_(compatible;) 20090324061405
Java/1.6.0_04 20090311183530
END_UNKNOWNREFERERBROWSER

# Origin - Pages - Hits 
BEGIN_ORIGIN 6
From0 840 1312
From1 4 4
From2 382 397
From3 52 52
From4 977 12631
From5 0 0
END_ORIGIN

# Search engine referers ID - Pages - Hits
BEGIN_SEREFERRALS 9
images.google. 12 15
seznam.cz 1 1
msn. 30 30
alltheweb.com 2 2
yandex.ru 1 1
search.aol.co 5 5
search..*com 34 36
yahoo. 46 46
google. 251 261
END_SEREFERRALS

# External page referers - Pages - Hits
# The 10 first Pages must be first (order not required for others)
BEGIN_PAGEREFS 29
http://news.thomasnet.com/fullstory/825039 7 7
http://www.keywordspy.com/keyword-research/etterengineering.com 6 6
http://www.shinkona.com/distributors.html 5 5
http://na.sensus.com/Module/DistLoc/StateList/gas 3 3
http://www.bryandonkinusa.com/ny_nj_ne.html 3 3
http://www.hauckburner.com/MAPS2/salesAgent2.asp 2 2
http://www.durag.com/html/salesreps/New%20York%20State.html 2 2
http://www.superpages.com/bp/Cheshire-CT/Etter-Engineering-CO-L0001141834.htm 2 2
http://www.durag.com/html/salesreps/Maine.html 2 2
http://www.sourcetool.com/profile_page.php 1 1
http://shinkona.com/distributors.html 1 1
http://www.ajantunes.com/cgi-bin/cgiip.exe/WService=wbwswbeb/ajpartner.html 1 1
http://www.fallentimes.com 1 1
http://whois.domaintools.com/etterengineering.com 1 1
http://server1/synergy/FD/docs/CRMAccountCard.asp 1 1
http://www.user.zoominfo.com/PowerApps/CompanyQuery.aspx 1 1
http://imperialpunch.com 1 1
http://www.BigFinder.de 1 1
http://www.bigbrandwater.com/mq345.html 1 1
http://www.processregister.com/Etter_Engineering_Co_Inc/Supplier/sid38223.htm 1 1
http://www.sitedossier.com/site/etterengineering.com 1 1
http://www.textlesson.com 1 1
http://www.thomasglobal.cn/search/company.asp 1 1
http://mail.kvent.com:8383/Xb236cbc99a9c9e9e66a26e58/rmail.65480.cgi 1 1
http://www.industrynet.com/results.asp 1 1
http://www.durag.com/html/salesreps/Ohio%20North.html 1 1
http://www.line-text.com/supliers_es.html 1 1
http://10.10.0.64:15871/cgi-bin/blockOptions.cgi 1 1
http://www.cylex-usa.com 1 1
END_PAGEREFS

# Search keyphrases - Number of search
# The 10 first number of search must be first (order not required for others)
BEGIN_SEARCHWORDS 154
etter+engineering 75
etter 22
natural+gas+booster+pump 17
gas+booster+pump 17
natural+gas+booster+pumps 9
gas+booster+pumps 8
etter+engineering+cheshire+ct 8
burner+tuning 7
equimeter+incorporated 7
natural+gas+booster 5
etter+controls+cheshire 1
gas+pressure+boosters 2
gas+booster+tank 1
carl+dungs 1
ul+approved+control+panel+shops+in+ct. 1
equimeter 1
booster 3
blog+tuning+oil+burners 1
xiom+powder+coating 1
etter+packaged+booster 1
etter+engineer 1
fuel+gas+booster+systems+for+pipelines 1
carl%2fdungs 1
en-us 1
www.etterengineering.com 1
eclipse+booster 1
eng.etter 1
lng+booster+pump+picture 1
burner+tunning+ratio 1
oertlii+burner 2
tuning+natural+gas+burner+flame 1
engineers 1
gas+booster+system 5
etter+engineering+co 2
eclipse+gas+booster+mr3314 1
etter+enginering 1
diy+oil+furnace+tuning 1
609-730-3816 1
etter+formats 1
natural+gas+booster+60+cfh 1
betaa 1
gas+booster+pumps+model+gb78 1
natural+gas+booster+pump+operation+pdf 1
tune+oil+burners 1
newsletter 1
natural+gas+pressure+boosters 2
tuning+firebird+oil+burners 1
drilled+pipe+burners 1
mechanical+engineers+connecticut 1
www.etterengineerign.com 1
eclipse+booster+pump 2
oil+furnace+tuning 1
gas+burner+tuning 2
used+natural+gas+boosters 1
natural+gas+multistage+booster+pump 2
oil+burner+tuning+tips 1
burner+nozzles+for+natural+gas 1
mechanical+engineering+connecticut 1
etter.com 1
gas+booster+technology 1
gas+boosters 2
3+t+s+of+combustion 1
oertli+burners 5
anels 1
burners+oertli 1
tuning+an+oil+boiler 1
combustion 1
be+booster+gas+pump 1
mechanical+engineers+ct 1
xiom 1
hermetic+ul+listed+natural+gas+booster 1
sizing+a+gas+booster+pump 1
gas+buster+pump 1
eclipse+gas+booster+pump+set 1
boiler+burner+tuning 1
company 1
natural+gas+pump+booster 1
control 1
southington+ct+engineer 1
natural+gas+service+booster+pump 1
tuning+gas+burners 1
tuning+an+oil+burner 1
mechanical+engineer+ct 1
gas+booster+panels 1
ovens 1
mechanical+engineering+in+hamden+connecticut 1
burner+types 1
what+is+a+zero+governor+burner 1
custom+touch+screen+control+panel 1
eclispse+booster+pump 3
outlet 1
gas+pressure+booster+pump 1
eclipse+boosters 1
gas+booster+pump+specifications 1
natural+gas+pressure+booster+pump 2
tuning+4725+burner 1
ir+ovens 1
packaged+combustion+systems 1
ir+drying+system 1
etter+engineering+company+inc. 2
homepage+etter 1
burner+oertli 2
etter+and+co. 1
how+to+build+a+gas+lp+meter 1
need+small+gas+booster+pump 1
naturalgas+booster+pumps 1
dive+gas+booster+pump 1
packaged+gas+booster 1
agencies 1
how+does+a+gas+booster+pump+work 1
natural+gas+pressure+booster+pumps 1
gas+booster+pump+epbr 1
rackaged+gas+booster+systems 1
etter+e101p+gas+booster 1
oertli+burner 5
bon+burner+tuning 1
inline+natural+gas+booster+pump 1
gas+booster+inlet+flow+requirement 1
oil+burner+tunning 1
gas+booster 2
etter+engrg+co. 1
etter+engineering+co+inc 1
natural+gas+boosters 2
etter+gas+boster+system 1
combination+tuning+oil+furnace 1
sources+of+heat 2
tuning+oil+burner 2
ul+508+panel+shops 1
booster+pumpe+gas 1
bosster+pump+gas 1
rotron+gas+booster+pumps 1
gas+booster+pump+price 1
oil+burner+tuning 3
journals+on+tunings+of+gas+burners 1
low+pressure+gas+booster 1
gas+booster+sysrem 1
engineer+ct 1
etter+eng 3
etterengineering.com 1
tuning+a+oil+burner 1
mechanical+engineers+in+connecticut 1
engineering+ct 1
ct+engineer 1
etter%40 1
etter+gas+booster 3
tuning+burners 1
hermetic+gas+booster 2
tuning+the+oil+burner 1
engineering+in+ct 1
etter+engerneering 1
engr+etters 1
eclipse+hb+series+gas+booster 1
results 1
packaged+gas+boosters 1
END_SEARCHWORDS

# Search keywords - Number of search
# The 10 first number of search must be first (order not required for others)
BEGIN_KEYWORDS 165
etter 127
gas 124
booster 116
engineering 92
pump 60
natural 49
burner 36
tuning 30
pumps 21
oil 17
pressure 9
mr3314 1
hamden 1
burners 13
equimeter 8
pipelines 1
hb 1
boosters 11
flow 1
engr 1
southington 1
controls 1
co 3
lng 1
what 1
en-us 1
carl%2fdungs 1
www.etterengineering.com 1
dungs 1
boster 1
eng.etter 1
panels 1
listed 1
technology 1
used 1
touch 1
and 1
engineers 4
small 1
system 7
of 4
custom 1
panel 3
is 1
nozzles 1
ct 15
609-730-3816 1
zero 1
tune 1
operation 1
betaa 1
ul 3
co. 2
build 1
tips 1
60 1
specifications 1
newsletter 1
fuel 1
a 5
www.etterengineerign.com 1
model 1
etters 1
requirement 1
tank 1
systems 3
in 4
shops 2
engerneering 1
governor 1
etter.com 1
inline 1
pdf 1
anels 1
s 1
drying 1
ir 2
boiler 2
combustion 3
epbr 1
xiom 2
tunings 1
packaged 4
journals 1
ct. 1
pumpe 1
low 1
company 3
hermetic 3
control 3
engrg 1
rotron 1
heat 2
approved 1
oertlii 2
inlet 1
ovens 2
on 1
formats 1
outlet 1
mechanical 6
furnace 3
diy 1
sources 2
e101p 1
engineer 5
eclispse 3
multistage 2
bosster 1
flame 1
inc 1
enginering 1
series 1
sizing 1
to 1
incorporated 7
agencies 1
508 1
naturalgas 1
set 1
ratio 1
bon 1
rackaged 1
work 1
tunning 2
eclipse 7
powder 1
inc. 2
screen 1
meter 1
an 2
the 1
combination 1
pipe 1
need 1
oertli 13
lp 1
does 1
sysrem 1
t 1
for 2
how 2
dive 1
carl 1
drilled 1
service 1
eng 3
homepage 1
be 1
price 1
buster 1
types 1
gb78 1
etterengineering.com 1
coating 1
etter%40 1
cheshire 9
picture 1
3 1
blog 1
connecticut 4
4725 1
firebird 1
cfh 1
results 1
END_KEYWORDS

# Errors - Hits - Bandwidth
BEGIN_ERRORS 7
403 12 18854
302 4 1843
206 110 28938134
500 2 0
406 4 7728
301 81 34503
404 446 736735
END_ERRORS

# URL with 404 errors - Hits - Last URL referer
BEGIN_SIDER_404 60
/etter_engb/resources.html 1 -
/text/javascript 1 -
/wordpress/ 1 ETTERENGINEERING.com/wordpress/
/etter_engb/floppity.html 1 -
/etter_engb/engb_features_cool_flow_technology.html 2 -
/engb/web_docs/ENGB 1 -
/engb/floppity 1 -
/engb/floppity.html 1 -
/engb/13pt/15pt 1 -
/engb/text/css 1 -
/etter_engb/ 2 -
/etter_engb/external_motor_wiring.html 1 -
/rss.xml 1 ETTERENGINEERING.com/rss.xml
/_derived/Web 1 -
/engb/NS/Opera 1 -
/downloads/salesbrochure 1 -
/blog/ 1 ETTERENGINEERING.com/blog/
/engb/4.01/EN 1 -
/etter_engb/html/floppity.html 1 -
/images/Image2.gif 26 -
/engb.html 1 http://www.etterengineering.com/gas%20boosters.htm
/images/JGM/Solutions...finalcopy.jpg 1 http://www.etterengineering.com/
/PartsLineCard_files/filelist.xml 12 -
/xmlrpc.php 1 -
/etter_engb/contact_us.html 3 -
/engb/html/floppity.html 1 -
/engb/8pt/12pt 1 -
/engb/application/x-shockwave-flash 1 -
/engb/MSN/WebTV 1 -
/Booster+Training.htm 1 -
/GAS+BOOSTER+OPTIONS.htm 1 -
/_vti_bin/owssvr.dll 6 -
/etter_engb/literature_request.html 3 -
/EtterProducts.htm 2 -
/file:/C:/My+Documents/My+Webs/ETRX/Info+&amp 1 -
/noexist_179e217134eca878.html 2 -
/engb/floppity.htm 1 -
/etter_engb/engb_features_cust_outlet.html 3 -
/_derived/EtterProducts.htm_cmp_indust110_vbtn.gif 1 http://www.etterengineering.com/
/images/Image1.gif 24 -
/engb/text/html 1 -
/_derived/Booster 1 -
/engb/SpryAssets/SpryEffects.js 249 http://www.etterengineering.com/engb/literature_request.html
/etter_engb/index.html 2 -
/_derived/Cure 1 -
/etter_engb/web_docs/engb_sb_1208_rev1_2_webdocs.pdf 3 -
/engb/-/W3C/DTD 1 -
/etter_engb 30 http://www.etterengineering.com/gas%20boosters.htm
/etter_engb/engb_features.html 1 -
/Etter+Products.htm 2 -
/images/Image3.gif 27 -
/Info+&amp 4 -
/_derived/gas 1 -
/engb/web_docs/ENGB+Press+Release+Rev+2-6-09.pdf 2 -
/_derived/Etter 1 -
/engb/text/javascript 1 -
/etter_engb/engb_packaged_systems.html 2 -
/etter_engb/engb_features_sliding_tank_housing.html 1 -
/downloads/pressrelease 1 -
/engb/web_docs/2009_natl_grid_blue_book_web.pdf 1 http://www.etterengineering.com/engb/about_engb.html
END_SIDER_404

# Host - Pages - Hits - Bandwidth - Last visit date - [Start of last visit date] - [Last page of last visit]
# [Start of last visit date] and [Last page of last visit] are saved only if session is not finished
# The 10 first Hits must be first (order not required for others)
BEGIN_VISITOR 701
70.166.148.247 191 1447 77459334 20090331191103
204.246.138.4 55 55 443440 20090306232025
89.137.246.24 52 62 1708292 20090331120633
206.83.86.2 50 53 5838291 20090306102248
38.105.83.13 48 49 395993 20090324183529
89.122.29.82 46 46 386512 20090311183530
66.150.224.245 43 43 407578 20090304153832
167.153.5.196 31 258 4401731 20090327150256
208.164.48.172 31 370 14511331 20090318125439
64.128.171.4 28 28 10578020 20090329080425
65.55.110.36 1 1 8528 20090308045159
116.71.165.94 1 20 522292 20090304192442
205.188.116.73 0 1 5337 
59.160.165.3 1 15 412839 20090305061030
98.118.131.3 1 10 106118 20090324180107
129.78.64.100 1 20 522772 20090325063026
205.188.116.141 0 1 4733 
173.48.123.248 1 1 6697 20090321182804
60.49.4.166 1 20 522292 20090323070442
205.188.116.204 0 1 5634 
80.218.191.113 2 33 484616 20090318172610
69.250.9.109 3 30 847764 20090312182133
202.120.38.188 0 2 61616 
83.233.30.77 3 3 31234 20090325180209
75.32.83.164 1 1 20359 20090316114335
213.120.94.197 1 1 32479 20090311132744
65.55.220.220 1 2 36898 20090306185559
124.115.10.193 2 2 40724 20090331024752
12.145.124.101 7 47 1449984 20090324200755
38.108.180.5 3 3 31512 20090304112701
189.176.129.142 4 41 889385 20090326020653
70.88.192.145 15 106 3586528 20090313202147
142.161.171.206 1 6 98534 20090325023314
174.132.96.188 1 1 0 20090307102140
69.2.235.2 8 90 7132201 20090323172139
65.55.106.187 2 2 20079 20090311041712
65.55.106.214 1 1 4135 20090313212841
24.188.103.109 3 26 785238 20090320222230
82.99.30.18 0 3 0 
208.80.194.32 1 1 20345 20090303095427
205.188.117.69 0 2 15366 
71.192.208.243 1 17 432260 20090320203937
12.29.205.10 1 17 432260 20090323173123
66.134.41.122 17 172 3776287 20090324161602
200.10.75.196 1 9 102073 20090309194839
74.194.12.199 1 22 528345 20090330044256
65.55.109.42 1 1 4021 20090326191326
208.13.150.18 1 10 106118 20090311162638
150.70.84.45 1 1 6716 20090326185242
71.249.226.84 1 1 58638 20090323184835
220.255.7.167 0 1 52885 
64.12.117.20 0 1 22690 
82.99.30.37 0 3 0 
74.66.246.251 1 1 20364 20090323180941
82.99.30.43 0 1 0 
216.207.221.66 2 22 491577 20090330191552
122.164.238.64 4 30 601050 20090319180944
24.199.38.149 1 17 432282 20090331212721
203.125.242.190 5 39 1073230 20090309080058
65.55.231.49 0 1 145164 
65.55.110.162 1 1 11551 20090316053711
62.49.77.74 1 20 522629 20090327130505
213.186.244.152 1 20 511102 20090315190102
220.255.7.158 0 1 2742 
218.94.136.169 1 13 397277 20090311020442
84.171.53.214 7 60 1926473 20090317224621
64.128.177.3 5 5 1742 20090331080145
65.55.106.180 1 1 8528 20090305024441
69.177.115.34 4 44 1229086 20090319191406
64.12.116.71 0 1 8482 
172.133.147.179 1 20 522292 20090310131532
24.5.169.183 2 12 197324 20090331022642
206.53.157.208 1 6 98389 20090307222039
64.252.129.91 1 17 432282 20090330174439
65.55.209.84 6 6 35154 20090321192736
68.161.8.128 3 40 887872 20090303212751
66.28.21.102 6 58 1084098 20090331130856
64.115.222.182 2 21 555089 20090331125333
75.145.255.89 1 17 432260 20090324134557
66.151.51.218 4 33 754217 20090305171413
206.211.222.51 1 13 181633 20090310165803
121.96.101.221 2 16 805545 20090324162916
65.55.106.140 3 3 36423 20090308185811
64.12.116.142 0 1 2807 
219.142.53.24 1 1 5113 20090302185903
66.82.9.58 0 1 0 
166.216.128.6 1 1 20340 20090311173330
155.198.160.13 1 20 522629 20090327134437
65.55.230.192 8 8 57586 20090328031728
208.115.138.254 2 2 22639 20090310165803
208.80.195.34 2 2 40722 20090330045621
75.151.166.198 3 26 785575 20090327145618
82.99.30.6 0 4 0 
72.94.249.34 1 1 20330 20090305221132
205.188.116.13 0 1 4100 
65.55.220.217 2 4 46099 20090306210226
65.55.231.55 0 1 113913 
24.213.180.197 1 1 58638 20090310141309
64.12.117.66 0 1 298669 
64.12.117.69 0 1 909 
208.99.209.32 1 1 20340 20090310215939
206.112.75.238 2 25 727075 20090320215452
65.55.109.52 1 1 13326 20090325175906
97.126.39.129 1 10 119139 20090317015903
206.73.209.94 2 18 1291048 20090328010007
12.104.27.5 1 6 98245 20090309170358
204.111.14.242 2 33 858978 20090318130404
204.72.246.45 1 6 98245 20090313235832
69.182.190.150 0 1 0 
64.12.117.18 0 2 31607 
205.188.117.14 0 1 2745 
63.76.48.34 2 21 580930 20090321113537
64.12.116.137 0 2 5629 
85.67.119.128 1 1 20362 20090329102848
65.55.106.215 1 1 4135 20090310150541
204.249.105.251 1 17 432260 20090319194145
68.9.156.164 2 38 432260 20090320152513
124.115.1.59 3 3 61086 20090331070510
64.92.6.204 3 45 726937 20090330212157
220.255.7.236 0 2 40994 
66.166.203.130 3 26 726600 20090309205325
75.146.5.250 3 26 535160 20090305170342
198.74.13.100 9 82 2198753 20090320131257
67.97.90.194 1 6 98245 20090323184911
65.55.209.87 2 2 19598 20090324144954
71.111.153.21 1 13 190454 20090310165558
64.16.208.82 1 10 106118 20090316183926
64.128.179.19 2 33 485055 20090326144804
38.100.8.50 7 7 82317 20090311222911
65.55.209.77 8 8 58155 20090331231335
85.68.127.226 2 2 11881 20090330214038
207.173.216.33 1 13 495673 20090311211154
220.255.7.188 0 1 113894 
64.12.116.13 0 1 4100 
65.218.164.106 2 32 864887 20090312174208
71.244.94.176 4 26 920320 20090311165413
138.162.0.43 1 16 170649 20090320140207
65.55.106.204 1 1 8528 20090302013141
66.159.169.246 1 16 426718 20090323161911
74.9.180.232 1 17 432250 20090309120704
64.207.232.142 4 41 888842 20090313121621
12.129.75.120 2 21 581267 20090327205525
64.12.116.202 0 2 146456 
69.95.50.75 1 17 432260 20090313151704
216.174.25.7 6 40 1122041 20090325190812
82.196.197.214 1 1 20349 20090303175850
79.76.57.4 4 44 5910558 20090330114221
65.55.220.208 0 1 69454 
208.80.195.35 1 1 20378 20090324184820
121.96.101.246 1 9 645317 20090303172131
205.188.117.77 0 1 13684 
64.12.116.73 0 2 10674 
201.120.166.224 2 21 451394 20090323165344
65.55.209.79 3 3 22362 20090314230236
64.12.117.11 2 2 13661 20090318202955
212.20.233.2 2 25 727200 20090306105449
212.250.163.253 1 1 20340 20090324021131
208.80.194.33 1 1 20349 20090304143409
204.98.2.180 3 25 1145659 20090330154744
65.55.107.213 1 1 13532 20090327183010
68.96.95.197 2 2 32460 20090330184554
65.55.106.165 1 1 11551 20090307163912
66.93.156.44 2 2 40710 20090317024703
66.122.123.202 21 112 8035640 20090313212902
65.55.106.237 1 1 11551 20090308162710
194.35.186.254 1 1 32484 20090311132514
68.194.178.180 3 37 1069180 20090302170502
217.77.165.33 1 9 106309 20090305120901
75.24.118.11 3 41 950946 20090324021641
64.69.121.216 1 1 0 20090316182040
68.162.223.223 1 17 432658 20090303163803
201.153.195.28 3 26 553389 20090312035642
208.99.193.9 3 3 22119 20090311005324
69.119.63.151 8 58 1322909 20090312130634
65.55.106.113 2 2 31915 20090313173440
69.71.222.186 1 1 20345 20090304230501
64.12.112.67 0 1 882 
74.205.131.230 2 25 838291 20090324174531
65.55.110.239 1 1 20354 20090301230806
64.12.117.78 0 1 18486 
76.231.243.9 1 17 432282 20090327211713
86.150.105.61 1 20 522292 20090317163642
65.170.131.226 2 21 580925 20090303143426
72.85.254.64 1 17 432282 20090331202418
71.98.244.221 3 33 451458 20090311173931
80.135.59.117 1 17 432282 20090326142526
71.113.10.179 1 17 432282 20090327164436
70.89.196.129 6 46 1030370 20090306152515
64.52.114.130 1 1 58638 20090326195732
207.38.213.188 1 13 495673 20090324022608
64.175.80.34 1 17 432250 20090305181704
74.3.19.106 1 20 522292 20090313184429
65.55.209.78 8 8 567402 20090330133927
76.28.159.190 1 6 98245 20090305031312
64.252.165.222 6 22 452600 20090315125119
200.38.208.194 1 13 495673 20090311204633
65.55.106.240 1 1 4135 20090304150142
12.69.252.66 2 18 432260 20090312235007
203.162.3.165 2 10 649428 20090317083158
65.55.109.203 1 2 7984 20090323092024
207.190.240.194 1 6 98389 20090309162158
124.115.1.62 22 22 447350 20090324031137
205.188.116.143 0 2 163138 
219.142.53.18 1 1 4960 20090307034805
72.245.146.186 1 1 20340 20090312231237
85.154.13.230 2 25 726600 20090317050336
208.80.195.41 5 5 101822 20090329003749
66.228.161.111 1 1 20340 20090324091235
82.99.30.21 0 1 0 
65.55.108.138 0 1 93972 
67.83.134.5 5 35 955608 20090331155327
81.144.182.250 1 13 421036 20090307093051
68.38.152.14 2 32 864910 20090325143448
71.74.17.255 1 6 98245 20090315231840
96.246.116.81 1 20 522292 20090306191505
64.252.124.231 4 41 583541 20090330151905
58.69.60.191 2 18 645317 20090326003644
65.55.209.86 4 4 49632 20090331035924
41.210.43.71 2 25 838268 20090317045349
8.21.4.254 1 1 6462 20090330154656
209.21.109.77 1 17 432260 20090311190117
173.71.0.19 8 85 1804710 20090324132248
74.68.11.45 0 2 34254 
71.90.45.91 1 17 432260 20090310155216
85.186.103.66 1 1 20362 20090331140745
204.8.196.242 1 20 522629 20090330122553
91.205.124.2 11 21 524359 20090322005853
64.245.140.69 2 2 72277 20090326203717
71.59.126.148 15 108 5497588 20090327171737
76.218.232.130 1 17 432282 20090329221351
121.96.97.5 1 9 645317 20090318184943
69.136.173.77 3 26 560265 20090309170947
59.178.88.48 1 9 645317 20090323063330
69.25.204.163 14 71 1226605 20090327190244
207.101.224.194 1 1 0 20090305233309
124.115.1.61 12 12 244060 20090322054528
69.108.139.108 1 17 432283 20090325031006
96.228.83.85 1 6 98245 20090320224719
12.150.243.153 2 7 98245 20090310172518
123.180.65.195 1 17 432250 20090305113805
12.162.121.2 2 35 475196 20090313143813
207.67.51.190 18 129 3140670 20090306155016
65.55.232.48 1 1 7240 20090324020846
71.182.226.173 2 25 726600 20090312184318
24.172.173.34 1 7 100222 20090311143101
66.252.185.10 1 20 522287 20090302204626
82.99.30.31 0 2 0 
208.111.154.15 16 16 91947 20090331111649
216.21.7.5 6 70 1547913 20090313162133
59.164.37.174 1 6 98389 20090304064527
204.62.53.125 0 15 371957 
66.68.113.22 1 1 0 20090326002423
199.223.53.5 1 15 323516 20090313152154
68.184.0.197 2 21 554752 20090324212447
138.162.0.44 0 13 53553 
24.244.244.106 1 10 147992 20090309124007
64.12.116.67 0 2 5656 
173.9.67.241 1 20 522292 20090320152947
68.142.46.252 1 6 98245 20090321172438
59.92.121.25 1 17 432250 20090306150829
173.105.64.4 1 6 98245 20090305122819
65.55.108.171 2 3 42268 20090306195038
64.25.10.227 2 25 533049 20090323115732
220.255.7.224 0 1 30846 
12.54.182.90 1 10 106118 20090324173746
71.184.18.218 2 18 1054070 20090316191220
12.3.144.4 11 64 1045742 20090324132640
82.18.215.155 1 20 522292 20090304214610
208.80.195.39 2 2 40714 20090322094257
79.64.35.98 2 25 726600 20090305135929
131.107.0.111 4 4 49882 20090330212815
205.188.117.5 3 3 69964 20090309150040
71.139.158.190 3 40 822346 20090324144712
65.115.34.133 1 17 432250 20090310040456
65.55.107.216 1 3 18320 20090321133734
69.117.78.29 1 20 522629 20090327032635
65.217.244.140 3 33 40263 20090309165716
122.161.145.94 2 19 761818 20090309171054
205.178.184.156 6 6 45918 20090306131055
74.52.245.146 1 1 20349 20090306210609
69.0.26.234 2 25 726937 20090328142834
77.58.24.63 1 17 199127 20090312203500
65.55.231.103 0 1 236989 
74.93.253.25 1 1 58638 20090311151802
208.80.195.48 1 1 20359 20090322163330
220.255.7.211 1 1 10281 20090312143806
72.93.157.133 1 6 98245 20090320011612
138.162.0.41 1 16 659402 20090320140216
74.95.20.1 1 17 432260 20090313212832
96.56.83.66 4 43 913803 20090330192909
208.80.195.36 4 4 81404 20090317125144
98.141.246.130 1 20 522292 20090309150803
173.10.80.193 5 45 1381070 20090309220753
125.163.71.173 1 3 334125 20090307033454
136.2.1.101 1 6 98245 20090325150527
220.224.121.219 1 13 495673 20090315145422
206.53.144.108 0 14 406906 
64.12.116.135 0 2 5663 
71.10.245.0 19 68 1532521 20090320194755
205.188.116.18 0 1 20214 
58.218.204.212 1 1 20340 20090312151701
208.80.194.51 1 1 20345 20090302122032
119.82.98.204 1 9 42655 20090318224947
82.99.30.54 0 2 0 
146.7.93.228 1 6 98245 20090303203410
75.32.83.148 1 1 20355 20090321022711
65.55.106.227 1 1 8528 20090308042313
208.80.195.29 1 1 20359 20090312114647
192.78.147.12 1 20 522767 20090303073219
64.207.107.35 4 31 643466 20090331145035
206.51.230.20 16 16 137985 20090330214040
208.111.154.16 15 15 92784 20090331084307
64.12.116.195 0 1 1353 
203.162.3.146 1 13 213816 20090303090951
68.198.187.20 1 17 432260 20090318193643
24.151.69.128 5 47 1339980 20090303161009
137.170.133.5 0 1 8523 
76.88.175.116 1 17 432260 20090311004957
209.221.35.27 1 6 98534 20090317003849
208.80.195.40 1 1 20355 20090319231742
65.55.232.41 1 1 20364 20090323231315
65.55.231.46 0 1 81588 
204.244.193.100 1 17 432214 20090326211437
220.255.7.184 0 1 35289 
219.117.196.165 1 20 522629 20090327012538
64.12.116.10 0 1 93953 
118.175.88.184 1 20 522292 20090306095447
74.1.106.42 3 33 923884 20090327155730
69.255.33.164 1 10 106293 20090327151720
12.172.135.208 1 18 436382 20090326222651
205.188.116.135 0 2 5663 
208.80.195.42 1 1 20345 20090305221339
220.255.7.239 0 1 2815 
82.99.30.12 0 6 0 
88.2.17.11 1 9 645731 20090331092058
219.64.164.1 1 9 645731 20090328050425
71.234.230.29 1 17 432250 20090310115306
149.61.0.218 15 90 2214881 20090324193132
68.167.44.125 2 32 864887 20090324152802
20.133.4.133 1 17 432260 20090319135057
12.33.168.146 8 47 1073471 20090317162108
69.58.178.29 10 10 120184 20090304010105
205.188.117.66 0 1 298669 
24.180.244.62 26 118 3253795 20090324170506
220.255.7.226 0 1 50372 
71.234.4.223 2 18 452600 20090324143949
77.189.29.67 1 1 20340 20090314173435
24.218.183.134 10 73 1840562 20090330135014
24.61.116.120 3 40 573832 20090303202138
65.55.232.16 10 10 114109 20090330070854
84.11.142.212 1 17 432690 20090328210618
64.180.74.19 4 64 1463758 20090320181741
218.88.206.79 2 31 539945 20090324034555
71.235.79.213 1 17 432260 20090320190147
124.124.33.29 1 5 96107 20090325081241
208.80.194.38 1 1 20349 20090302040808
218.189.228.157 2 35 571906 20090310074020
65.55.231.82 1 2 40183 20090306131701
199.223.55.5 0 5 198776 
67.53.160.114 4 48 973915 20090330201557
205.188.117.70 0 2 5450 
216.80.5.190 1 17 432250 20090303220601
165.170.128.65 2 18 452644 20090326123045
24.222.147.80 1 6 98245 20090325214944
217.169.46.98 3 3 39668 20090305121137
205.178.184.152 5 5 46537 20090306131059
65.55.231.124 0 1 151934 
64.12.117.8 0 1 64331 
64.56.65.37 6 6 122082 20090330022007
65.55.209.73 3 3 597960 20090326133847
71.173.2.31 1 6 98245 20090315214142
194.153.113.22 0 178 68072 
12.1.48.108 1 1 58638 20090313001046
58.38.112.226 3 35 418886 20090325144223
65.55.106.218 1 1 11551 20090307121611
220.255.7.201 0 1 52870 
208.80.194.52 1 1 20345 20090304114512
65.55.107.231 1 1 5936 20090323110514
72.18.150.33 0 1 387 
65.55.109.11 1 1 5040 20090302071626
65.55.209.74 10 10 78801 20090324212752
208.80.195.50 2 2 40718 20090323214323
70.20.254.46 1 1 58638 20090316173424
70.177.183.185 2 32 865246 20090328192125
83.133.125.202 3 3 40698 20090305080013
68.116.162.63 7 52 756469 20090329024753
12.169.83.234 1 1 58662 20090311164639
221.225.88.37 2 33 484616 20090312053739
203.10.224.58 0 3 132038 
41.210.3.198 1 1 13302 20090324222120
24.185.161.146 10 69 1670240 20090304231313
64.12.116.208 8 8 102744 20090316131536
71.125.49.2 9 68 1660789 20090313201918
121.254.193.163 1 1 20326 20090308060109
75.89.65.5 1 17 432283 20090326080625
65.55.209.80 2 2 19447 20090325030745
208.80.195.47 6 6 122132 20090323151010
208.99.193.10 10 10 94912 20090311005156
91.84.87.28 1 6 98245 20090318180904
208.80.195.38 3 3 61111 20090330110524
64.12.116.18 0 3 129134 
138.162.0.42 0 4 16967 
94.101.16.31 7 51 2620042 20090306205814
116.125.140.4 1 1 13302 20090318181901
205.188.117.10 0 1 97610 
65.55.209.83 7 7 60565 20090330133118
208.80.195.53 1 1 20355 20090318173602
99.182.70.41 3 26 560161 20090303004434
121.96.102.6 2 19 1412677 20090303235334
88.55.101.74 1 19 145803 20090312142222
69.0.23.214 4 136 913852 20090302162609
205.188.116.131 0 3 67480 
212.44.52.33 1 14 368200 20090312133145
86.3.116.139 2 21 554752 20090310132257
220.255.7.166 0 1 88706 
98.65.223.3 1 6 98662 20090331231440
121.246.60.140 1 20 522292 20090305072856
63.86.70.2 2 20 913733 20090306164852
209.249.53.148 1 1 5030 20090306144214
208.80.195.46 3 3 61049 20090313080851
71.4.180.50 1 18 436360 20090312193031
205.188.116.11 0 1 4781 
65.55.108.137 1 2 146430 20090307094450
65.55.106.131 1 1 4135 20090307145140
220.255.7.215 0 1 1353 
65.213.76.98 7 81 836750 20090318132249
65.200.199.145 1 1 20381 20090328072736
155.91.28.231 2 25 533524 20090313130618
205.188.116.208 9 10 103817 20090323130854
64.12.116.7 0 4 111182 
64.12.116.19 0 1 35289 
65.55.110.61 1 1 18990 20090305205428
220.255.7.142 0 1 2769 
71.176.164.67 1 17 432260 20090320120501
208.111.154.31 2 2 8918 20090331052403
69.95.12.29 1 17 432283 20090324225254
192.245.246.12 1 6 98389 20090324153937
66.152.197.241 13 78 1525827 20090330134716
96.250.230.82 2 25 726600 20090326121126
65.55.107.204 1 1 5034 20090324045001
62.38.54.57 1 1 58638 20090330102643
61.244.49.235 14 115 2978510 20090302040738
65.55.209.72 1 1 8192 20090305080509
66.249.85.84 1 16 426718 20090329151857
209.213.90.242 7 50 1006249 20090303140127
82.227.154.148 3 22 802999 20090316211534
208.80.195.30 1 1 20377 20090327000613
68.202.68.59 1 1 58638 20090309155934
74.195.121.110 1 1 65536 20090329181143
203.10.224.59 1 6 169149 20090318025248
65.55.220.212 0 1 66046 
98.224.203.205 3 32 716765 20090331032615
192.245.246.9 1 6 98389 20090324164528
86.154.153.203 1 6 98245 20090310213935
74.94.184.82 2 18 1054070 20090303212105
200.2.164.98 1 6 98389 20090317145359
205.188.116.133 0 2 18536 
69.205.60.10 1 20 522629 20090330233857
24.147.123.122 3 32 715939 20090302025353
65.89.12.2 17 100 3814519 20090305122446
205.188.117.18 0 2 3503 
75.80.140.152 1 17 432260 20090312134418
65.55.110.171 1 2 7104 20090323092214
24.47.60.92 1 6 98245 20090304230756
173.9.35.73 7 58 1195482 20090326143103
151.201.142.115 1 17 432250 20090304140633
86.158.100.200 2 25 726937 20090326161324
204.62.53.127 1 5 150815 20090323072302
128.222.37.21 1 6 98662 20090328024825
66.93.156.52 1 1 20355 20090323120703
88.247.83.75 3 21 788783 20090306153746
69.38.225.82 1 1 58638 20090306125703
208.80.192.6 1 1 20340 20090315023022
199.125.14.2 3 3 61022 20090327011815
64.253.49.67 1 20 522292 20090319142200
71.235.136.36 1 17 432260 20090319175123
209.234.201.56 1 17 432260 20090316193925
216.153.152.34 1 17 432250 20090309143558
64.12.116.74 0 2 5806 
78.149.245.191 1 17 432282 20090330205504
72.215.238.107 22 223 5158815 20090323185122
216.66.229.121 3 37 1003649 20090305175003
70.16.195.114 7 45 655239 20090310114409
72.192.62.13 9 85 1729245 20090330154309
66.249.16.211 1 1 20340 20090318204223
69.0.53.174 4 43 1270897 20090326234147
65.55.106.243 2 2 23102 20090310073413
63.96.238.125 1 17 432192 20090323181035
67.189.163.177 4 42 928555 20090314180608
65.55.209.81 1 1 7241 20090328064333
64.194.229.34 1 17 432260 20090320122046
198.102.182.235 1 12 492928 20090317225906
69.113.3.191 1 20 522629 20090327001313
67.62.153.226 5 28 660572 20090325183821
64.12.116.5 0 2 5448 
65.55.106.235 2 2 23102 20090311113514
89.149.244.57 4 4 61045 20090323185215
193.195.46.26 0 3 64177 
66.11.209.158 1 1 58638 20090311144343
96.240.54.91 8 89 2232893 20090331141556
72.241.134.25 1 12 492928 20090312223445
208.80.194.40 1 1 20349 20090303003017
65.93.96.190 3 3 61077 20090319120246
123.237.253.164 0 8 389605 
81.100.96.252 1 25 522292 20090318032548
85.70.149.228 1 13 421046 20090318102849
196.206.185.13 2 3 334125 20090328223559
217.77.165.46 0 8 325941 
65.55.209.82 1 1 7241 20090330183146
217.42.28.171 1 6 98245 20090307124849
64.252.120.170 3 36 500998 20090306131607
72.248.83.150 1 17 432283 20090325030344
203.10.224.61 0 7 166261 
64.12.117.70 0 2 5452 
208.80.195.5 2 2 40710 20090317235654
220.255.7.159 0 1 43589 
52.129.12.51 1 6 98245 20090304144940
205.188.116.140 0 2 10448 
32.176.222.253 1 20 522292 20090312021635
65.55.106.168 1 1 11551 20090311014011
65.55.106.181 1 1 11551 20090310115911
203.22.30.1 2 2 20710 20090327005334
75.132.216.157 1 10 147992 20090325161716
67.101.155.201 1 17 432250 20090303152320
59.164.103.251 3 40 837386 20090316042001
208.80.195.49 2 2 40708 20090319002333
220.255.7.213 0 1 47181 
131.107.151.157 8 69 1334836 20090325005437
65.55.106.117 2 2 23102 20090308082010
220.255.7.248 1 1 13302 20090312143635
124.115.1.60 2 2 40725 20090331063433
195.99.190.170 2 25 726937 20090327083333
63.123.238.193 3 33 866491 20090310125858
208.99.193.13 1 1 20359 20090310235957
65.55.109.100 1 2 7489 20090323161429
208.80.195.44 1 1 20359 20090311061706
220.255.7.206 0 1 2726 
65.55.231.100 1 2 37048 20090307021153
72.14.164.158 0 172 4685839 
220.255.7.151 0 1 8523 
205.188.117.13 0 1 15764 
69.177.131.244 6 34 678524 20090306230449
75.103.6.84 2 25 306812 20090318204319
65.55.106.161 1 1 11551 20090309202643
64.74.215.250 1 1 0 20090308023654
66.18.153.216 1 20 522629 20090331141007
64.12.116.197 0 2 34645 
72.37.171.28 7 66 1104678 20090324140152
64.179.62.106 2 25 726595 20090302022857
65.55.106.162 1 1 11551 20090308185811
174.141.31.74 1 20 522629 20090327135347
70.90.139.73 11 72 1535966 20090304155534
99.156.71.122 1 17 432260 20090316191604
64.12.116.145 0 1 14249 
117.195.17.107 1 8 98245 20090310152813
66.152.225.106 3 40 972572 20090310174607
65.40.197.248 5 39 1122906 20090303184724
209.78.18.174 5 39 1105685 20090301223751
87.192.255.122 2 25 726600 20090311203148
65.55.209.76 5 5 38861 20090331194931
69.216.64.78 3 30 616825 20090318141019
70.181.242.136 13 47 1178756 20090330045624
201.8.195.198 1 13 496309 20090327220507
220.255.7.144 0 1 93953 
205.188.116.138 1 1 6462 20090311205745
24.106.42.62 2 19 439250 20090330150132
98.114.214.51 3 19 432283 20090325175248
208.111.154.30 1 1 0 20090321035508
208.80.194.34 1 1 20345 20090301171754
207.34.120.71 1 8 156428 20090319220947
81.129.239.157 1 1 58638 20090308093420
69.74.43.20 1 6 98245 20090321123935
208.111.154.29 1 1 0 20090306234249
64.147.222.134 4 53 1387179 20090311202456
65.96.218.97 3 40 582663 20090321105439
220.255.7.136 0 1 2814 
64.12.116.206 2 2 379 20090319212559
212.247.42.171 2 2 0 20090322060324
65.55.106.182 1 1 11551 20090310215543
66.190.2.230 8 127 2505553 20090326183208
69.2.66.108 1 10 106293 20090326150453
82.99.30.8 0 3 0 
68.197.54.3 3 33 868932 20090311022106
66.131.171.25 2 25 838258 20090303222110
65.55.110.140 1 2 7884 20090322045359
75.22.163.161 5 34 956655 20090321191340
72.14.193.3 8 8 2912 20090321103446
208.80.195.31 2 2 40758 20090331152839
82.99.30.50 0 1 0 
65.117.122.60 2 21 522292 20090320125840
64.72.134.190 1 17 431499 20090313173655
208.111.154.25 1 1 19289 20090331101652
203.10.224.60 0 4 55324 
220.255.7.185 1 1 32460 20090312143704
67.38.234.2 2 34 864500 20090309124116
81.156.64.187 2 25 838258 20090301074150
64.12.117.74 0 1 2808 
81.149.120.243 1 1 58638 20090311173824
24.66.51.87 1 20 522287 20090301080440
65.55.109.194 1 2 7060 20090302031655
64.12.117.10 1 1 8061 20090310151042
209.191.7.34 1 20 522292 20090304203022
208.20.21.60 20 90 2972748 20090320162056
208.80.194.50 1 1 20349 20090301075707
65.55.106.155 1 1 11551 20090309102240
65.55.220.222 1 2 24008 20090307192409
82.102.79.248 8 39 1682802 20090307050324
208.99.193.8 2 2 25456 20090311001140
65.55.106.207 1 1 11551 20090310015242
70.91.84.205 6 48 1582112 20090326184253
85.223.202.235 1 14 423843 20090309182205
66.210.86.11 8 61 1735385 20090323095601
71.245.66.34 2 25 838268 20090316143611
65.55.220.218 1 2 35909 20090306214445
24.39.56.125 4 48 1293129 20090325181719
69.124.197.187 7 56 1212725 20090302162452
74.8.166.98 8 88 248330 20090310210549
64.12.117.72 0 1 2316 
138.32.32.166 1 20 522292 20090305135208
64.12.116.139 0 2 5484 
65.42.121.131 1 17 432658 20090309161702
69.0.16.36 1 17 366724 20090312205316
76.23.241.58 2 34 487404 20090323203411
206.229.18.66 15 91 8476450 20090312141939
71.232.28.107 1 1 20336 20090323193056
78.16.52.224 2 19 443585 20090322234040
121.138.194.106 24 36 1358257 20090312193055
220.255.7.222 0 1 2904 
68.15.61.99 1 17 432250 20090309200209
218.248.14.68 1 13 421068 20090330060847
65.55.209.75 10 10 160374 20090329012236
65.55.106.219 1 1 11551 20090309052912
220.255.7.204 0 1 20238 
209.12.92.195 1 6 98245 20090302144216
24.250.45.206 1 6 30970 20090305230243
141.154.90.147 1 20 522292 20090310112344
65.55.231.24 0 1 298684 
64.12.116.131 0 2 17046 
64.95.100.12 7 75 1118799 20090306203513
80.169.189.68 1 20 522292 20090313143318
142.222.116.166 1 6 98950 20090331133524
72.14.194.17 1 1 19946 20090326121228
71.121.141.247 1 13 190454 20090308184844
161.185.150.179 1 6 98359 20090305120254
65.55.106.193 1 1 11551 20090309172511
68.161.167.78 5 46 1209330 20090306223804
69.67.168.163 8 57 1239140 20090316133736
64.211.107.4 5 88 2294824 20090330130341
208.99.193.11 4 4 45783 20090311001009
206.53.157.196 3 28 549599 20090326112749
220.255.7.179 0 1 2902 
24.19.233.252 1 20 522292 20090316010042
131.107.0.114 1 1 20358 20090330212754
216.145.54.58 1 1 20336 20090320120611
208.80.195.45 2 2 40736 20090329065638
68.15.53.111 5 35 828345 20090306155604
99.50.38.179 2 25 726600 20090315021813
71.61.243.176 10 56 1149245 20090331211600
166.216.128.5 0 11 324091 
66.194.114.222 3 29 893876 20090326120319
205.188.116.142 0 2 147952 
66.243.97.234 1 6 98534 20090323180325
69.182.25.1 1 17 432260 20090312175615
205.188.116.74 0 1 2808 
68.246.183.180 2 25 726600 20090310134548
66.184.87.85 4 57 1069180 20090302194355
79.29.5.154 2 25 726937 20090331081919
85.93.148.214 1 13 486211 20090312153838
64.244.63.143 5 5 57236 20090315165422
24.44.18.135 2 33 484606 20090305202942
69.236.150.67 1 17 432260 20090320235430
65.55.231.35 0 1 97629 
72.199.74.198 1 17 432260 20090311061656
59.40.233.202 1 1 20362 20090330163533
151.138.13.138 1 1 20359 20090311162826
24.172.131.81 15 140 3861012 20090323174917
204.60.93.72 1 17 432260 20090318202219
205.188.116.203 0 1 6264 
124.115.1.66 1 1 20362 20090331113825
72.72.34.118 1 6 98245 20090301175056
216.41.58.242 8 73 1600434 20090324152236
205.188.116.10 0 1 882 
64.244.62.152 5 5 54004 20090311012346
76.23.148.70 7 59 1419339 20090323141611
203.217.12.37 1 20 522292 20090303233757
70.224.37.73 1 20 522292 20090311155341
65.55.209.85 4 4 44026 20090326205637
206.128.28.134 6 46 1026963 20090319100710
12.160.38.226 1 17 432282 20090331153100
205.178.184.155 2 2 10378 20090306131050
208.111.154.28 2 2 13639 20090331081603
173.65.96.84 1 17 432250 20090301012643
205.188.116.67 0 2 5656 
65.55.110.244 1 1 10305 20090325030837
124.253.139.22 2 25 486743 20090306162811
65.55.230.193 7 7 59315 20090324092629
66.92.232.61 1 8 158195 20090327154250
207.67.147.237 1 1 13639 20090331170310
64.12.116.12 0 1 35657 
220.255.7.186 0 1 2724 
64.12.116.204 1 2 87623 20090310151038
END_VISITOR

# Date - Pages - Hits - Bandwidth - Visits
BEGIN_DAY 31
20090301 21 131 3502018 16
20090302 54 520 10385619 24
20090303 67 608 15255726 31
20090304 118 549 11796545 25
20090305 85 690 19557053 34
20090306 187 641 19956162 38
20090307 39 141 4088757 27
20090308 17 201 5131496 17
20090309 67 617 22214160 32
20090310 64 527 10470248 38
20090311 145 584 25039370 44
20090312 85 565 20129401 31
20090313 84 623 25576978 31
20090314 10 64 1394117 5
20090315 19 102 2590787 12
20090316 30 234 6407930 16
20090317 40 262 7364741 20
20090318 71 747 22468226 27
20090319 101 524 17831547 40
20090320 70 518 12707155 32
20090321 28 126 2467836 20
20090322 18 36 623216 17
20090323 110 861 27747660 43
20090324 172 1027 27785216 42
20090325 55 405 9044162 28
20090326 118 947 18619447 31
20090327 73 595 16297099 31
20090328 16 129 4792449 13
20090329 53 129 12474798 14
20090330 121 840 24562831 40
20090331 117 453 16821185 37
END_DAY

# Worm ID - Hits - Last visit
# The 10 first Hits must be first (order not required for others)
BEGIN_WORMS 0
END_WORMS

# Session range - Number of visits
BEGIN_SESSION 7
1h+ 3
5mn-15mn 34
15mn-30mn 16
30s-2mn 79
2mn-5mn 37
0s-30s 675
30mn-1h 12
END_SESSION

# URL - Pages - Bandwidth - Entry - Exit
# The 10 first Pages must be first (order not required for others)
BEGIN_SIDER 71
/ 440 8143678 371 248
/gas+boosters.htm 215 2453147 118 81
/HOME.htm 132 2136335 21 34
/PartsLineCard.htm 98 1560897 24 38
/engb/ 97 602260 27 21
/Etter+Products.htm 92 747202 7 17
/GAS+BOOSTER+OPTIONS.htm 67 647861 5 28
/INFORMATION.htm 65 414512 7 16
/EPB+Brochure+(On+Line+PDF).pdf 51 2463295 21 36
/Panels.htm 48 565734 11 17
/TT+Burner+Tuning+030.htm 45 393219 38 37
/OVENS.htm 37 248660 9 9
/LINKS+OF+INTEREST.htm 23 212880 8 9
/engb/web_docs/engb_press_release_rev_21009_text_only.doc 4 63112 0 0
/History.htm 23 117060 5 9
/regulato.htm 26 117447 6 8
/34ft+Oven+PR.htm 9 40175 3 3
/feedback.htm 11 65162 5 3
/ETTER+Newsletter+1202+Boosters+Consultants.htm 7 34602 1 1
/engb/web_docs/engb_sb_1208_rev1_2_webdocs.pdf 9 2486318 0 1
/news.htm 16 146107 1 3
/Etter+catalogue+request+form.htm 2 14605 1 1
/DRYING.htm 37 385757 8 11
/engb/engb_packaged_systems.html 41 260154 6 7
/engb/web_docs/engb_press_release_rev_21009.pdf 7 269928 0 3
/Siemens+PR1.htm 8 53182 1 4
/Directions.htm 22 177420 2 5
/Booster+Training.htm 9 36486 3 5
/engb/contact_us.html 27 171697 2 8
/Web+Works+Demo.htm 8 64834 2 1
/google179e217134eca878.html 8 2912 4 4
/E101+Packaged+Booster+Brochure+0100.pdf 40 1071290 11 18
/engb/resources.html 31 222057 3 2
/Web+Worx.htm 38 416300 27 28
/Product+Request+Form.htm 5 34388 1 2
/Manufacturer+Info+Request+Form.htm 1 6583 1 1
/Portable+IR+Brochure.doc 5 1237148 3 3
/Web+Coater+PR.htm 11 92087 5 4
/floppity.html 1 777 1 1
/TT+Burner+Intro+010.htm 9 71092 1 1
/engb/web_docs/2009_natl_grid_blue_book_web.pdf 3 4692685 0 2
/Announcing+New+Controls+Engineer.htm 13 93977 5 5
/OERTLI+Asphalt+Burner.htm 31 116466 18 20
/JOBS.htm 19 191385 1 4
/engb/about_engb.html 33 271291 6 5
/Tech+Tips!.htm 16 176803 3 5
/engb/engb_features.html 39 268266 5 9
/engb/literature_request.html 16 108656 0 6
/Invensys+Metro+PR.htm 11 77388 5 5
/engb/engb_features_cust_outlet.html 3 18397 0 0
/search.htm 8 24367 1 1
/_derived/nortbots.htm 7 20706 0 1
/engb/web_docs/ENGB+Photo+Gallery.swf 26 87057944 0 5
/TT+Burner+Types+020.htm 13 113443 6 7
/engb/engb_features_cool_flow_technology.html 8 41948 0 0
/Invensys+Rotary+PR.htm 7 59592 1 1
/inforequestfrm.htm 8 32039 2 1
/Annoucning+Metro+Office.htm 9 64083 2 2
/engb/external_motor_wiring.html 5 29756 0 0
/Info+&+Help.htm 12 98140 1 3
/Announcing+New+Engineering+Assistant.htm 11 79393 1 1
/Annoucning+AHR+Expo+Jan+2002.htm 6 42344 0 0
/engb/thank_you.html 3 16507 1 2
/engb/engb_features_sliding_tank_housing.html 5 29539 0 0
/HEATERS.htm 46 396770 10 18
/Cure+Worx.htm 26 205521 10 16
/Siemens+PR2.htm 9 62296 2 2
/engb/web_docs/engb_press_release_2809.pdf 5 97273 1 1
/meters.htm 20 102597 1 3
/IR+with+XIOM+Brochure.doc 2 1030951 1 1
/Newsletter+0202.htm 10 50242 3 2
END_SIDER
