AWSTATS DATA FILE 5.5 (build 1.500)
# If you remove this file, all statistics for date 2004-09 will be lost/reset.

# Position (offset in bytes) in this file of beginning of each section
# for direct I/O access. If you made changes somewhere in this file, you
# should also remove completely the MAP section (AWStats will rewrite it
# at next update).
BEGIN_MAP 25
POS_GENERAL 1817                
POS_TIME 2169                
POS_VISITOR 13259               
POS_DAY 26725               
POS_DOMAIN 2740                
POS_LOGIN 2910                
POS_ROBOT 3084                
POS_WORMS 27669               
POS_EMAILSENDER 3672                
POS_EMAILRECEIVER 3820                
POS_SESSION 27733               
POS_SIDER 27955               
POS_FILETYPES 3959                
POS_OS 4100                
POS_BROWSER 4239                
POS_SCREENSIZE 4456                
POS_UNKNOWNREFERER 4534                
POS_UNKNOWNREFERERBROWSER 5514                
POS_ORIGIN 6580                
POS_SEREFERRALS 6735                
POS_PAGEREFS 7043                
POS_SEARCHWORDS 8254                
POS_KEYWORDS 10304               
POS_ERRORS 11349               
POS_SIDER_404 11509               
END_MAP

# LastLine    = Date of last record processed - Last record line number in last log - Last record offset in last log - Last record signature value
# FirstTime   = Date of first visit for history file
# LastTime    = Date of last visit for history file
# LastUpdate  = Date of last update - Nb of parsed records - Nb of old records - Nb of new records - Nb of corrupted - Nb of dropped
# TotalVisits = Number of visits
# TotalUnique = Number of unique visitors
# MonthHostsKnown   = Number of hosts known
# MonthHostsUnKnown = Number of hosts unknown
BEGIN_GENERAL 8
LastLine 20041001002233 438 88403 45740640144
FirstTime 20040901011142
LastTime 20040930230320
LastUpdate 20041001041500 438 429 1 8 0
TotalVisits 350                 
TotalUnique 242                 
MonthHostsKnown 0                   
MonthHostsUnknown 371                 
END_GENERAL

# Hour - Pages - Hits - Bandwidth
BEGIN_TIME 24
0 18 321 2062470
1 44 302 3566629
2 12 41 422712
3 22 105 1347495
4 30 108 1125016
5 22 34 515305
6 33 51 657288
7 13 50 765411
8 54 66 895137
9 63 172 1932886
10 18 178 1963722
11 30 231 2987686
12 38 378 4012127
13 40 574 4266411
14 83 721 5857185
15 85 1056 12732205
16 41 474 4952221
17 21 211 1822823
18 92 651 5833109
19 83 741 7409479
20 65 840 8215450
21 133 812 8546698
22 40 386 4141063
23 32 244 2714081
END_TIME

# Domain - Pages - Hits - Bandwidth
# The 10 first Pages must be first (order not required for others)
BEGIN_DOMAIN 1
ip 1112 8747 88744609
END_DOMAIN

# Login - Pages - Hits - Bandwidth - Last visit
# The 10 first Pages must be first (order not required for others)
BEGIN_LOGIN 1
guest 13 13 192077 20040925063757
END_LOGIN

# Robot ID - Hits - Bandwidth - Last visit
# The 10 first Hits must be first (order not required for others)
BEGIN_ROBOT 14
googlebot 148 1894206 20040929142034
pompos 86 1289246 20040919184251
slurp 76 1227328 20040929175843
jeeves 56 864930 20040930173931
linkwalker 46 0 20040901093814
crawl 32 21244 20040914160225
ia_archiver 28 523127 20040925092257
wisenutbot 6 77262 20040919141807
appie 5 92360 20040930164641
psbot 4 0 20040908203713
spider 1 21244 20040904013729
ibm 1 21244 20040905110046
scooter 1 21244 20040901070410
robot 4 58057 20040901071306
END_ROBOT

# EMail - Hits - Bandwidth - Last visit
# The 20 first Hits must be first (order not required for others)
BEGIN_EMAILSENDER 0
END_EMAILSENDER

# EMail - Hits - Bandwidth - Last visit
# The 20 first hits must be first (order not required for others)
BEGIN_EMAILRECEIVER 0
END_EMAILRECEIVER

# Files type - Hits - Bandwidth - Bandwidth without compression - Bandwidth after compression
BEGIN_FILETYPES 4
gif 5447 18047421 0 0
htm 1058 15205539 0 0
jpg 2188 53672626 0 0
pdf 54 1819023 0 0
END_FILETYPES

# OS ID - Hits
BEGIN_OS 8
win98 1285
winme 238
winxp 4909
winnt 87
linux 38
win2000 1715
Unknown 410
macintosh 65
END_OS

# Browser ID - Hits
BEGIN_BROWSER 11
msie5.5 373
netscape5.0 117
konqueror 38
netscape4.7 44
Unknown 367
netscape7.1 20
netscape7.2 74
msie5.0 142
netscape4.79 4
msie6.0 7364
msie5.01 204
END_BROWSER

# Screen size - Hits
BEGIN_SCREENSIZE 0
END_SCREENSIZE

# Unknown referer OS - Last visit date
BEGIN_UNKNOWNREFERER 17
Snoopy_v1.01 20040920045218
NextGenSearchBot_1_(for_information_visit_http://www.eliyon.com/NextGenSearchBot) 20040917085548
Microsoft_URL_Control_-_6.00.8862 20040928230240
Net_Probe 20040904141915
Wotbox/alpha0.6_(bot@wotbox.com;_http://www.wotbox.com) 20040901234845
msnbot/0.11_(_http://search.msn.com/msnbot.htm) 20040917144640
Mozilla/3.01_(compatible;) 20040929223414
Mozilla/3.0_(compatible;_Indy_Library) 20040921211655
Mozilla/4.7_[en](Exabot@exava.com) 20040913212335
CSBlaze/0.30.1_(_http://www.citysearch.com/templates/profile/webbot.html) 20040908095455
contype 20040924233157
msnbot/0.3_(_http://search.msn.com/msnbot.htm) 20040930230320
- 20040929212554
Mozilla/4.0_(compatible;_grub-client-2.3) 20040929124343
LinkExplore.com_Link_Popularity_Software_-_Top_10_Rankings_in_Google_Guaranteed 20040928192716
Faxobot/1.0 20040916170752
NG/2.0 20040912075317
END_UNKNOWNREFERER

# Unknown referer Browser - Last visit date
BEGIN_UNKNOWNREFERERBROWSER 17
Snoopy_v1.01 20040920045218
NextGenSearchBot_1_(for_information_visit_http://www.eliyon.com/NextGenSearchBot) 20040917085548
TulipChain/6.03_(http://ostermiller.org/tulipchain/)_Java/1.4.2_04_(http://java.sun.com/)_Windows_XP/5.1_RPT-HTTPClient/0.3-3 20040911032509
Microsoft_URL_Control_-_6.00.8862 20040928230240
Net_Probe 20040904141915
Wotbox/alpha0.6_(bot@wotbox.com;_http://www.wotbox.com) 20040901234845
msnbot/0.11_(_http://search.msn.com/msnbot.htm) 20040917144640
Mozilla/3.01_(compatible;) 20040929223414
contype 20040924233157
CSBlaze/0.30.1_(_http://www.citysearch.com/templates/profile/webbot.html) 20040908095455
Mozilla/3.0_(compatible;_Indy_Library) 20040921211655
msnbot/0.3_(_http://search.msn.com/msnbot.htm) 20040930230320
- 20040929212554
Mozilla/4.0_(compatible;_grub-client-2.3) 20040929124343
LinkExplore.com_Link_Popularity_Software_-_Top_10_Rankings_in_Google_Guaranteed 20040928192716
Faxobot/1.0 20040916170752
NG/2.0 20040912075317
END_UNKNOWNREFERERBROWSER

# Origin - Pages - Hits 
BEGIN_ORIGIN 6
From0 473 853
From1 0 0
From2 138 159
From3 34 51
From4 467 7684
From5 0 0
END_ORIGIN

# Search engine referers ID - Pages - Hits
BEGIN_SEREFERRALS 10
dmoz.org 1 1
msn. 52 52
google. 26 43
lycos. 1 1
overture.com 1 1
altavista. 4 4
images.google. 4 6
search.aol.co 1 1
yahoo. 46 48
search..*com 2 2
END_SEREFERRALS

# External page referers - Pages - Hits
# The 10 first Pages must be first (order not required for others)
BEGIN_PAGEREFS 16
http://www.xiom-corp.com/assocvendors.htm 8 8
http://www.manufacturersmart.com/cgi-shl/searcher.pl 6 6
http://www.shinkona.com/distributors.html 4 4
http://www.invensysenergymetering.com/tool-dealer-2/searchbystate2.cfm 3 3
http://www.bdrmgcanada.com/Contact%20Information%20-%20Etter%20Engineering.htm 3 3
http://www.faxo.com 1 1
http://engineers.addresses.com/yp_category_search/services/engineers+consulting/743/12/Cheshire,CT/2456.html 1 1
http://www.dogpile.com/info.dogpl/search/web/zero%2Bpressure%2Bgovernor%2Bregulator/21/20/2/-/-/0/1/1/1/1/-/-/-/on8%253A1094843390738%253A0%253A/-/1/-/-/-/-/-/-/-/-/-/-/-/-/-/-/-/-/-/-/-/-/-/-/zero%2Bpressure%2Bgovernor%2Bregulator 1 1
http://www.durag.com/html/salesreps/New%20York%20State.html 1 1
http://www.virtuallasvegas.net/search.shtml 1 1
http://traffixer.com/linkexplore.html 1 1
http://64.4.36.250/cgi-bin/linkrd 1 1
http://216.239.41.104/search 0 17
http://www.thomasregister.com/Catalog.aspx 1 1
http://search.earthlink.net/search 1 1
http://www.adminshop.com/FRIEND_REVIEWS.HTML 1 1
END_PAGEREFS

# Search keyphrases - Number of search
# The 10 first number of search must be first (order not required for others)
BEGIN_SEARCHWORDS 79
etter+engineering 23
drying+jalapeno 17
etter 7
gas+booster 6
gas+boosters 4
gas+booster+pump 3
burner+types 3
gas+booster+pumps 3
products+logo 2
boiler+burners 2
burner+air+fuel+ratio 1
types+of+burner+gas 1
rockwell+gas+regulator 1
etter+engineering+company+inc. 1
how+to+build+a+gas+pipe+burner 1
atmospheric+burner 1
rockwell+gas+meter+parts 1
types+of+burners 1
gas+pressure+boosters 2
parts+for+combustion+control 1
carl+dungs 1
dungs+switches 1
how+to+build+gas+burner 1
rockwell+equimeter 2
nozzle+mix+natural+gas+burners 1
venturi+methane+burner 1
drilled+pipe+burner 1
gas+atmospheric+mixer 1
etterengineering 1
types+of+burner 1
etter+engineering+co+inc 1
local+gas+booster+pump 2
how+to+build+a+gas+burner 1
rockwell+turbine+meters 1
drilled+pipe+burners 2
nfpa+85 2
installation+of+gas+booster 1
zero+governor+mixer+gas 1
booster+pump+control+panel+starter 1
package+gas+booster+assembly 1
industrial+burner+safety 1
atmospheric+ring+burners 1
natural+gas+booster+pumps 1
ir+ovens 2
www.etterengineering.com 1
siesmic+valves 1
e101p 1
gas+pressure+governor 1
rick+etter 1
gas+pressure+booster+pump 2
premix+blower 1
retrofit+high-velocity+drying 1
invensys+logo 2
flexo+web+drying 1
infrared+gas+burner 1
gas+pressure+booster 2
industrial+gas+burner 2
industrial+combustion+gas+regulator 1
zero+governor+for+gas+burner 1
gas+burner+tuning 1
natural+gas+pressure+booster 1
burner+installation 1
tuning+a+home+oil+burner 1
etter+gas+booster+pumps 1
types+of+atmospheric+burner 1
industrial+venturi+gas+burner 1
combustion+meters 1
equimeter+regulator 1
siemens+landis+long+island 1
venturi+power+burner 1
ansi+b109.3 1
equimeter+incorporated 2
boilers+nfpa+85 1
regulators 1
eclipse+gas+booster+pump 1
venturi+nozzle+gas+burner 1
rockwell-equimeter 1
eclipse+gas+booster 1
etter+engineering+company 1
END_SEARCHWORDS

# Search keywords - Number of search
# The 10 first number of search must be first (order not required for others)
BEGIN_KEYWORDS 94
gas 49
etter 35
engineering 26
booster 26
burner 24
drying 19
jalapeno 17
pump 9
pressure 8
types 7
installation 2
rick 1
regulator 3
landis 1
ansi 1
boiler 2
venturi 4
safety 1
invensys 2
zero 2
blower 1
mixer 2
island 1
co 1
mix 1
high-velocity 1
control 2
power 1
company 2
inc 1
nozzle 2
85 3
infrared 1
of 5
tuning 2
etterengineering 1
flexo 1
for 2
long 1
pipe 4
meters 2
siesmic 1
fuel 1
natural 3
burners 7
siemens 1
turbine 1
local 2
boosters 6
www.etterengineering.com 1
dungs 2
logo 4
equimeter 5
e101p 1
ratio 1
rockwell 5
inc. 1
drilled 3
pumps 5
switches 1
combustion 3
premix 1
retrofit 1
oil 1
methane 1
web 1
to 3
assembly 1
products 2
boilers 1
a 3
panel 1
b109.3 1
build 3
eclipse 2
ir 2
valves 1
carl 1
regulators 1
atmospheric 4
air 1
ovens 2
industrial 5
ring 1
incorporated 2
parts 2
rockwell-equimeter 1
how 3
nfpa 3
home 1
starter 1
governor 3
meter 1
package 1
END_KEYWORDS

# Errors - Hits - Bandwidth
BEGIN_ERRORS 6
206 55 1524320
403 9 38430
500 18 847
404 134 562919
502 2 922
405 3 12348
END_ERRORS

# URL with 404 errors - Hits - Last URL referer
BEGIN_SIDER_404 37
/cgi-bin/formmail.pl 7 http://www.etterengineering.com/
/_derived/Newsletter 1 -
/images/Image1.gif 27 http://www.etterengineering.com/DRYING.htm
/_derived/TT 1 -
/EPB+Brochure+(On+Line+PDF).pdf+-+58k 2 -
/images/Image2.gif 27 http://www.etterengineering.com/DRYING.htm
/cgi-bin/careers/Contact.pl 1 http://www.etterengineering.com/
/PartsLine 1 -
/images/Image3.gif 29 http://www.etterengineering.com/DRYING.htm
/cgi-bin/formmail/FormMail.pl 1 http://www.etterengineering.com/
/_derived/Booster 1 -
/cgi-bin/BFormMail.pl 1 http://www.etterengineering.com/
/WEBSHARE/flexo1.jpg 6 http://www.etterengineering.com/HEATERS.htm
/boosters.htm_cmp_copy-of-industrial-jgm110_vbtn_a.gif 1 -
/cgi-bin/formemail.pl 1 http://www.etterengineering.com/
/LINKS 1 -
/Console 1 -
/images/JGM/UL 1 -
/Group 1 -
/Multi-zone 1 -
/Info 1 -
/_derived/LINKS 1 -
/Tech 1 -
/boosters.htm_cmp_copy-of-industrial-jgm110_vbtn.gif 1 -
/Linking 1 -
/file:/C:/My+Documents/My+Webs/ETRX/Info+&+Help.htm 1 -
/sandvick 1 -
/TT+Burner+Tuning+030_files/Solutions.jpg 1 http://www.etterengineering.com/TT%20Burner%20Tuning%20030.htm
/Info+&amp 3 -
/Under 1 -
/_derived/Etter 1 -
/_derived/gas 1 -
/TT+Burner+Tuning+030_files/TT%20Burner%20Tuning%20030.gif 1 http://www.etterengineering.com/TT%20Burner%20Tuning%20030.htm
/_derived/Info 1 -
/_derived/Web 1 -
/_derived/Tech 1 -
/cgi-bin/mailform.pl 4 http://www.etterengineering.com/
END_SIDER_404

# Host - Pages - Hits - Bandwidth - Last visit date - [Start of last visit date] - [Last page of last visit]
# [Start of last visit date] and [Last page of last visit] are saved only if session is not finished
# The 10 first Hits must be first (order not required for others)
BEGIN_VISITOR 371
65.54.188.99 121 121 1944010 20040930230320
209.104.35.246 43 43 544248 20040908095455
64.124.25.72 42 44 632676 20040913212335
63.148.99.234 42 42 543055 20040913185355
65.54.188.107 42 42 619525 20040908223055
207.31.251.140 41 41 525221 20040917085548
138.89.183.50 28 529 6148035 20040929151939
66.194.6.77 23 23 484075 20040928085221
68.80.215.113 22 185 1869380 20040930142920
162.136.192.1 19 232 1298583 20040929200018
147.252.211.41 8 108 1422010 20040909104428
142.222.190.11 1 13 142875 20040928133429
152.163.253.97 0 1 2656 
152.163.253.98 0 2 12897 
198.74.14.100 6 57 600977 20040920175524
198.81.26.80 0 2 22774 
198.81.26.81 0 3 7996 
68.163.44.28 1 15 291755 20040910160623
216.41.63.62 5 61 762260 20040915221444
203.29.131.4 1 13 143187 20040930003321
207.195.114.187 1 17 0 20040901030454
195.229.241.181 5 5 76628 20040928230240
219.134.25.45 1 14 117954 20040901095011
195.229.241.183 2 2 36415 20040928225518
141.158.57.154 1 13 142530 20040908194719
216.248.42.30 10 71 942692 20040929203843
217.95.149.126 1 1 379 20040928192716
152.163.253.1 0 1 2743 
69.224.90.82 2 2 34497 20040917164321
195.229.241.188 4 4 59183 20040928230238
152.163.253.2 0 1 2723 
152.163.253.3 0 1 5247 
66.194.6.76 1 1 21244 20040930043032
152.163.253.4 0 1 9011 
206.242.150.66 7 83 624095 20040929212531
152.163.100.195 0 2 6738 
152.163.253.5 1 1 21268 20040901182313
152.163.100.196 0 2 25319 
152.163.253.6 0 1 2630 
152.163.100.197 0 4 26131 
66.194.6.79 2 2 26506 20040902010047
152.163.253.7 0 2 45568 
152.163.100.198 0 2 3845 
205.183.220.103 1 1 58523 20040917154530
208.181.115.2 2 2 42507 20040914004715
152.163.253.8 0 2 5464 
68.200.20.248 7 105 143604 20040930142450
152.163.100.199 0 3 7963 
152.163.253.9 0 2 40222 
192.197.128.20 4 29 239719 20040923144548
216.204.125.178 1 13 142875 20040922162846
66.173.176.72 5 33 603113 20040929155805
130.132.181.27 8 65 732842 20040915161307
141.157.225.12 1 15 291755 20040929212410
216.164.119.60 6 100 1020084 20040929223908
68.14.141.147 17 154 1238272 20040923155920
69.66.105.59 1 14 135900 20040909013330
67.138.247.2 13 13 192077 20040925063757
66.152.253.42 3 55 519930 20040913212131
142.222.190.6 1 13 142875 20040928145913
66.194.6.80 6 6 79518 20040917145825
66.194.6.81 2 2 26506 20040904031749
66.194.6.83 4 4 59991 20040929034038
66.194.6.84 7 7 99750 20040926104035
152.163.101.5 1 4 38383 20040925135647
205.188.116.201 0 1 8425 
152.163.101.6 0 1 52754 
208.59.89.57 1 15 292115 20040919002951
152.163.101.7 0 4 21939 
207.81.32.58 1 1 21244 20040902040316
152.163.101.8 0 2 3737 
152.163.101.9 0 3 15610 
63.167.187.4 0 2 0 
62.10.132.194 1 11 117245 20040926144001
24.173.210.90 1 1 15890 20040901183620
20.137.4.45 1 31 177864 20040907195004
69.45.37.173 9 9 3240 20040929212554
24.194.48.88 6 57 632663 20040901125021
66.208.244.79 1 24 333689 20040903175136
205.188.116.13 0 1 2731 
141.152.43.26 1 32 180537 20040928044603
65.214.32.173 1 14 151206 20040917220446
209.78.120.228 1 13 142875 20040916232452
218.111.19.79 3 28 329021 20040909043608
68.20.15.179 1 24 333689 20040920200129
68.248.235.124 1 8 132318 20040921231259
205.188.116.211 0 2 22925 
152.163.252.161 0 1 786 
205.188.116.140 0 2 5485 
67.85.70.104 7 145 1592358 20040921202535
63.77.247.130 0 4 0 
205.188.116.213 0 1 52754 
152.163.252.162 0 1 2670 
205.188.116.141 0 1 20207 
152.163.252.163 0 1 2731 
205.188.116.142 0 1 52754 
152.163.252.164 0 3 4179 
64.12.116.23 0 5 61857 
152.163.100.10 0 3 14434 
68.215.14.20 1 13 142875 20040924173221
152.163.100.11 0 4 93378 
24.238.43.116 1 1 13253 20040922191037
152.163.100.12 1 2 22671 20040925135702
68.99.28.9 1 12 132949 20040922025259
205.188.116.145 0 1 5247 
205.188.116.146 0 1 9059 
152.163.100.13 0 5 145720 
152.163.100.14 0 3 4155 
205.188.116.147 1 1 21268 20040901165703
198.81.26.102 0 1 9094 
198.81.26.103 0 1 2741 
80.92.73.114 1 1 13253 20040915054136
198.81.26.104 0 1 8425 
198.81.26.106 0 1 2738 
205.188.116.22 0 2 20873 
198.81.26.107 0 1 14187 
207.8.133.30 1 15 178902 20040910144859
141.153.236.46 2 31 556055 20040928180857
198.231.23.240 0 8 20911 
198.231.23.241 1 7 270844 20040927131751
134.71.106.129 1 28 291755 20040913181737
69.105.0.72 1 25 336321 20040912221135
210.23.161.72 1 14 145481 20040918123342
64.12.116.211 0 5 48592 
64.12.116.140 0 3 8229 
64.12.116.213 0 3 158262 
206.239.101.100 6 66 1052961 20040915134431
66.210.114.250 3 40 398255 20040901142703
64.12.116.145 0 3 15741 
64.12.116.147 3 3 63804 20040916145110
64.73.33.68 6 77 878970 20040910204525
67.70.80.216 7 97 1109522 20040924233229
216.170.0.183 3 38 485714 20040922213725
66.73.255.214 5 66 802926 20040928121839
65.95.37.124 1 18 161982 20040927210148
69.63.8.135 1 13 142875 20040903212011
151.204.249.134 5 71 557363 20040908162128
63.71.176.16 3 58 654087 20040909155522
199.120.191.6 1 15 184280 20040928122913
68.9.147.135 1 14 151206 20040914132639
4.158.45.214 1 14 178337 20040930012426
141.158.5.111 1 14 145162 20040927235006
203.166.3.102 7 74 720533 20040907101750
12.41.1.54 2 2 99752 20040923112330
81.214.39.108 1 13 143187 20040927164058
205.188.117.6 0 1 9059 
211.157.36.4 12 12 174485 20040921211655
68.161.48.94 3 34 433642 20040909213709
64.51.7.170 1 1 24845 20040922182720
157.160.165.159 1 14 151206 20040917191945
24.121.42.158 1 1 21244 20040904141915
198.74.13.100 6 56 777144 20040908155754
152.163.242.187 0 6 43075 
146.209.130.1 1 51 186876 20040929223414
62.121.129.178 5 47 391861 20040901110052
152.163.252.193 0 1 2731 
152.163.252.194 0 1 2723 
65.89.52.15 1 1 21244 20040911032509
155.212.192.98 10 60 739805 20040915181728
65.11.102.104 4 57 752394 20040912225214
64.241.242.18 3 3 47750 20040926093358
167.25.108.29 5 61 690886 20040929152044
61.2.50.115 1 15 291755 20040910111155
194.152.228.20 7 74 761194 20040903114549
4.15.88.177 2 23 192774 20040916193704
137.99.136.138 10 218 1070575 20040922000501
64.210.196.197 1 14 151206 20040925213530
152.163.253.100 0 1 8922 
61.2.167.39 1 15 291755 20040926110005
62.135.24.230 6 61 525333 20040929094259
152.163.253.101 0 1 8425 
12.165.32.5 3 37 483738 20040908180136
152.163.253.102 0 1 2694 
218.208.229.3 1 13 142530 20040922055534
152.163.253.104 0 1 2682 
216.57.244.151 1 5 95861 20040923235250
200.203.109.194 1 15 291755 20040927131329
64.65.204.35 8 72 736080 20040914190006
68.15.54.85 12 142 422092 20040929163027
4.242.63.24 2 8 117083 20040903220815
24.168.66.58 2 2 32275 20040920083141
64.12.116.67 0 5 9499 
64.12.116.68 0 3 2445 
66.245.206.213 1 41 177864 20040916003706
205.188.116.66 0 3 4163 
170.63.43.4 1 1 24845 20040914171304
205.188.116.69 0 1 2743 
217.82.186.156 1 1 13253 20040929124343
64.12.117.10 0 3 7968 
64.12.117.11 0 3 11970 
64.12.117.17 0 3 25275 
208.28.185.121 5 97 717979 20040929140724
66.189.63.151 7 99 838486 20040903202532
63.194.53.11 1 1 58547 20040914183558
64.3.27.226 1 18 162414 20040902160151
66.47.97.100 4 56 549213 20040906160438
205.188.116.195 0 1 2656 
24.159.186.21 1 13 142875 20040910213602
205.188.117.10 0 1 2656 
66.207.118.206 1 1 21244 20040915060241
205.188.116.196 0 1 3990 
205.188.117.11 0 1 3990 
205.188.116.197 0 1 2743 
64.12.116.79 0 3 8193 
64.134.176.83 1 18 161982 20040921215636
66.14.204.191 1 13 142875 20040927200113
152.163.100.66 0 2 11661 
205.188.116.199 0 1 2741 
152.163.100.67 0 2 11597 
64.12.117.6 0 3 27177 
152.163.100.68 2 6 66012 20040925140037
152.163.100.69 0 1 2723 
205.188.117.17 0 1 8425 
64.80.115.82 16 161 773965 20040929185237
205.188.117.18 0 2 20873 
206.219.255.152 1 16 337626 20040910034515
205.188.116.73 0 1 5247 
65.126.245.79 4 32 578268 20040930183058
205.188.116.75 1 1 21264 20040926013140
198.81.26.13 0 2 22337 
198.81.26.14 0 3 177458 
198.81.26.15 0 1 665 
205.188.116.77 0 1 2731 
198.81.26.17 0 1 2683 
152.163.101.10 0 1 2741 
152.163.101.11 0 2 9520 
67.20.157.165 8 60 730543 20040930120336
152.163.101.12 0 1 2694 
152.163.101.13 0 1 2738 
64.9.221.66 4 34 510520 20040902190018
152.163.101.14 1 5 67474 20040925135959
12.38.210.66 1 18 161982 20040924211205
67.50.44.157 1 15 292115 20040929201832
66.11.190.8 5 47 406732 20040917151105
152.163.100.71 0 3 38042 
152.163.100.73 1 2 15227 20040925140104
205.188.117.22 0 2 3396 
152.163.100.74 1 5 68765 20040925140652
66.7.168.233 1 1 13277 20040912063357
209.101.235.109 1 10 61727 20040906232209
205.188.117.23 0 1 815 
67.113.61.104 1 14 145481 20040910224558
152.163.253.35 0 2 5263 
152.163.253.36 1 1 12764 20040902043524
64.12.116.197 0 3 8229 
205.188.116.80 0 1 2743 
152.163.253.37 0 4 45898 
64.12.116.199 0 3 8223 
152.163.253.38 0 1 52754 
152.163.253.39 0 1 9059 
66.167.139.97 1 18 161982 20040907165710
205.188.116.83 0 1 2741 
64.122.138.150 10 73 760517 20040920192020
200.64.161.28 1 12 137206 20040906012116
152.163.252.98 0 1 2706 
64.123.244.155 2 14 164119 20040910145038
152.163.252.99 1 1 13277 20040901182630
213.217.58.4 1 13 143187 20040922073352
66.203.81.98 2 30 233429 20040925131026
152.163.100.200 0 4 31857 
24.222.65.137 1 13 141350 20040918204310
152.163.100.201 0 2 22810 
152.163.100.202 0 3 32761 
152.163.100.203 0 3 6992 
152.163.100.204 1 5 20578 20040925140700
216.58.237.20 2 37 484630 20040910160706
80.247.154.19 4 63 651679 20040906120153
4.63.7.122 2 24 193225 20040928103035
64.246.58.119 1 1 21244 20040920045218
81.86.64.52 3 38 274613 20040928124917
82.152.35.91 3 49 539264 20040907150722
218.145.25.49 1 17 390407 20040908075350
81.5.184.25 1 1 21244 20040901234845
206.53.231.163 1 15 291755 20040913165946
213.42.2.21 1 1 16520 20040919144032
213.42.2.23 2 2 39184 20040919192301
68.16.11.24 1 13 142875 20040907121421
170.103.2.1 1 13 143187 20040923210719
203.160.182.144 1 13 143187 20040919080636
12.163.172.130 8 104 1076376 20040903011724
198.81.26.38 0 1 2697 
69.34.1.24 1 15 291755 20040904015426
198.81.26.39 0 2 11570 
82.131.150.235 4 51 563053 20040902214229
80.203.53.240 1 1 15890 20040912204819
213.42.2.28 1 1 12908 20040919192304
65.170.131.226 4 50 489111 20040907194209
68.239.38.237 1 18 161982 20040909062730
70.17.222.71 9 67 754146 20040919010400
66.130.79.39 0 17 207183 
216.227.167.198 2 31 556029 20040930135906
209.113.202.253 3 35 475907 20040930123918
209.213.90.242 5 70 1022564 20040903140620
68.97.73.236 1 1 13253 20040905022014
198.81.26.40 1 3 18350 20040902211202
209.131.30.62 5 131 947107 20040924181305
204.28.3.51 10 218 1157374 20040901131752
24.197.32.136 14 121 1333016 20040901213902
198.81.26.43 0 1 2697 
198.81.26.44 0 3 35930 
24.71.223.140 4 42 628938 20040903034700
198.81.26.45 1 3 26478 20040902211301
198.81.26.46 1 2 21976 20040902211224
198.81.26.47 0 2 4810 
198.81.26.49 0 2 7965 
64.217.70.97 1 31 177864 20040917185237
167.206.235.5 1 18 244009 20040929180425
80.255.41.42 3 27 223398 20040910190953
209.113.251.170 0 17 140738 
63.208.18.40 1 18 161982 20040901160159
80.255.41.44 2 34 446220 20040910190919
209.180.237.185 4 53 573350 20040903183216
68.161.203.252 12 133 1208766 20040916193035
152.163.252.100 0 1 2694 
202.163.115.204 0 3 3287 
152.163.252.101 1 2 16719 20040902043548
202.163.115.205 1 8 99281 20040905071925
65.69.179.105 1 15 291755 20040922185810
152.163.252.104 0 1 2705 
209.234.96.162 1 21 153981 20040921151515
84.233.148.11 1 14 151206 20040916171540
210.213.172.134 1 13 142875 20040912090603
200.30.64.148 1 15 292115 20040908213758
202.133.193.5 3 38 485714 20040916013422
196.13.231.33 1 14 273266 20040905191232
68.162.200.130 1 18 161982 20040902145943
212.217.123.174 1 16 324788 20040907221212
200.87.85.91 1 13 142875 20040910001506
66.72.73.18 6 169 759493 20040918202354
65.112.66.70 4 35 433851 20040924132059
64.30.204.198 1 8 129585 20040929184030
207.172.176.80 1 18 161982 20040920181350
207.195.38.70 4 68 705640 20040906220025
64.9.80.67 1 15 291755 20040921192242
84.233.148.21 12 12 168992 20040912075317
66.147.181.249 5 71 326381 20040928184826
65.54.188.88 4 4 84976 20040928050107
198.81.26.6 0 1 2741 
4.245.182.81 9 152 887958 20040915210621
209.58.169.136 3 48 715405 20040928192734
198.81.26.9 0 2 18714 
130.76.32.144 1 17 159672 20040915223751
212.95.252.16 1 1 21244 20040923041320
66.152.251.250 1 1 24845 20040921154919
207.230.39.18 1 1 21244 20040916170752
66.43.250.183 1 19 164699 20040918021837
195.229.241.169 4 4 55938 20040928225520
219.88.73.152 1 13 142875 20040926204243
208.3.90.181 2 27 210650 20040913123006
206.63.252.142 2 32 558848 20040903142753
63.160.85.60 1 38 286546 20040907131354
152.163.100.5 1 3 31950 20040925140309
152.163.100.6 0 1 2706 
152.163.100.7 0 2 6704 
152.163.100.8 1 6 88968 20040925140650
65.54.188.93 2 2 42488 20040908202614
152.163.100.9 0 2 48636 
65.54.188.105 3 3 21095 20040902134951
136.141.2.76 3 38 273761 20040921162343
62.109.120.145 1 1 13253 20040901041339
200.12.239.114 1 1 4924 20040928221617
198.81.26.70 0 1 2748 
198.81.26.71 1 6 47024 20040902210957
198.81.26.72 0 2 19859 
198.81.26.74 0 3 7048 
198.81.26.75 0 1 2747 
198.81.26.76 0 5 19518 
198.160.170.1 1 21 170125 20040922150437
198.81.26.77 0 3 222801 
198.81.26.78 0 3 77842 
69.169.179.71 10 114 1026234 20040929163014
END_VISITOR

# Date - Pages - Hits - Bandwidth - Visits
BEGIN_DAY 30
20040901 53 626 5094572 18
20040902 29 279 3186186 16
20040903 63 548 5980264 16
20040904 14 28 479354 4
20040905 27 50 823318 5
20040906 14 209 2105465 5
20040907 25 361 3583931 11
20040908 73 292 3589044 15
20040909 24 301 3823277 8
20040910 24 276 3675146 15
20040911 26 29 468728 8
20040912 11 100 1306607 8
20040913 95 229 2686318 10
20040914 17 128 1460205 10
20040915 39 372 3504736 13
20040916 20 222 1880218 12
20040917 67 161 1493306 11
20040918 11 217 1245520 6
20040919 47 131 1809195 16
20040920 23 177 1938635 8
20040921 34 318 3596116 12
20040922 23 347 2630521 12
20040923 29 207 1859999 9
20040924 48 341 3476631 13
20040925 29 166 1680956 15
20040926 9 62 762731 8
20040927 7 89 1197960 7
20040928 37 349 3562547 21
20040929 151 1722 15880429 26
20040930 43 410 3962694 12
END_DAY

# Worm ID - Hits - Last visit
# The 10 first Hits must be first (order not required for others)
BEGIN_WORMS 0
END_WORMS

# Session range - Number of visits
BEGIN_SESSION 7
15mn-30mn 8
1h+ 7
0s-30s 252
5mn-15mn 22
30s-2mn 30
30mn-1h 4
2mn-5mn 27
END_SESSION

# URL - Pages - Bandwidth - Entry - Exit
# The 10 first Pages must be first (order not required for others)
BEGIN_SIDER 46
/home.htm 163 2931256 147 88
/PartsLineCard.htm 79 1256217 28 36
/gas+boosters.htm 69 1007945 21 12
/HOME.htm 64 1245645 5 16
/Etter+Products.htm 63 739265 4 7
/OVENS.htm 51 676061 32 32
/INFORMATION.htm 49 568187 4 7
/GAS+BOOSTER+OPTIONS.htm 41 517969 8 17
/TT+Burner+Types+020.htm 34 473866 27 22
/DRYING.htm 32 421604 4 5
/news.htm 19 322017 1 2
/Web+Coater+PR.htm 6 96978 0 0
/Directions.htm 16 199896 2 3
/JOBS.htm 27 488328 1 9
/TT+Burner+Intro+010.htm 12 148776 6 3
/Product+Request+Form.htm 10 49264 2 2
/History.htm 16 130816 0 2
/Announcing+New+Engineering+Assistant.htm 15 178935 3 1
/Web+Worx.htm 19 301654 6 6
/E101+Packaged+Booster+Brochure+0100.pdf 24 497337 3 10
/search.htm 8 45856 1 1
/EPB+Brochure+(On+Line+PDF).pdf 30 1321686 6 14
/Booster+Training.htm 13 87229 6 5
/Annoucning+AHR+Expo+Jan+2002.htm 8 98824 2 2
/Web+Works+Demo.htm 8 87800 1 1
/Manufacturer+Info+Request+Form.htm 7 32238 0 0
/Etter+catalogue+request+form.htm 6 31956 0 3
/meters.htm 18 101881 2 2
/toc.htm 1 23132 0 0
/Announcing+New+Controls+Engineer.htm 11 137588 1 0
/Invensys+Metro+PR.htm 6 109164 0 0
/34ft+Oven+PR.htm 7 55209 1 1
/regulato.htm 20 113403 1 4
/Panels.htm 25 547216 2 6
/Siemens+PR1.htm 6 88386 0 0
/ETTER+Newsletter+1202+Boosters+Consultants.htm 7 20769 2 4
/Tech+Tips!.htm 14 272520 0 2
/Siemens+PR2.htm 7 84693 1 1
/_derived/nortbots.htm 3 14232 0 1
/Newsletter+0202.htm 6 10470 0 0
/HEATERS.htm 24 266294 0 0
/Annoucning+Metro+Office.htm 8 99784 1 0
/LINKS+OF+INTEREST.htm 20 404640 8 11
/Info+&+Help.htm 20 384756 3 5
/Invensys+Rotary+PR.htm 10 196940 3 4
/TT+Burner+Tuning+030.htm 10 135880 5 3
END_SIDER
