AWSTATS DATA FILE 5.5 (build 1.500)
# If you remove this file, all statistics for date 2005-12 will be lost/reset.

# Position (offset in bytes) in this file of beginning of each section
# for direct I/O access. If you made changes somewhere in this file, you
# should also remove completely the MAP section (AWStats will rewrite it
# at next update).
BEGIN_MAP 25
POS_GENERAL 1817                
POS_TIME 2168                
POS_VISITOR 13870               
POS_DAY 28691               
POS_DOMAIN 2751                
POS_LOGIN 2922                
POS_ROBOT 3113                
POS_WORMS 29671               
POS_EMAILSENDER 3684                
POS_EMAILRECEIVER 3832                
POS_SESSION 29735               
POS_SIDER 29960               
POS_FILETYPES 3971                
POS_OS 4166                
POS_BROWSER 4325                
POS_SCREENSIZE 4570                
POS_UNKNOWNREFERER 4648                
POS_UNKNOWNREFERERBROWSER 5903                
POS_ORIGIN 7103                
POS_SEREFERRALS 7258                
POS_PAGEREFS 7553                
POS_SEARCHWORDS 9476                
POS_KEYWORDS 11558               
POS_ERRORS 12691               
POS_SIDER_404 12811               
END_MAP

# LastLine    = Date of last record processed - Last record line number in last log - Last record offset in last log - Last record signature value
# FirstTime   = Date of first visit for history file
# LastTime    = Date of last visit for history file
# LastUpdate  = Date of last update - Nb of parsed records - Nb of old records - Nb of new records - Nb of corrupted - Nb of dropped
# TotalVisits = Number of visits
# TotalUnique = Number of unique visitors
# MonthHostsKnown   = Number of hosts known
# MonthHostsUnKnown = Number of hosts unknown
BEGIN_GENERAL 8
LastLine 20060101000913 100 16610 46171416083
FirstTime 20051201014001
LastTime 20051231203934
LastUpdate 20060101041207 100 91 1 8 0
TotalVisits 497                 
TotalUnique 311                 
MonthHostsKnown 0                   
MonthHostsUnknown 382                 
END_GENERAL

# Hour - Pages - Hits - Bandwidth
BEGIN_TIME 24
0 74 157 2055755
1 32 159 4368506
2 38 163 3243563
3 46 230 4709331
4 28 110 1892128
5 59 169 3359404
6 29 127 2269877
7 19 96 1317969
8 21 78 1564030
9 25 194 4578801
10 28 197 3363076
11 40 275 4655427
12 42 317 6590188
13 119 858 14481586
14 80 643 9435054
15 69 524 9266221
16 79 630 13375235
17 96 673 11956443
18 85 597 11590387
19 41 196 4892693
20 82 650 14777654
21 84 560 10463820
22 59 431 5893357
23 24 119 2412936
END_TIME

# Domain - Pages - Hits - Bandwidth
# The 10 first Pages must be first (order not required for others)
BEGIN_DOMAIN 1
ip 1299 8153 152513441
END_DOMAIN

# Login - Pages - Hits - Bandwidth - Last visit
# The 10 first Pages must be first (order not required for others)
BEGIN_LOGIN 1
apaper@256.saudi.net.sa 1 10 325280 20051226114641
END_LOGIN

# Robot ID - Hits - Bandwidth - Last visit
# The 10 first Hits must be first (order not required for others)
BEGIN_ROBOT 13
googlebot 277 2450124 20051231124058
wisenutbot 173 1636064 20051231103838
slurp 137 1607365 20051231232951
robot 48 422886 20051231062055
crawl 40 160009 20051221154416
jeeves 24 475870 20051230020102
ibm 8 119496 20051226224933
ia_archiver 4 43608 20051225013016
voyager/ 3 23043 20051225030751
turnitinbot 1 8401 20051212185611
gigabot 1 20534 20051230110625
appie 1 20534 20051208113929
larbin 1 20534 20051225122253
END_ROBOT

# EMail - Hits - Bandwidth - Last visit
# The 20 first Hits must be first (order not required for others)
BEGIN_EMAILSENDER 0
END_EMAILSENDER

# EMail - Hits - Bandwidth - Last visit
# The 20 first hits must be first (order not required for others)
BEGIN_EMAILRECEIVER 0
END_EMAILRECEIVER

# Files type - Hits - Bandwidth - Bandwidth without compression - Bandwidth after compression
BEGIN_FILETYPES 7
dll 3 2174 0 0
doc 17 8806680 0 0
gif 4146 13384046 0 0
htm 1230 12844113 0 0
jpg 2708 115591069 0 0
html 1 2016 0 0
pdf 48 1883343 0 0
END_FILETYPES

# OS ID - Hits
BEGIN_OS 10
winme 324
winxp 5679
winnt 53
win95 1
win2000 1043
Unknown 373
macintosh 46
win98 590
freebsd 1
linux 43
END_OS

# Browser ID - Hits
BEGIN_BROWSER 14
msie5.5 43
netscape5.0 411
safari 13
netscape4.5 1
konqueror 43
Unknown 352
netscape7.0 54
msie4.0 1
netscape7.2 31
msie5.0 132
netscape4.0 14
msie5.01 1
msie6.0 7009
opera 48
END_BROWSER

# Screen size - Hits
BEGIN_SCREENSIZE 0
END_SCREENSIZE

# Unknown referer OS - Last visit date
BEGIN_UNKNOWNREFERER 23
oBot 20051201170338
MJ12bot/v1.0.5_(http://majestic12.co.uk/bot.php?_) 20051217124441
ZIPCodeBuyBot/1.1_<a_href="http://www.zipcodebuy.com">http://www.zipcodebuy.com</a> 20051205221247
Mozilla/5.0_(compatible;_BecomeBot/2.3;_MSIE_6.0_compatible;__http://www.become.com/site_owners.html) 20051206140316
Mozilla/4.0_(compatible;) 20051206231849
MJ12bot/v1.0.6_(http://majestic12.co.uk/bot.php?_) 20051219133139
Seeker.lookseek.com 20051207043957
IUSA_Browser 20051230153000
HTML2JPG_Blackbox,_http://www.html2jpg.com_ 20051203164207
Scrubby/2.2_(http://www.scrubtheweb.com/) 20051214191622
Java/1.4.2_03 20051229051900
Mozilla/3.01_(compatible;) 20051229215530
MSFrontPage/4.0 20051202025331
- 20051229045131
Mozilla/4.0_(compatible;_T-H-U-N-D-E-R-S-T-O-N-E) 20051225054624
Java/1.6.0-rc 20051209050728
Mozilla/4.04_(compatible;_Dulance_bot;__http://www.dulance.com/bot.jsp) 20051216203314
genieBot_(http://64.5.245.11/faq/faq.html) 20051211011637
Net_Probe 20051214172402
msnbot/1.0_(_http://search.msn.com/msnbot.htm) 20051231203934
Mozilla/2.0_(compatible;_MS_FrontPage_4.0) 20051202025331
Mozilla/4.0 20051216220053
NG/2.0 20051215202542
END_UNKNOWNREFERER

# Unknown referer Browser - Last visit date
BEGIN_UNKNOWNREFERERBROWSER 22
oBot 20051201170338
MJ12bot/v1.0.5_(http://majestic12.co.uk/bot.php?_) 20051217124441
ZIPCodeBuyBot/1.1_<a_href="http://www.zipcodebuy.com">http://www.zipcodebuy.com</a> 20051205221247
Mozilla/4.0_(compatible;) 20051206231849
MJ12bot/v1.0.6_(http://majestic12.co.uk/bot.php?_) 20051219133139
Seeker.lookseek.com 20051207043957
Scrubby/2.2_(http://www.scrubtheweb.com/) 20051214191622
HTML2JPG_Blackbox,_http://www.html2jpg.com_ 20051203164207
curl/7.13.1_(i386-portbld-freebsd4.10)_libcurl/7.13.1_OpenSSL/0.9.7d_zlib/1.1.4 20051227191047
IUSA_Browser 20051230153000
Java/1.4.2_03 20051229051900
Mozilla/3.01_(compatible;) 20051229215530
MSFrontPage/4.0 20051202025331
- 20051229045131
Mozilla/4.0_(compatible;_T-H-U-N-D-E-R-S-T-O-N-E) 20051225054624
Java/1.6.0-rc 20051209050728
Mozilla/4.04_(compatible;_Dulance_bot;__http://www.dulance.com/bot.jsp) 20051216203314
genieBot_(http://64.5.245.11/faq/faq.html) 20051211011637
Net_Probe 20051214172402
msnbot/1.0_(_http://search.msn.com/msnbot.htm) 20051231203934
Mozilla/2.0_(compatible;_MS_FrontPage_4.0) 20051202025331
NG/2.0 20051215202542
END_UNKNOWNREFERERBROWSER

# Origin - Pages - Hits 
BEGIN_ORIGIN 6
From0 571 725
From1 0 0
From2 180 224
From3 31 49
From4 517 7155
From5 0 0
END_ORIGIN

# Search engine referers ID - Pages - Hits
BEGIN_SEREFERRALS 9
msn. 37 78
google. 93 93
(^|.)ask.com 3 3
images.google. 8 10
altavista. 1 1
search.aol.co 1 1
yahoo. 31 32
search..*com 5 5
excite. 1 1
END_SEREFERRALS

# External page referers - Pages - Hits
# The 10 first Pages must be first (order not required for others)
BEGIN_PAGEREFS 26
http://www.bdrmgcanada.com/Contact%20Information%20-%20Etter%20Engineering.htm 5 5
http://216.239.37.104/translate_c 2 19
http://www.manufacturersmart.com/cgi-bin/csvread.pl 2 2
http://search.wanadoo.co.uk/search_frame.jsp 1 1
http://www.spidervisit.com 1 1
http://www.xiom-corp.com 1 1
http://www.dogpile.com/info.dogpl/search/web/solvent%2Bdrying%2Bwith%2BInfra%2Bred 1 1
http://verden.abcsok.no/index.html 1 1
http://leader.linkexchange.com/1/X1356359/showiframe 1 1
http://www.oertli-induflame.com/en/dyn_output.html 1 1
http://216.239.39.104/translate_c 0 1
http://leader.linkexchange.com/1/X1319155/showiframe 1 1
http://www.dogpile.com/info.dogpl/search/web/etter%2Bengineering%2Bpackaged%2Bbooster%2Bsystem/1/-/1/-/-/-/-/-/-/-/-/-/-/-/-/-/-/-/-/-/-/-/-/-/-/-/-/-/-/-/-/-/-/-/-/-/-/-/-/-/-/-/-/-/-/-/-/-/-/-/-/-/417/top 1 1
http://www.thomasnet.com/profile.html 1 1
http://www.process-controls.com/Shinko/distributors.html 1 1
http://www.dogpile.com/info.dogpl/search/web/(203)%2B271-0035/1/-/1/-/-/-/-/-/-/-/-/-/-/-/-/-/-/-/-/-/-/-/-/-/-/-/-/-/-/-/-/-/-/-/-/-/-/-/-/-/-/-/-/-/-/-/-/-/-/-/-/-/417/top 1 1
http://www.comcast.net/qry/websearch/ 1 1
http://leader.linkexchange.com/7/X1316267/showiframe 1 1
http://www.ip2phrase.com 1 1
http://www.durag.com/html/salesreps/Massachusetts.html 1 1
http://leader.linkexchange.com/X1683770/showiframe 1 1
http://sources.sourcetool.com/mt/burner%20controls 1 1
http://leader.linkexchange.com/1/X935327/showiframe 1 1
http://www.dogpile.com/info.dogpl/search/web/%2522etter%2Bengineering%2522/1/-/1/-/-/-/-/-/-/-/-/-/-/-/-/-/-/-/-/-/-/-/-/-/-/-/-/-/-/-/-/-/-/-/-/-/-/-/-/-/-/-/-/-/-/-/-/-/-/-/-/-/417/top 1 1
http://www.thomasnet.com/heading.html 1 1
http://www.adelphia.net/google/index.php 1 1
END_PAGEREFS

# Search keyphrases - Number of search
# The 10 first number of search must be first (order not required for others)
BEGIN_SEARCHWORDS 83
combustion+meter 45
etter+engineering 24
oertli+burners 11
oertli 9
etter 8
oertli+burner 8
gas+booster+pump 6
ir+ovens 5
plc+control+panel 3
natural+gas+pressure+booster+pump 3
etter+engineering+co 1
rockwell%2fequimeter+regulators 1
karl+dungs+distributors 1
etter+engineering+ct 1
rockwell+gas+regulator 1
combustion+and+process+controls 1
combustion+blower+controls 2
zero+gas+governor 1
replacement+parts+dungs 1
eclipse+hermetic+gas+boosters 1
burner+oertli 2
invensys+gas+meter 1
dungs+regulators 1
oil+burner+tuning 2
invensys+gas+meter+parts 1
rockwell%2fequimeter 2
packaged+gas+boosters 1
non-skid+nylons 1
state+of+the+art+ovens 1
web+drying 2
nozzle+mix+burners 1
dungs+distributors 1
drilled+pipe+burner 1
natural+gas+booster 1
types+of+burner 1
etterengineering 1
zero+pressure+governor 1
eclipse+burner+distributors 1
drilled+pipe+burners 1
slam+shut+valves 1
hermetic+gas 1
invensys%2fequimeter 1
siesmic+shut-off+valve 1
equimeter+gas+pressure+regulators 1
asphalt+burner+controls 1
infrared+web+label+curing 1
bar 1
seismic+valves 3
rockwell+gas+regulators 1
siemens+combustion 1
other+types+of+gas+burners 1
types+gas+burners 1
120 1
gas+boosters 2
rockwell+natural+gas+regulator 1
eclipse+natural+gas+check+valve 1
fired+process+equipment+burner 1
etter+webworx 1
3+t+s+of+combustion 1
gas+booster 2
engineering+%2f+quality 1
dungs+lp+regulators 1
other+types+of+burner 1
gas+booster+pumps 1
609+730%2d3815 1
www+etter+industries 1
dungs+siemens 1
build+a+gas+burner 1
eclipse+gas+booster+pumps 1
rockwell+regulator+parts 1
instromet+metering+station 1
eclipse+dungs+high+gas+pressure+switch 1
antunes+gas+pressure+switch 1
equimeter+incorporated 1
equimeter+gas+meters 1
karl+dungs 1
ul+control+panel 1
partlow+gas+meter 1
combustion+air+charts 1
smx_yp-nc 1
jscheese 1
lp+regulator+parts 1
etter+engineering+company 2
END_SEARCHWORDS

# Search keywords - Number of search
# The 10 first number of search must be first (order not required for others)
BEGIN_KEYWORDS 104
combustion 51
meter 48
etter 38
gas 34
oertli 30
engineering 29
burner 19
burners 15
booster 14
pump 9
industries 1
regulator 4
webworx 1
pressure 7
and 1
karl 2
hermetic 2
packaged 1
station 1
process 2
plc 3
invensys 2
zero 2
blower 2
mix 1
the 1
co 1
rockwell%2fequimeter 3
control 4
company 2
equipment 1
ct 1
art 1
types 4
distributors 3
nozzle 1
infrared 1
of 5
non-skid 1
etterengineering 1
tuning 2
label 1
slam 1
pipe 2
seismic 3
state 1
meters 1
replacement 1
nylons 1
siesmic 1
3 1
controls 4
instromet 1
invensys%2fequimeter 1
natural 6
metering 1
siemens 2
quality 1
shut-off 1
charts 1
bar 1
boosters 4
dungs 8
switch 2
equimeter 3
120 1
rockwell 4
lp 2
drilled 2
pumps 2
asphalt 1
730%2d3815 1
shut 1
partlow 1
www 1
oil 2
fired 1
web 3
high 1
%2f 1
other 2
a 1
panel 4
build 1
eclipse 5
drying 2
ir 5
valves 4
regulators 5
air 1
antunes 1
ovens 6
smx_yp-nc 1
incorporated 1
curing 1
s 1
parts 4
jscheese 1
t 1
valve 2
governor 2
ul 1
check 1
609 1
END_KEYWORDS

# Errors - Hits - Bandwidth
BEGIN_ERRORS 3
206 89 2831177
500 1 0
404 105 440612
END_ERRORS

# URL with 404 errors - Hits - Last URL referer
BEGIN_SIDER_404 26
/out0017.css 1 -
/store/ContactUs.htm 1 -
/contactinfo.htm 1 -
/images/Image1.gif 23 http://www.etterengineering.com/DRYING.htm
/clinic/contactus.htm 1 -
/ContactUs.htm 1 -
/contactus.htm 1 -
/out0389.css 1 -
/images/Image2.gif 23 http://www.etterengineering.com/DRYING.htm
/location.htm 1 -
/file:/C:/My+Documents/My+Webs/ETRX/Info+&+Help.htm 1 -
/html/site/contact.htm 1 -
/OERTLI+As[ja 1 -
/images/Image3.gif 24 http://www.etterengineering.com/DRYING.htm
/contact.htm 3 -
/shipinfo.htm 1 -
/ccleaning.htm 1 -
/info_contact.htm 1 -
/xerr404notfoundpage.htm 9 -
/InvensysRotaryPR.htm 1 -
/contacti.htm 1 -
/gas%20boosters.htm 2 -
/content/contact.htm 1 -
/oem/contact_us.htm 1 -
/franchiseecontact.htm 1 -
/34ft 2 -
END_SIDER_404

# Host - Pages - Hits - Bandwidth - Last visit date - [Start of last visit date] - [Last page of last visit]
# [Start of last visit date] and [Last page of last visit] are saved only if session is not finished
# The 10 first Hits must be first (order not required for others)
BEGIN_VISITOR 382
65.54.188.93 95 95 3197251 20051226145414
65.54.188.91 80 80 2963209 20051220052519
65.54.188.92 60 60 2796907 20051231203934
63.148.99.234 50 50 432847 20051218004334
38.99.203.110 25 25 229291 20051209050728
68.15.54.85 24 192 1494849 20051230193303
24.218.171.155 21 153 1711652 20051224194520
69.177.39.179 17 71 1168480 20051201132111
71.224.95.13 16 114 1875456 20051206215705
141.154.96.3 15 97 1423557 20051230184757
216.117.174.121 1 17 353399 20051207064037
12.31.142.74 13 73 749709 20051207144029
207.200.116.12 0 2 20873 
67.15.119.25 2 2 41068 20051227051158
68.250.53.157 1 15 339974 20051201131510
207.200.116.14 0 2 1456 
84.21.4.168 1 6 98410 20051212174236
203.88.159.29 1 15 340334 20051217074641
66.194.6.70 10 10 136401 20051221032132
66.194.6.71 6 6 100461 20051224140608
206.47.217.195 1 9 288869 20051208195907
66.194.6.72 5 5 46345 20051229032316
66.194.6.73 5 5 79572 20051229145339
66.194.6.74 6 6 77363 20051226163119
66.194.6.75 8 8 85204 20051231190330
66.194.6.76 6 6 55330 20051224212912
64.5.245.24 3 3 43333 20051211011637
66.194.6.77 5 5 57184 20051229214415
66.194.6.78 4 4 59038 20051227110724
68.61.140.252 1 17 414801 20051207200332
209.222.14.98 8 49 1254633 20051201162605
68.60.157.237 1 17 414801 20051218210731
66.194.6.79 1 1 20534 20051215195041
66.127.217.35 1 17 414801 20051213163824
213.142.135.29 1 13 344089 20051228062047
61.247.227.218 1 10 146807 20051219104131
71.118.5.184 1 12 221403 20051206015031
67.101.205.95 8 26 668091 20051202174741
69.37.158.141 1 17 414801 20051226174633
207.45.131.10 2 14 189675 20051213211712
201.2.223.50 1 9 107708 20051226214140
65.123.118.253 1 10 147047 20051222142011
207.236.241.194 2 2 41068 20051212194309
72.43.102.66 4 45 1132809 20051228145411
66.194.6.80 4 4 36295 20051225084230
69.37.180.251 5 35 459088 20051216152313
192.107.147.2 2 21 351215 20051208135134
210.23.226.119 1 6 97993 20051201035747
63.162.13.103 1 17 414801 20051212205540
66.194.6.81 4 4 37360 20051230051300
66.194.6.83 6 6 88912 20051230170152
66.194.6.84 5 5 57184 20051231070923
67.71.110.24 1 1 20553 20051217124441
205.188.116.203 0 1 2636 
205.188.116.130 0 1 2757 
24.188.94.54 2 37 501212 20051209005626
132.22.254.237 1 13 244481 20051212195442
205.188.116.132 0 4 571114 
64.12.116.14 0 2 20873 
205.188.116.133 0 1 2758 
65.201.248.123 0 8 0 
203.144.160.245 1 13 244234 20051206090332
205.188.116.134 0 3 36134 
205.188.116.136 1 1 9204 20051220144541
205.188.116.137 0 1 2757 
70.60.13.26 4 42 1238629 20051213202636
216.107.108.132 2 25 514591 20051206145121
205.188.116.138 0 2 5450 
67.115.25.214 1 1 15740 20051208233939
207.6.24.160 1 1 20534 20051229045131
64.110.253.36 1 18 417502 20051212170743
68.15.58.205 1 17 414801 20051202193823
132.197.145.190 14 14 154603 20051216220053
205.188.116.12 0 1 2768 
207.164.81.207 6 6 123204 20051205060721
196.42.15.19 3 26 354698 20051205201902
205.188.116.14 0 1 2676 
205.188.116.6 0 1 2677 
205.188.116.7 0 1 2753 
12.199.64.41 1 1 10785 20051207043957
205.188.116.9 0 1 2742 
66.152.200.202 2 25 569965 20051201183831
24.39.190.170 13 80 1322768 20051227203211
67.187.3.65 1 1 20534 20051219133139
24.58.82.140 1 13 244234 20051222035441
63.77.247.130 0 6 0 
216.239.36.136 2 2 25909 20051210234440
64.12.116.204 0 1 52754 
68.73.69.190 1 9 288869 20051204192156
213.252.152.15 0 1 9134 
213.178.253.2 3 40 897960 20051226182614
64.12.116.137 0 2 7948 
203.130.14.172 1 6 97849 20051212174919
155.212.241.146 2 34 829602 20051229132012
64.12.116.138 2 2 20941 20051229205508
195.197.23.30 5 51 1054580 20051213132047
12.3.196.1 3 38 889758 20051230203921
202.107.203.50 3 32 943965 20051208112520
172.173.43.243 1 12 244272 20051230011403
202.69.172.103 1 6 97849 20051201081250
206.228.161.3 4 42 925221 20051206205128
85.41.59.100 2 23 475220 20051223165901
80.65.92.156 2 24 542617 20051208134043
144.134.165.115 5 53 1063813 20051214175511
207.236.240.233 2 2 41068 20051217004323
12.31.33.163 4 56 902045 20051201220413
68.90.224.181 2 34 414801 20051219185215
81.101.64.45 1 6 97849 20051220210706
68.186.241.174 1 17 414801 20051229132145
67.86.167.52 2 34 414801 20051212224301
213.252.152.21 0 1 26065 
62.195.0.241 2 14 1070263 20051216160105
216.199.53.82 1 13 188860 20051202204423
24.121.42.210 1 1 20534 20051214172402
67.107.35.131 4 40 853440 20051202212852
206.229.18.66 8 59 1222279 20051201151125
217.140.254.172 3 31 851538 20051231202020
81.205.248.238 1 13 656123 20051227213829
67.95.61.98 1 13 244234 20051212150247
67.164.147.123 1 10 146807 20051227055009
212.23.162.38 1 17 414801 20051227101505
209.176.195.200 1 9 107708 20051213191820
80.179.107.43 1 1 20534 20051216034532
64.252.8.17 2 25 569965 20051208204116
66.216.142.230 6 56 954041 20051207151053
66.75.89.133 1 17 414801 20051205032119
128.200.43.95 1 17 414801 20051215184516
70.19.151.6 1 13 244234 20051205160156
68.219.135.81 3 31 851538 20051212211815
143.43.205.65 1 18 417430 20051207201537
222.108.110.54 7 64 1207744 20051209054445
63.138.155.18 3 28 698040 20051212173052
213.186.174.27 1 17 414801 20051223153908
12.41.1.54 1 9 0 20051219140408
62.103.31.195 8 49 349310 20051215133631
70.21.128.18 2 24 699003 20051215205322
199.2.250.33 4 18 430832 20051227212041
207.200.116.65 0 1 2706 
216.194.127.174 9 9 112147 20051229051900
68.236.116.143 7 56 524880 20051212182018
205.188.117.5 0 2 5450 
63.225.218.43 1 10 105083 20051213173958
205.188.117.6 0 2 5461 
65.68.26.46 2 20 809138 20051203172912
205.188.117.9 1 1 10611 20051220144610
70.193.39.255 2 25 0 20051209030942
68.82.222.138 1 10 146807 20051225033642
217.205.44.58 1 10 105323 20051212122547
24.36.130.54 1 6 97559 20051206021531
153.48.52.240 1 5 72009 20051202224448
153.48.52.241 0 8 172537 
65.216.75.240 1 6 97673 20051207210014
203.162.3.157 1 15 339974 20051208103146
70.85.114.98 1 1 359 20051227191047
69.122.230.157 1 17 414801 20051221211259
219.136.219.198 2 25 363063 20051201133628
61.17.253.149 6 59 1348802 20051201122746
66.155.200.194 1 17 414801 20051228151050
63.87.28.200 6 50 653879 20051216162050
69.117.223.46 5 48 716958 20051216160502
204.124.192.90 6 58 796036 20051227181842
68.170.154.181 14 102 1735704 20051222003312
207.200.116.70 0 2 285581 
205.200.6.181 1 13 244234 20051229162002
209.240.117.140 2 22 472538 20051231154511
63.226.196.113 1 13 244234 20051208163233
64.210.196.197 1 13 404088 20051222012001
81.214.64.239 8 79 376171 20051212070618
213.119.160.133 1 18 669234 20051207063637
38.117.185.222 7 50 958991 20051214140428
69.111.121.93 1 6 97559 20051206032001
193.92.70.187 1 16 783306 20051230120953
202.155.55.42 4 48 461807 20051230051238
194.232.66.25 1 19 656123 20051212160156
212.171.214.52 1 11 234716 20051210123548
81.207.139.23 1 13 656123 20051212201204
62.220.104.169 4 23 0 20051203073810
213.5.45.60 3 31 851538 20051212134715
81.243.116.132 1 13 656123 20051230212731
194.202.237.253 6 57 932404 20051222100400
67.15.16.28 2 2 41068 20051214042126
24.224.0.32 3 39 432315 20051212175227
216.239.38.136 1 1 7083 20051210234454
64.12.116.66 0 2 1456 
64.252.122.51 4 43 634929 20051202033521
158.65.167.160 12 62 1082585 20051215043020
64.12.116.68 0 1 2706 
216.6.169.27 1 13 252574 20051226223922
69.37.181.215 1 18 418785 20051213163631
81.170.17.194 2 25 521782 20051228115759
68.15.36.16 2 36 498530 20051205150403
205.188.116.65 0 2 1572 
205.188.116.66 0 3 42940 
204.124.196.29 4 34 708955 20051229215530
205.188.116.67 0 1 27176 
24.54.26.27 8 54 962738 20051212184610
66.111.196.117 1 1 15759 20051217001512
64.119.128.98 1 6 107766 20051207145244
203.125.21.98 6 52 881135 20051202110835
205.188.116.68 0 2 1630 
205.188.116.69 0 1 2768 
71.32.67.99 2 26 508572 20051209031640
64.12.117.10 0 1 4008 
199.125.14.2 3 3 61590 20051230153000
64.12.117.11 0 1 8425 
65.1.232.98 1 6 97559 20051214123523
209.165.189.18 4 36 944339 20051216013815
68.55.171.145 1 24 172799 20051218121244
203.196.176.164 1 8 200518 20051202071059
64.12.116.74 0 2 285557 
206.183.1.74 10 10 108438 20051225054624
66.207.118.206 2 2 41068 20051227022831
205.188.117.11 0 3 108137 
205.188.116.197 0 4 15896 
205.188.117.12 0 2 5450 
66.153.100.195 10 100 780672 20051209181001
205.188.116.198 0 2 1330 
82.199.193.233 9 76 1019575 20051210113612
205.188.116.199 2 4 60849 20051230213120
64.12.117.5 0 1 2725 
71.192.144.101 3 36 698276 20051228200555
204.80.132.43 1 17 415209 20051201195926
64.12.117.9 0 1 2653 
205.188.116.70 0 3 8288 
66.30.237.212 10 91 1866297 20051228125127
209.113.150.203 1 17 414801 20051213142822
66.30.208.178 5 34 949889 20051221212700
208.178.188.18 1 17 414801 20051220133341
85.105.6.127 3 53 431603 20051202135824
24.34.18.110 14 198 1403525 20051221225626
66.18.184.149 2 22 472538 20051205200523
216.140.123.24 4 44 946132 20051215232008
205.236.189.222 1 1 359 20051216002444
192.91.147.34 2 12 261246 20051212161122
67.84.108.94 1 1 15759 20051215092104
207.200.116.200 0 1 2653 
88.111.248.117 1 13 656123 20051207224622
64.90.125.126 4 44 651065 20051221155955
64.140.165.139 1 1 20530 20051214191622
207.200.116.201 0 2 12409 
202.69.178.183 1 3 62394 20051205121642
64.19.167.222 9 81 875127 20051230133835
212.179.42.189 1 17 414801 20051227124458
66.208.231.137 1 17 414801 20051206155954
217.136.100.192 1 13 656123 20051227201844
207.200.116.132 0 2 7948 
207.200.116.133 1 1 20558 20051230173747
67.50.46.118 1 17 414801 20051207020009
68.114.163.220 1 13 244234 20051213043918
207.200.116.134 1 1 15764 20051230173822
59.95.192.66 2 19 678887 20051203182401
208.195.70.41 10 74 1811102 20051205134637
207.200.116.136 0 2 3028 
57.66.70.225 1 13 656123 20051209133614
204.238.82.4 2 2 41116 20051207021535
207.200.116.137 0 1 2725 
69.163.39.122 4 33 926656 20051207162501
66.10.55.90 5 51 871779 20051206161341
207.200.116.139 0 2 25774 
81.77.122.9 3 46 750789 20051205104531
81.91.238.45 1 1 20534 20051209184639
64.12.116.197 2 2 548 20051214162225
66.178.82.201 1 1 20554 20051226115600
64.12.116.198 0 1 2725 
64.12.116.199 0 1 2725 
213.207.193.16 2 17 205842 20051224204507
204.50.255.102 1 13 244234 20051202171200
83.182.235.235 1 13 656123 20051206162025
192.249.47.9 3 28 342498 20051207143624
68.198.75.3 1 17 414801 20051218031500
66.194.6.12 2 2 41008 20051212134127
69.64.103.35 2 26 244234 20051201130700
68.194.82.242 2 26 188860 20051215145523
85.103.106.187 5 52 363688 20051201140909
209.137.172.234 1 6 97849 20051223181240
207.190.155.115 1 17 414801 20051209030626
207.216.225.200 1 12 152048 20051217220645
66.189.63.173 3 32 868133 20051207130157
65.94.168.81 1 1 20534 20051224232132
24.213.199.104 2 31 569965 20051213140640
84.74.44.81 1 17 414801 20051226163651
24.151.104.235 3 46 546901 20051221134242
81.144.182.250 1 13 404088 20051203164207
82.77.24.241 4 50 839942 20051208161241
65.184.52.77 3 28 665705 20051218204741
71.128.222.38 1 13 127865 20051222210844
64.124.85.79 8 8 68397 20051206140316
202.53.160.120 1 15 339974 20051212105352
83.131.252.37 4 52 973480 20051229182747
71.37.222.75 1 17 414801 20051229185445
66.160.142.2 2 2 18550 20051216203314
64.24.44.190 1 13 244234 20051220192821
68.9.123.63 1 13 188860 20051216030104
68.160.175.129 6 31 756563 20051207131823
12.129.64.198 1 13 244234 20051221004606
136.1.1.101 1 13 244234 20051219061315
203.110.90.178 8 94 1279820 20051212164210
66.156.218.75 5 64 1090846 20051212163436
84.53.20.40 1 15 339974 20051215114113
83.228.29.6 5 57 1298999 20051201084943
207.164.82.200 8 8 164272 20051211171635
162.136.193.1 4 46 746805 20051212130742
86.137.231.131 1 13 244234 20051221141342
69.0.23.214 1 1 20579 20051222115832
206.53.0.158 4 45 653732 20051215154014
69.242.10.165 1 6 97849 20051206023413
69.211.209.61 2 25 569965 20051228230132
203.130.14.44 0 2 0 
88.32.90.68 1 13 440399 20051213132322
67.52.22.3 1 9 107708 20051221185239
24.27.218.85 8 54 750310 20051224024101
68.255.26.210 1 17 414801 20051215144112
69.116.129.5 3 34 818240 20051221135153
69.163.2.173 1 15 339974 20051209175848
62.128.238.236 4 34 929285 20051216134719
63.218.54.133 0 1 65922 
213.240.6.49 1 13 656123 20051227095232
64.246.165.235 1 9 0 20051216231204
82.117.198.80 4 50 1054580 20051220090939
212.138.64.171 0 2 130129 
212.138.64.172 0 3 35981 
212.138.64.173 0 4 128665 
212.138.64.174 2 5 51338 20051226114628
24.13.208.82 1 21 372465 20051212044733
81.76.70.3 1 6 97849 20051230175549
212.138.64.176 0 2 5450 
212.138.64.177 0 6 292225 
212.138.64.178 0 2 55455 
69.84.107.58 2 16 409490 20051224010152
209.234.201.56 1 17 414801 20051215175958
85.155.149.158 0 18 702642 
216.145.16.235 0 8 0 
216.84.89.2 1 13 244234 20051212162345
216.145.16.236 1 17 415209 20051216231140
83.135.138.238 2 30 309198 20051227174639
202.32.109.130 1 13 244234 20051208092641
70.86.96.218 1 1 378 20051205221247
208.180.100.129 1 9 107708 20051202162347
205.188.117.67 0 1 2636 
205.188.117.68 0 2 5306 
72.56.38.193 1 17 414801 20051204203820
205.188.117.69 0 2 8016 
69.37.111.19 7 57 783113 20051221141204
81.156.29.11 1 6 97849 20051202011935
144.247.241.20 1 6 97993 20051212181923
212.95.252.16 1 1 20534 20051211213745
24.164.92.6 1 1 280 20051203220004
12.147.59.34 9 47 1844739 20051213160107
81.76.97.157 2 13 349939 20051222181347
24.176.247.197 1 1 515343 20051229073013
210.213.126.254 1 13 656123 20051228185627
62.49.147.50 3 31 851538 20051221093617
69.204.60.151 3 45 746805 20051230015356
65.82.126.103 3 28 592331 20051221152944
65.54.188.94 3 3 36332 20051210033721
205.188.117.70 0 1 8425 
205.188.117.71 0 1 23460 
205.188.117.74 0 1 2691 
69.240.201.250 2 25 569965 20051220181200
199.125.45.10 1 13 244234 20051230192830
24.91.126.207 8 74 1011900 20051227112509
222.101.201.96 1 8 157299 20051220074548
88.109.12.18 8 57 1375846 20051224221614
80.58.41.236 1 13 656147 20051226175444
209.113.177.210 1 17 414801 20051205142656
200.106.75.184 15 177 1443034 20051201180120
199.126.58.144 14 71 1756662 20051202030109
196.32.143.222 1 4 50796 20051207025439
81.137.48.73 4 49 518200 20051215145023
216.251.209.111 1 13 244546 20051214154624
66.0.131.58 1 5 92858 20051206204717
66.194.6.67 4 4 70587 20051231000716
69.4.71.18 5 5 58922 20051216161519
66.37.45.6 1 13 244234 20051227125804
66.194.6.68 6 6 89267 20051228125818
207.200.116.195 0 1 4929 
200.91.230.58 8 54 1054580 20051201173617
207.200.116.196 0 2 55383 
193.47.80.41 2 2 6753 20051215202542
207.200.116.197 0 2 21465 
168.243.232.130 8 67 1023000 20051202141739
207.200.116.199 0 1 87145 
END_VISITOR

# Date - Pages - Hits - Bandwidth - Visits
BEGIN_DAY 31
20051201 98 768 12336012 24
20051202 72 469 8415850 24
20051203 28 94 3210226 13
20051204 27 51 997368 11
20051205 35 285 5241368 18
20051206 46 325 6228238 17
20051207 54 379 7952515 23
20051208 23 220 4770139 14
20051209 65 408 6120936 16
20051210 30 125 3254167 14
20051211 11 11 200152 7
20051212 83 757 12726233 35
20051213 40 299 7119736 20
20051214 22 133 2131187 16
20051215 48 341 5490686 18
20051216 54 290 5726355 18
20051217 30 80 1399722 10
20051218 61 141 2153919 10
20051219 24 113 2300320 11
20051220 22 175 3210712 17
20051221 59 590 8709102 17
20051222 29 177 3069785 16
20051223 24 66 1181682 8
20051224 48 313 4826908 13
20051225 29 38 1540336 9
20051226 35 158 3759135 17
20051227 45 373 6928264 18
20051228 43 290 6971732 15
20051229 35 258 5802606 17
20051230 58 357 6145242 24
20051231 21 69 2592808 7
END_DAY

# Worm ID - Hits - Last visit
# The 10 first Hits must be first (order not required for others)
BEGIN_WORMS 0
END_WORMS

# Session range - Number of visits
BEGIN_SESSION 7
15mn-30mn 16
1h+ 10
0s-30s 339
30s-2mn 48
5mn-15mn 28
30mn-1h 12
2mn-5mn 44
END_SESSION

# URL - Pages - Bandwidth - Entry - Exit
# The 10 first Pages must be first (order not required for others)
BEGIN_SIDER 53
/home.htm 312 5008394 194 144
/PartsLineCard.htm 116 1558832 41 49
/gas+boosters.htm 101 775883 52 50
/Etter+Products.htm 94 773043 8 18
/OERTLI+Asphalt+Burner.htm 78 357101 41 28
/TT+Burner+Tuning+030.htm 41 368404 37 39
/INFORMATION.htm 40 262669 5 8
/OVENS.htm 36 247271 11 17
/HEATERS.htm 34 312326 2 4
/GAS+BOOSTER+OPTIONS.htm 32 265183 4 13
/news.htm 11 89562 0 3
/feedback.htm 3 17259 0 1
/Web+Coater+PR.htm 3 24798 0 0
/Directions.htm 13 103454 2 6
/JOBS.htm 14 153622 2 3
/TT+Burner+Intro+010.htm 8 61904 0 3
/Product+Request+Form.htm 10 67220 1 2
/History.htm 11 54010 0 3
/Announcing+New+Engineering+Assistant.htm 4 28360 0 0
/HOME.htm 9 163816 4 3
/_vti_bin/shtml.dll 2 993 0 0
/Web+Worx.htm 17 193290 5 8
/inforequestfrm.htm 3 11676 0 0
/E101+Packaged+Booster+Brochure+0100.pdf 23 631018 2 6
/search.htm 12 34824 10 10
/_vti_bin/_vti_aut/author.dll 1 1181 0 0
/TT+Burner+Types+020.htm 21 194823 14 17
/Portable+IR+Brochure.doc 8 4683936 4 1
/EPB+Brochure+(On+Line+PDF).pdf 25 1252325 3 8
/Cure+Worx.htm 20 168092 8 6
/Annoucning+AHR+Expo+Jan+2002.htm 3 20817 0 2
/Web+Works+Demo.htm 2 15998 1 0
/Manufacturer+Info+Request+Form.htm 9 57753 2 1
/Etter+catalogue+request+form.htm 9 64188 1 3
/meters.htm 19 96121 4 0
/Announcing+New+Controls+Engineer.htm 2 14202 1 0
/toc.htm 2 12524 1 1
/Invensys+Metro+PR.htm 3 20775 0 0
/34ft+Oven+PR.htm 3 13077 0 0
/regulato.htm 20 101479 4 3
/Panels.htm 29 348739 7 7
/DRYING.htm 32 323641 8 11
/Siemens+PR1.htm 2 13098 0 0
/ETTER+Newsletter+1202+Boosters+Consultants.htm 2 9620 0 1
/Siemens+PR2.htm 2 13646 1 0
/Tech+Tips!.htm 10 108880 5 3
/Newsletter+0202.htm 3 14721 1 0
/IR+with+XIOM+Brochure.doc 9 4122744 1 2
/Annoucning+Metro+Office.htm 4 28024 1 2
/_vti_inf.html 1 2016 0 0
/LINKS+OF+INTEREST.htm 13 123628 2 7
/Info+&+Help.htm 12 96924 5 2
/Invensys+Rotary+PR.htm 6 50442 2 2
END_SIDER
