2000.12.22 12:04 B C:\My Documents\My Webs\ETRX\_private\inforeq.htm --> 205.178.180.183 /_private inforeq.htm
2000.12.22 12:04 B C:\My Documents\My Webs\ETRX\_private\inforeq.txt --> 205.178.180.183 /_private inforeq.txt
2000.12.22 12:48 A C:\My Documents\My Webs\ETRX\_private\inforeq.htm --> 205.178.180.183 /images/_private inforeq.htm
2000.12.22 12:48 A C:\My Documents\My Webs\ETRX\_private\inforeq.txt --> 205.178.180.183 /images/_private inforeq.txt
2000.12.22 12:48 A C:\My Documents\My Webs\ETRX\_private\WS_FTP.LOG --> 205.178.180.183 /images/_private WS_FTP.LOG
2001.03.07 17:03 B C:\My Documents\My Webs\ETRX\_private\inforeq.htm --> 205.178.180.183 /_private inforeq.htm
2001.04.05 13:55 B C:\My Documents\My Webs\ETRX\_private\inforeq.htm --> 205.178.180.30 /_private inforeq.htm
2001.04.05 13:55 B C:\My Documents\My Webs\ETRX\_private\inforeq.txt --> 205.178.180.30 /_private inforeq.txt
2001.04.05 13:55 B C:\My Documents\My Webs\ETRX\_private\WS_FTP.LOG --> 205.178.180.30 /_private WS_FTP.LOG
