2000.12.22 11:58 B C:\My Documents\My Webs\ETRX\_borders\bottom.htm --> 205.178.180.183 /_borders bottom.htm
2000.12.22 11:58 B C:\My Documents\My Webs\ETRX\_borders\gas.ht1.gif --> 205.178.180.183 /_borders gas.ht1.gif
2000.12.22 11:58 B C:\My Documents\My Webs\ETRX\_borders\gas.ht2.gif --> 205.178.180.183 /_borders gas.ht2.gif
2000.12.22 11:58 B C:\My Documents\My Webs\ETRX\_borders\left.htm --> 205.178.180.183 /_borders left.htm
2000.12.22 11:58 B C:\My Documents\My Webs\ETRX\_borders\right.htm --> 205.178.180.183 /_borders right.htm
2000.12.22 11:59 B C:\My Documents\My Webs\ETRX\_borders\top.ht1.gif --> 205.178.180.183 /_borders top.ht1.gif
2000.12.22 11:59 B C:\My Documents\My Webs\ETRX\_borders\top.htm --> 205.178.180.183 /_borders top.htm
2000.12.22 12:42 A C:\My Documents\My Webs\ETRX\_borders\bottom.htm --> 205.178.180.183 /images/_borders bottom.htm
2000.12.22 12:42 A C:\My Documents\My Webs\ETRX\_borders\gas.ht1.gif --> 205.178.180.183 /images/_borders gas.ht1.gif
2000.12.22 12:42 A C:\My Documents\My Webs\ETRX\_borders\gas.ht2.gif --> 205.178.180.183 /images/_borders gas.ht2.gif
2000.12.22 12:42 A C:\My Documents\My Webs\ETRX\_borders\left.htm --> 205.178.180.183 /images/_borders left.htm
2000.12.22 12:42 A C:\My Documents\My Webs\ETRX\_borders\right.htm --> 205.178.180.183 /images/_borders right.htm
2000.12.22 12:42 A C:\My Documents\My Webs\ETRX\_borders\top.ht1.gif --> 205.178.180.183 /images/_borders top.ht1.gif
2000.12.22 12:42 A C:\My Documents\My Webs\ETRX\_borders\top.htm --> 205.178.180.183 /images/_borders top.htm
2000.12.22 12:42 A C:\My Documents\My Webs\ETRX\_borders\WS_FTP.LOG --> 205.178.180.183 /images/_borders WS_FTP.LOG
2001.03.07 16:49 B C:\My Documents\My Webs\ETRX\_borders\bottom.htm --> 205.178.180.183 /_borders bottom.htm
2001.03.07 16:49 B C:\My Documents\My Webs\ETRX\_borders\right.htm --> 205.178.180.183 /_borders right.htm
2001.03.07 16:49 B C:\My Documents\My Webs\ETRX\_borders\top.htm --> 205.178.180.183 /_borders top.htm
2001.03.07 16:53 B C:\My Documents\My Webs\ETRX\_borders\WS_FTP.LOG --> 205.178.180.183 /_borders WS_FTP.LOG
2001.04.05 13:35 B C:\My Documents\My Webs\ETRX\_borders\bottom.htm --> 205.178.180.30 /_borders bottom.htm
2001.04.05 13:35 B C:\My Documents\My Webs\ETRX\_borders\gas.ht1.gif --> 205.178.180.30 /_borders gas.ht1.gif
2001.04.05 13:35 B C:\My Documents\My Webs\ETRX\_borders\gas.ht2.gif --> 205.178.180.30 /_borders gas.ht2.gif
2001.04.05 13:35 B C:\My Documents\My Webs\ETRX\_borders\j0178419.jpg --> 205.178.180.30 /_borders j0178419.jpg
2001.04.05 13:35 B C:\My Documents\My Webs\ETRX\_borders\left.htm --> 205.178.180.30 /_borders left.htm
2001.04.05 13:35 B C:\My Documents\My Webs\ETRX\_borders\PH01526K.jpg --> 205.178.180.30 /_borders PH01526K.jpg
2001.04.05 13:35 B C:\My Documents\My Webs\ETRX\_borders\PH02038K.jpg --> 205.178.180.30 /_borders PH02038K.jpg
2001.04.05 13:35 B C:\My Documents\My Webs\ETRX\_borders\right.htm --> 205.178.180.30 /_borders right.htm
2001.04.05 13:35 B C:\My Documents\My Webs\ETRX\_borders\top.ht1.gif --> 205.178.180.30 /_borders top.ht1.gif
2001.04.05 13:35 B C:\My Documents\My Webs\ETRX\_borders\top.htm --> 205.178.180.30 /_borders top.htm
2001.04.05 13:35 B C:\My Documents\My Webs\ETRX\_borders\WS_FTP.LOG --> 205.178.180.30 /_borders WS_FTP.LOG
2001.04.05 14:19 B C:\My Documents\My Webs\ETRX\_borders\left.htm --> 205.178.180.30 /_borders left.htm
