vti_encoding:SR|utf8-nl
vti_timelastmodified:TR|01 Oct 2002 23:29:46 -0000
vti_extenderversion:SR|5.0.2.4803
vti_backlinkinfo:VX|feedback.htm
vti_syncwith_localhost\\c\:\\etterwebsite/c\:/etterwebsite:TR|01 Oct 2002 23:29:46 -0000
vti_syncwith_localhost\\c\:\\etterwebsite2/c\:/etterwebsite2:TR|01 Oct 2002 23:29:46 -0000
vti_author:SR|WIN2008\\gineeringcom
vti_modifiedby:SR|WIN2008\\gineeringcom
vti_nexttolasttimemodified:TR|01 Oct 2002 23:29:46 -0000
vti_timecreated:TR|23 Jan 2005 17:12:56 -0000
vti_timelastindexed:TW|05 Jul 2005 14:53:59 -0000
vti_lineageid:SR|{0E8ACE9C-8156-4AD1-BAF5-234905D50F7F}
vti_cacheddtm:TX|05 Jul 2005 14:53:59 -0000
vti_filesize:IR|0
