vti_encoding:SR|utf8-nl
vti_timelastmodified:TR|01 Oct 2002 23:29:47 -0000
vti_extenderversion:SR|5.0.2.4803
vti_lineageid:SR|{43859B1D-98A6-4A10-997D-94DF1C0A15B2}
vti_backlinkinfo:VX|
vti_syncwith_localhost\\c\:\\etterwebsite/c\:/etterwebsite:TR|01 Oct 2002 23:29:47 -0000
vti_syncwith_localhost\\c\:\\etterwebsite2/c\:/etterwebsite2:TR|01 Oct 2002 23:29:47 -0000
vti_author:SR|WIN2008\\gineeringcom
vti_modifiedby:SR|WIN2008\\gineeringcom
vti_nexttolasttimemodified:TR|01 Oct 2002 23:29:47 -0000
vti_timecreated:TR|23 Jan 2005 17:12:56 -0000
vti_cacheddtm:TX|01 Oct 2002 23:29:47 -0000
vti_filesize:IR|1022
